# started on Fri Apr 26 17:26:11 2024


 Performance counter stats for 'taskset 1 ./command.sh':

          52913.76 msec task-clock                       #    1.000 CPUs utilized             
               518      context-switches                 #    9.790 /sec                      
                 1      cpu-migrations                   #    0.019 /sec                      
            182316      page-faults                      #    3.446 K/sec                     
      163640128278      cycles                           #    3.093 GHz                       
      218535961464      instructions                     #    1.34  insn per cycle            
       44060424770      branches                         #  832.684 M/sec                     
        1137468078      branch-misses                    #    2.58% of all branches           

      52.922244830 seconds time elapsed

      52.399315000 seconds user
       0.511887000 seconds sys


