# started on Mon Feb  5 15:34:28 2024


 Performance counter stats for './command.sh':

             72.72 msec task-clock                       #    0.995 CPUs utilized             
                 3      context-switches                 #   41.256 /sec                      
                 0      cpu-migrations                   #    0.000 /sec                      
              1115      page-faults                      #   15.334 K/sec                     
         224218307      cycles                           #    3.083 GHz                       
         435702449      instructions                     #    1.94  insn per cycle            
          51865046      branches                         #  713.254 M/sec                     
            605786      branch-misses                    #    1.17% of all branches           

       0.073079181 seconds time elapsed

       0.072329000 seconds user
       0.000000000 seconds sys


