{
  "failures": 0,
  "instructions": {
    "df": 314,
    "f": 248
  },
  "overheadtime": 0.055404048413038254,
  "steplist": [
    16.0,
    21.0,
    28.0,
    34.0,
    15.0,
    20.0,
    16.0,
    22.0,
    25.0,
    45.0,
    51.0,
    29.0,
    44.0,
    24.0,
    22.0,
    8.0,
    23.0,
    23.0,
    23.0,
    30.0,
    42.0,
    372.0,
    21.0,
    15.0,
    42.0,
    16.0,
    48.0,
    11.0,
    14.0,
    25.0
  ],
  "time": 0.04608771204948425
}