# started on Wed Feb  7 15:37:50 2024


 Performance counter stats for './command.sh':

          47329.61 msec task-clock                       #    1.001 CPUs utilized             
               649      context-switches                 #   13.712 /sec                      
                53      cpu-migrations                   #    1.120 /sec                      
            137595      page-faults                      #    2.907 K/sec                     
      146367289596      cycles                           #    3.093 GHz                       
      302277777990      instructions                     #    2.07  insn per cycle            
       77372125906      branches                         #    1.635 G/sec                     
         218256693      branch-misses                    #    0.28% of all branches           

      47.266843246 seconds time elapsed

      46.964667000 seconds user
       0.372131000 seconds sys


