# started on Fri Apr 26 18:45:16 2024


 Performance counter stats for 'taskset 1 ./command.sh':

         559924.83 msec task-clock                       #    1.000 CPUs utilized             
              5365      context-switches                 #    9.582 /sec                      
                 1      cpu-migrations                   #    0.002 /sec                      
            200066      page-faults                      #  357.309 /sec                      
     1731671480704      cycles                           #    3.093 GHz                       
     3636115044293      instructions                     #    2.10  insn per cycle            
      384584120905      branches                         #  686.850 M/sec                     
        6875017925      branch-misses                    #    1.79% of all branches           

     559.973365248 seconds time elapsed

     559.404441000 seconds user
       0.510409000 seconds sys


