Running as unit: run-r71986334b0744ac38849b3bccbadbfae.scope; invocation ID: 8e562d151397497cba28e3d505492a5c
[src/main.rs:28] parametric_system.f[0].instructions.len() = 3554
[src/main.rs:29] parametric_system.df[0].instructions.len() = 6721
continuation 1/1
1591
