Running as unit: run-r486fad7993994318af56bccea81319ab.scope; invocation ID: 5fbf220997134a14a1362981a5fced80
[src/main.rs:28] parametric_system.f[0].instructions.len() = 200
[src/main.rs:29] parametric_system.df[0].instructions.len() = 296
continuation 1/1
66
