# started on Fri Apr 26 17:14:30 2024


 Performance counter stats for 'taskset 1 ./command.sh':

          52639.67 msec task-clock                       #    1.000 CPUs utilized             
               465      context-switches                 #    8.834 /sec                      
                 1      cpu-migrations                   #    0.019 /sec                      
            162838      page-faults                      #    3.093 K/sec                     
      162793710665      cycles                           #    3.093 GHz                       
      221592607923      instructions                     #    1.36  insn per cycle            
       44348195798      branches                         #  842.486 M/sec                     
        1157577897      branch-misses                    #    2.61% of all branches           

      52.647386718 seconds time elapsed

      52.193333000 seconds user
       0.443918000 seconds sys


