# started on Fri Apr 26 09:32:48 2024


 Performance counter stats for 'taskset 1 ./command.sh':

         234732.01 msec task-clock                       #    1.000 CPUs utilized             
            144261      context-switches                 #  614.577 /sec                      
                 1      cpu-migrations                   #    0.004 /sec                      
              9469      page-faults                      #   40.340 /sec                      
      725700551913      cycles                           #    3.092 GHz                       
     1499682362904      instructions                     #    2.07  insn per cycle            
      188628094948      branches                         #  803.589 M/sec                     
        2211007704      branch-misses                    #    1.17% of all branches           

     234.759684119 seconds time elapsed

     222.163320000 seconds user
      12.564126000 seconds sys


