{
  "system": [
    "(0.960595102790169 - 0.680041899503742*I)*t*x0 + 2.00000000000000*t*x1 + 2.00000000000000*t*x2 + 2.00000000000000*t*x3 + 2.00000000000000*t*x4 + (-0.960595102790169 + 0.680041899503742*I)*t + (0.0394048972098315 + 0.680041899503742*I)*x0 - 0.0394048972098315 - 0.680041899503742*I",
    "t*x0^2 + (2.01680220631707 - 0.815748137094622*I)*t*x1^2 + 2.00000000000000*t*x2^2 + 2.00000000000000*t*x3^2 + 2.00000000000000*t*x4^2 - t*x0 + (-0.0168022063170672 + 0.815748137094622*I)*x1^2 + (-0.0168022063170672 + 0.815748137094622*I)*t + 0.0168022063170672 - 0.815748137094622*I",
    "2.00000000000000*t*x0*x1 + 2.00000000000000*t*x1*x2 + (0.611566800072598 + 0.928671634432227*I)*t*x2^2 + 2.00000000000000*t*x2*x3 + 2.00000000000000*t*x3*x4 - t*x1 + (-0.611566800072598 - 0.928671634432227*I)*x2^2 + (-0.611566800072598 - 0.928671634432227*I)*t + 0.611566800072598 + 0.928671634432227*I",
    "t*x1^2 + 2.00000000000000*t*x0*x2 + 2.00000000000000*t*x1*x3 + (1.08192363569853 - 0.106823855473938*I)*t*x3^2 + 2.00000000000000*t*x2*x4 - t*x2 + (-1.08192363569853 + 0.106823855473938*I)*x3^2 + (-1.08192363569853 + 0.106823855473938*I)*t + 1.08192363569853 - 0.106823855473938*I",
    "2.00000000000000*t*x1*x2 + 2.00000000000000*t*x0*x3 + 2.00000000000000*t*x1*x4 + (-0.270045415644011 - 0.0736290205565944*I)*t*x4^2 - t*x3 + (0.270045415644011 + 0.0736290205565944*I)*x4^2 + (0.270045415644011 + 0.0736290205565944*I)*t - 0.270045415644011 - 0.0736290205565944*I"
  ],
  "variables": [
    "x0",
    "x1",
    "x2",
    "x3",
    "x4"
  ],
  "parameters": [
    "t"
  ],
  "path": [
    [
      "0.0"
    ],
    [
      "1.0"
    ]
  ],
  "fiber": [
    [
      "1.00000000000000",
      "1.00000000000000",
      "1.00000000000000",
      "1.00000000000000",
      "1.00000000000000"
    ],
    [
      "1.00000000000000",
      "-1.00000000000000 + 1.22464679914735e-16*I",
      "1.00000000000000",
      "1.00000000000000",
      "1.00000000000000"
    ],
    [
      "1.00000000000000",
      "1.00000000000000",
      "-1.00000000000000 + 1.22464679914735e-16*I",
      "1.00000000000000",
      "1.00000000000000"
    ],
    [
      "1.00000000000000",
      "-1.00000000000000 + 1.22464679914735e-16*I",
      "-1.00000000000000 + 1.22464679914735e-16*I",
      "1.00000000000000",
      "1.00000000000000"
    ],
    [
      "1.00000000000000",
      "1.00000000000000",
      "1.00000000000000",
      "-1.00000000000000 + 1.22464679914735e-16*I",
      "1.00000000000000"
    ],
    [
      "1.00000000000000",
      "-1.00000000000000 + 1.22464679914735e-16*I",
      "1.00000000000000",
      "-1.00000000000000 + 1.22464679914735e-16*I",
      "1.00000000000000"
    ],
    [
      "1.00000000000000",
      "1.00000000000000",
      "-1.00000000000000 + 1.22464679914735e-16*I",
      "-1.00000000000000 + 1.22464679914735e-16*I",
      "1.00000000000000"
    ],
    [
      "1.00000000000000",
      "-1.00000000000000 + 1.22464679914735e-16*I",
      "-1.00000000000000 + 1.22464679914735e-16*I",
      "-1.00000000000000 + 1.22464679914735e-16*I",
      "1.00000000000000"
    ],
    [
      "1.00000000000000",
      "1.00000000000000",
      "1.00000000000000",
      "1.00000000000000",
      "-1.00000000000000 + 1.22464679914735e-16*I"
    ],
    [
      "1.00000000000000",
      "-1.00000000000000 + 1.22464679914735e-16*I",
      "1.00000000000000",
      "1.00000000000000",
      "-1.00000000000000 + 1.22464679914735e-16*I"
    ],
    [
      "1.00000000000000",
      "1.00000000000000",
      "-1.00000000000000 + 1.22464679914735e-16*I",
      "1.00000000000000",
      "-1.00000000000000 + 1.22464679914735e-16*I"
    ],
    [
      "1.00000000000000",
      "-1.00000000000000 + 1.22464679914735e-16*I",
      "-1.00000000000000 + 1.22464679914735e-16*I",
      "1.00000000000000",
      "-1.00000000000000 + 1.22464679914735e-16*I"
    ],
    [
      "1.00000000000000",
      "1.00000000000000",
      "1.00000000000000",
      "-1.00000000000000 + 1.22464679914735e-16*I",
      "-1.00000000000000 + 1.22464679914735e-16*I"
    ],
    [
      "1.00000000000000",
      "-1.00000000000000 + 1.22464679914735e-16*I",
      "1.00000000000000",
      "-1.00000000000000 + 1.22464679914735e-16*I",
      "-1.00000000000000 + 1.22464679914735e-16*I"
    ],
    [
      "1.00000000000000",
      "1.00000000000000",
      "-1.00000000000000 + 1.22464679914735e-16*I",
      "-1.00000000000000 + 1.22464679914735e-16*I",
      "-1.00000000000000 + 1.22464679914735e-16*I"
    ],
    [
      "1.00000000000000",
      "-1.00000000000000 + 1.22464679914735e-16*I",
      "-1.00000000000000 + 1.22464679914735e-16*I",
      "-1.00000000000000 + 1.22464679914735e-16*I",
      "-1.00000000000000 + 1.22464679914735e-16*I"
    ]
  ]
}