{
  "overheadtime": 2.6115682,
  "time": 0.071714164,
  "ncertified": 100,
  "failures": 0,
  "steplist": [
    25,
    25,
    12,
    10,
    24,
    23,
    29,
    22,
    33,
    29,
    17,
    22,
    16,
    20,
    21,
    16,
    17,
    27,
    15,
    27,
    33,
    21,
    30,
    26,
    27,
    21,
    27,
    74,
    14,
    38,
    18,
    30,
    44,
    13,
    21,
    20,
    22,
    29,
    18,
    24,
    13,
    18,
    16,
    30,
    22,
    18,
    32,
    22,
    22,
    19,
    24,
    19,
    21,
    47,
    27,
    11,
    16,
    18,
    34,
    22,
    25,
    27,
    23,
    23,
    27,
    16,
    28,
    34,
    20,
    14,
    18,
    22,
    14,
    30,
    19,
    37,
    33,
    25,
    40,
    19,
    20,
    15,
    12,
    37,
    24,
    23,
    22,
    16,
    17,
    19,
    21,
    19,
    10,
    12,
    37,
    16,
    26,
    24,
    21,
    20
  ]
}