# started on Mon Feb  5 15:55:19 2024


 Performance counter stats for './command.sh':

             20.32 msec task-clock                       #    0.983 CPUs utilized             
                 3      context-switches                 #  147.657 /sec                      
                 0      cpu-migrations                   #    0.000 /sec                      
               601      page-faults                      #   29.581 K/sec                     
          62638728      cycles                           #    3.083 GHz                       
         127069130      instructions                     #    2.03  insn per cycle            
          18805326      branches                         #  925.580 M/sec                     
            235168      branch-misses                    #    1.25% of all branches           

       0.020663445 seconds time elapsed

       0.019258000 seconds user
       0.000879000 seconds sys


