Running as unit: run-re568986f16b54839af5f871e277a3057.scope; invocation ID: cdd83cca1ca9407aaeadfd74199f4d56
[src/main.rs:28] parametric_system.f[0].instructions.len() = 1016
[src/main.rs:29] parametric_system.df[0].instructions.len() = 1280
continuation 1/100
45
continuation 2/100
56
continuation 3/100
81
continuation 4/100
48
continuation 5/100
30
continuation 6/100
161
continuation 7/100
23
continuation 8/100
23
continuation 9/100
54
continuation 10/100
61
continuation 11/100
43
continuation 12/100
39
continuation 13/100
27
continuation 14/100
74
continuation 15/100
60
continuation 16/100
65
continuation 17/100
123
continuation 18/100
29
continuation 19/100
47
continuation 20/100
45
continuation 21/100
47
continuation 22/100
143
continuation 23/100
55
continuation 24/100
114
continuation 25/100
86
continuation 26/100
67
continuation 27/100
95
continuation 28/100
35
continuation 29/100
50
continuation 30/100
26
continuation 31/100
27
continuation 32/100
53
continuation 33/100
93
continuation 34/100
49
continuation 35/100
40
continuation 36/100
57
continuation 37/100
59
continuation 38/100
67
continuation 39/100
105
continuation 40/100
67
continuation 41/100
56
continuation 42/100
85
continuation 43/100
37
continuation 44/100
38
continuation 45/100
23
continuation 46/100
67
continuation 47/100
116
continuation 48/100
43
continuation 49/100
45
continuation 50/100
76
continuation 51/100
44
continuation 52/100
59
continuation 53/100
55
continuation 54/100
89
continuation 55/100
51
continuation 56/100
51
continuation 57/100
56
continuation 58/100
36
continuation 59/100
41
continuation 60/100
23
continuation 61/100
51
continuation 62/100
39
continuation 63/100
75
continuation 64/100
58
continuation 65/100
33
continuation 66/100
57
continuation 67/100
23
continuation 68/100
249
continuation 69/100
80
continuation 70/100
46
continuation 71/100
117
continuation 72/100
28
continuation 73/100
307
continuation 74/100
75
continuation 75/100
29
continuation 76/100
74
continuation 77/100
48
continuation 78/100
137
continuation 79/100
60
continuation 80/100
81
continuation 81/100
81
continuation 82/100
38
continuation 83/100
61
continuation 84/100
50
continuation 85/100
40
continuation 86/100
53
continuation 87/100
41
continuation 88/100
32
continuation 89/100
63
continuation 90/100
42
continuation 91/100
65
continuation 92/100
113
continuation 93/100
46
continuation 94/100
49
continuation 95/100
52
continuation 96/100
47
continuation 97/100
18
continuation 98/100
32
continuation 99/100
53
continuation 100/100
90
