{
  "failures": 0,
  "instructions": {
    "df": 1280,
    "f": 1016
  },
  "overheadtime": 0.7072683572769165,
  "steplist": [
    90.0,
    53.0,
    32.0,
    18.0,
    47.0,
    52.0,
    49.0,
    46.0,
    113.0,
    65.0,
    42.0,
    63.0,
    32.0,
    41.0,
    53.0,
    40.0,
    50.0,
    61.0,
    38.0,
    81.0,
    81.0,
    60.0,
    137.0,
    48.0,
    74.0,
    29.0,
    75.0,
    307.0,
    28.0,
    117.0,
    46.0,
    80.0,
    249.0,
    23.0,
    57.0,
    33.0,
    58.0,
    75.0,
    39.0,
    51.0,
    23.0,
    41.0,
    36.0,
    56.0,
    51.0,
    51.0,
    89.0,
    55.0,
    59.0,
    44.0,
    76.0,
    45.0,
    43.0,
    116.0,
    67.0,
    23.0,
    38.0,
    37.0,
    85.0,
    56.0,
    67.0,
    105.0,
    67.0,
    59.0,
    57.0,
    40.0,
    49.0,
    93.0,
    53.0,
    27.0,
    26.0,
    50.0,
    35.0,
    95.0,
    67.0,
    86.0,
    114.0,
    55.0,
    143.0,
    47.0,
    45.0,
    47.0,
    29.0,
    123.0,
    65.0,
    60.0,
    74.0,
    27.0,
    39.0,
    43.0,
    61.0,
    54.0,
    23.0,
    23.0,
    161.0,
    30.0,
    48.0,
    81.0,
    56.0,
    45.0
  ],
  "time": 0.683944582939148
}