# started on Mon Feb  5 16:01:41 2024


 Performance counter stats for './command.sh':

           9158.06 msec task-clock                       #    1.000 CPUs utilized             
                36      context-switches                 #    3.931 /sec                      
                 0      cpu-migrations                   #    0.000 /sec                      
              8036      page-faults                      #  877.479 /sec                      
       28318215887      cycles                           #    3.092 GHz                       
       52021702151      instructions                     #    1.84  insn per cycle            
        5030562731      branches                         #  549.305 M/sec                     
          15063546      branch-misses                    #    0.30% of all branches           

       9.158955980 seconds time elapsed

       9.141950000 seconds user
       0.016001000 seconds sys


