{
  "system": [
    "(0.218070503378734 - 1.64940180427272*I)*t*x0^50 + (0.0999798953779607 - 1.03112422263159*I)*t*x0^49 + (-0.0865955860201181 + 0.895942484667514*I)*x0^50 + (-0.250418141221427 + 0.589325722031238*I)*t*x0^48 + (0.761796926856812 - 0.297179542725332*I)*t*x0^47 + (0.547416310942650 - 0.770312321161646*I)*t*x0^46 + (-1.96825426743078 + 0.612336831278335*I)*t*x0^45 + (-0.456217730382082 - 0.931684378843856*I)*t*x0^44 + (1.93033885793904 + 0.499230050858619*I)*t*x0^43 + (1.13270072836028 - 0.368210464442451*I)*t*x0^42 + (0.768476624679207 - 0.733798011192994*I)*t*x0^41 + (0.599824724257032 - 0.802190161711026*I)*t*x0^40 + (-0.684008468561336 + 2.27549013167956*I)*t*x0^39 + (0.696269483808477 + 0.688026219601214*I)*t*x0^38 + (-1.56490099531770 - 1.12171396363732*I)*t*x0^37 + (1.47804712305926 - 2.41605348614982*I)*t*x0^36 + (-0.0974373586608258 - 0.306139898742473*I)*t*x0^35 + (0.144035747277862 + 0.823358980010280*I)*t*x0^34 + (0.807457743773249 + 1.84750497907139*I)*t*x0^33 + (0.805989879914752 - 0.822172152893529*I)*t*x0^32 + (-0.934472964051123 - 0.608881945242915*I)*t*x0^31 + (-1.36143281817370 - 0.208898875838118*I)*t*x0^30 + (0.0177876083959910 - 0.990761557398092*I)*t*x0^29 + (-0.846974613574211 + 1.70211309341905*I)*t*x0^28 + (0.923423764395122 + 0.975849978248829*I)*t*x0^27 + (0.00654269148109288 - 0.123692439279296*I)*t*x0^26 + (0.641759059576846 - 1.76896124383929*I)*t*x0^25 + (-1.41514409631630 - 0.189574132000370*I)*t*x0^24 + (-0.0856248134206069 + 0.857280235640805*I)*t*x0^23 + (-0.556565475987974 - 0.240164756475249*I)*t*x0^22 + (0.831164442236047 - 0.670300987593313*I)*t*x0^21 + (0.0129784621162803 - 0.274741610826543*I)*t*x0^20 + (0.340061204781722 + 0.165422780494335*I)*t*x0^19 + (0.595549074444157 - 0.733477759973086*I)*t*x0^18 + (0.508782176699223 + 0.665370545560627*I)*t*x0^17 + (0.308586066373124 - 2.52538323049652*I)*t*x0^16 + (0.605555084102202 + 0.465449524810597*I)*t*x0^15 + (-0.688746547957263 + 0.303217214193538*I)*t*x0^14 + (0.265146727955342 - 0.0916792994005626*I)*t*x0^13 + (-1.72559373124416 + 0.432444760500226*I)*t*x0^12 + (0.0605462553803533 - 1.72249764761588*I)*t*x0^11 + (-0.146440624847328 + 0.0909945712868142*I)*t*x0^10 + (-2.46588939248742 + 1.09786846048329*I)*t*x0^9 + (-0.116350713641841 + 2.22664638785596*I)*t*x0^8 + (-1.32134182422629 + 0.747649097324200*I)*t*x0^7 + (-0.406594549121717 + 0.439795084197058*I)*t*x0^6 + (-0.262867719647453 - 0.889026519223309*I)*t*x0^5 + (0.478944948846087 + 0.595366858779418*I)*t*x0^4 + (-0.734056651343119 - 0.493907491527252*I)*t*x0^3 + (0.707624361465464 + 1.38259880564599*I)*t*x0^2 + (-0.423919065401207 + 1.89221661047904*I)*t*x0 + (0.972486408015949 + 0.690237666968979*I)*t + 0.0865955860201181 - 0.895942484667514*I"
  ],
  "variables": [
    "x0"
  ],
  "parameters": [
    "t"
  ],
  "path": [
    [
      "0.0"
    ],
    [
      "1.0"
    ]
  ],
  "fiber": [
    [
      "1.00000000000000"
    ],
    [
      "0.992114701314478 + 0.125333233564304*I"
    ],
    [
      "0.968583161128631 + 0.248689887164855*I"
    ],
    [
      "0.929776485888251 + 0.368124552684678*I"
    ],
    [
      "0.876306680043864 + 0.481753674101715*I"
    ],
    [
      "0.809016994374947 + 0.587785252292473*I"
    ],
    [
      "0.728968627421412 + 0.684547105928689*I"
    ],
    [
      "0.637423989748690 + 0.770513242775789*I"
    ],
    [
      "0.535826794978997 + 0.844327925502015*I"
    ],
    [
      "0.425779291565073 + 0.904827052466020*I"
    ],
    [
      "0.309016994374947 + 0.951056516295154*I"
    ],
    [
      "0.187381314585725 + 0.982287250728689*I"
    ],
    [
      "0.0627905195293135 + 0.998026728428272*I"
    ],
    [
      "-0.0627905195293134 + 0.998026728428272*I"
    ],
    [
      "-0.187381314585725 + 0.982287250728689*I"
    ],
    [
      "-0.309016994374947 + 0.951056516295154*I"
    ],
    [
      "-0.425779291565073 + 0.904827052466019*I"
    ],
    [
      "-0.535826794978997 + 0.844327925502015*I"
    ],
    [
      "-0.637423989748690 + 0.770513242775789*I"
    ],
    [
      "-0.728968627421411 + 0.684547105928689*I"
    ],
    [
      "-0.809016994374947 + 0.587785252292473*I"
    ],
    [
      "-0.876306680043863 + 0.481753674101716*I"
    ],
    [
      "-0.929776485888251 + 0.368124552684678*I"
    ],
    [
      "-0.968583161128631 + 0.248689887164855*I"
    ],
    [
      "-0.992114701314478 + 0.125333233564305*I"
    ],
    [
      "-1.00000000000000 + 1.22464679914735e-16*I"
    ],
    [
      "-0.992114701314478 - 0.125333233564304*I"
    ],
    [
      "-0.968583161128631 - 0.248689887164855*I"
    ],
    [
      "-0.929776485888251 - 0.368124552684678*I"
    ],
    [
      "-0.876306680043864 - 0.481753674101715*I"
    ],
    [
      "-0.809016994374948 - 0.587785252292473*I"
    ],
    [
      "-0.728968627421412 - 0.684547105928689*I"
    ],
    [
      "-0.637423989748690 - 0.770513242775789*I"
    ],
    [
      "-0.535826794978996 - 0.844327925502015*I"
    ],
    [
      "-0.425779291565072 - 0.904827052466020*I"
    ],
    [
      "-0.309016994374948 - 0.951056516295154*I"
    ],
    [
      "-0.187381314585725 - 0.982287250728689*I"
    ],
    [
      "-0.0627905195293132 - 0.998026728428272*I"
    ],
    [
      "0.0627905195293128 - 0.998026728428272*I"
    ],
    [
      "0.187381314585724 - 0.982287250728689*I"
    ],
    [
      "0.309016994374947 - 0.951056516295154*I"
    ],
    [
      "0.425779291565073 - 0.904827052466020*I"
    ],
    [
      "0.535826794978996 - 0.844327925502016*I"
    ],
    [
      "0.637423989748689 - 0.770513242775790*I"
    ],
    [
      "0.728968627421411 - 0.684547105928689*I"
    ],
    [
      "0.809016994374947 - 0.587785252292473*I"
    ],
    [
      "0.876306680043864 - 0.481753674101715*I"
    ],
    [
      "0.929776485888251 - 0.368124552684678*I"
    ],
    [
      "0.968583161128631 - 0.248689887164855*I"
    ],
    [
      "0.992114701314478 - 0.125333233564305*I"
    ]
  ]
}