{
  "system": [
    "t*(1 + ((-0.660261344731970)*x_0 + (-1.22912602244781)*x_1 + (-1.10229711920393)*x_2)^30 + ((-0.762295857715632)*x_0 + (-0.902117149928159)*x_1 + (-1.09896605623950)*x_2)^30 + ((-1.27103133457463)*x_0 + (-0.348712298970173)*x_1 + (-1.90602442531491)*x_2)^30 + ((-0.455636567518916)*x_0 + (-2.01186198683283)*x_1 + (-0.350110985038149)*x_2)^30 + ((-1.39999511037742)*x_0 + (-0.662814607105616)*x_1 + (-1.29399188740387)*x_2)^30 + ((-1.64754309219201)*x_0 + (-1.28821171203888)*x_1 + (-1.45903243541091)*x_2)^30 + (0.120103507096430*x_0 + (-0.0665714030156455)*x_1 + 0.309648092327702*x_2)^30 + ((-2.67257007140551)*x_0 + 1.03542990520939*x_1 + (-2.79580974315072)*x_2)^30 + ((-1.79364523526383)*x_0 + (-0.362266645201718)*x_1 + (-1.53529419180412)*x_2)^30 + ((-0.758479966322635)*x_0 + (-1.66266878262142)*x_1 + (-1.24619504263778)*x_2)^30) + (1 - t)*((-2.3118666903605 + I*-0.786776153541821)*(x_0^30 - 1))",
    "t*(-1 + ((-1.08059549195398)*x_0 + (-0.588406478083724)*x_1 + (-1.23451471992057)*x_2)^30 + ((-0.509598609467767)*x_0 + 0.246443426608302*x_1 + (-0.126462301129414)*x_2)^30 + ((-1.99426211749990)*x_0 + (-2.37873260138620)*x_1 + (-1.13468315313838)*x_2)^30 + ((-0.589270355098761)*x_0 + (-1.03524974459391)*x_1 + (-0.485896662580548)*x_2)^30 + ((-2.10346300650315)*x_0 + (-1.94526307105117)*x_1 + (-1.62664193339367)*x_2)^30 + ((-0.928374092916198)*x_0 + (-2.88848202618521)*x_1 + (-1.19202727180133)*x_2)^30 + ((-1.48912334111846)*x_0 + (-2.40462787822912)*x_1 + (-1.44607748765100)*x_2)^30 + ((-0.0433601920909321)*x_0 + (-1.07797623879124)*x_1 + (-0.775654506636756)*x_2)^30 + ((-1.65205509716690)*x_0 + (-1.56484317577386)*x_1 + (-0.590120006196391)*x_2)^30 + ((-0.486268355220115)*x_0 + (-0.747750932245547)*x_1 + (-0.284373589726866)*x_2)^30) + (1 - t)*((-1.3002943322129341 + I*-1.8598972360674113)*(x_1^30 - 1))",
    "t*(1 + (0.147142550468489*x_0 + (-1.56250438082733)*x_1 + (-1.97523146953417)*x_2)^30 + ((-0.209589259543858)*x_0 + (-0.332440433324132)*x_1 + (-2.83691587600369)*x_2)^30 + ((-1.72431033871999)*x_0 + 0.167766181266201*x_1 + (-1.93849048969500)*x_2)^30 + ((-2.43153133942948)*x_0 + (-0.339387436892234)*x_1 + (-1.95852604354510)*x_2)^30 + ((-2.05220870601673)*x_0 + (-0.890341370218902)*x_1 + 0.278933942788097*x_2)^30 + (0.108060649813335*x_0 + (-2.30711851177529)*x_1 + (-0.594733686086509)*x_2)^30 + ((-0.522416525426317)*x_0 + (-1.56861916278279)*x_1 + (-1.30055329380964)*x_2)^30 + ((-0.418528106757399)*x_0 + 0.00276454341201116*x_1 + (-1.50956083267018)*x_2)^30 + ((-1.08954180482964)*x_0 + (-2.22469015319300)*x_1 + 0.730631247155554*x_2)^30 + ((-1.06649041678400)*x_0 + (-1.63038977307991)*x_1 + (-1.02092999484679)*x_2)^30) + (1 - t)*((1.1376680789752578 + I*1.6608013223723987)*(x_2^30 - 1))"
  ],
  "variables": [
    "x_0",
    "x_1",
    "x_2"
  ],
  "parameters": [
    "t"
  ],
  "path": [
    [
      "0.0"
    ],
    [
      "1.0"
    ]
  ],
  "fiber": [
    [
      "-0.913545457642601 - 0.406736643075800*I",
      "-0.913545457642601 + 0.406736643075800*I",
      "0.978147600733806 + 0.207911690817759*I"
    ],
    [
      "0.500000000000000 - 0.866025403784439*I",
      "-0.669130606358858 + 0.743144825477394*I",
      "0.913545457642601 + 0.406736643075800*I"
    ],
    [
      "0.913545457642601 + 0.406736643075800*I",
      "-0.809016994374947 + 0.587785252292473*I",
      "0.669130606358858 - 0.743144825477394*I"
    ],
    [
      "-0.500000000000000 + 0.866025403784439*I",
      "-0.809016994374947 + 0.587785252292473*I",
      "-0.104528463267654 - 0.994521895368273*I"
    ],
    [
      "0.104528463267653 + 0.994521895368273*I",
      "0.978147600733806 - 0.207911690817760*I",
      "-0.309016994374947 + 0.951056516295154*I"
    ],
    [
      "-0.669130606358858 + 0.743144825477394*I",
      "-0.309016994374948 - 0.951056516295154*I",
      "-0.913545457642601 - 0.406736643075800*I"
    ],
    [
      "0.104528463267653 - 0.994521895368273*I",
      "0.809016994374947 - 0.587785252292473*I",
      "-0.913545457642601 - 0.406736643075800*I"
    ],
    [
      "-0.809016994374947 + 0.587785252292473*I",
      "1.00000000000000",
      "-0.500000000000000 - 0.866025403784438*I"
    ],
    [
      "-0.978147600733806 + 0.207911690817759*I",
      "0.809016994374947 + 0.587785252292473*I",
      "-0.669130606358858 + 0.743144825477394*I"
    ],
    [
      "-0.104528463267654 - 0.994521895368273*I",
      "0.500000000000000 + 0.866025403784439*I",
      "0.104528463267653 - 0.994521895368273*I"
    ],
    [
      "-0.978147600733806 + 0.207911690817759*I",
      "0.913545457642601 - 0.406736643075800*I",
      "-0.809016994374947 + 0.587785252292473*I"
    ],
    [
      "-0.309016994374947 + 0.951056516295154*I",
      "-0.809016994374948 - 0.587785252292473*I",
      "-0.913545457642601 - 0.406736643075800*I"
    ],
    [
      "-0.500000000000000 + 0.866025403784439*I",
      "1.00000000000000",
      "0.104528463267653 - 0.994521895368273*I"
    ],
    [
      "-0.913545457642601 + 0.406736643075800*I",
      "-0.809016994374948 - 0.587785252292473*I",
      "-0.913545457642601 - 0.406736643075800*I"
    ],
    [
      "-0.913545457642601 + 0.406736643075800*I",
      "0.500000000000000 - 0.866025403784439*I",
      "0.500000000000000 - 0.866025403784439*I"
    ],
    [
      "0.669130606358858 + 0.743144825477394*I",
      "-0.104528463267654 - 0.994521895368273*I",
      "-0.809016994374947 + 0.587785252292473*I"
    ],
    [
      "-0.669130606358858 + 0.743144825477394*I",
      "-0.978147600733806 - 0.207911690817759*I",
      "-0.309016994374948 - 0.951056516295154*I"
    ],
    [
      "0.500000000000000 + 0.866025403784439*I",
      "-0.669130606358858 + 0.743144825477394*I",
      "-0.809016994374947 + 0.587785252292473*I"
    ],
    [
      "-0.809016994374948 - 0.587785252292473*I",
      "-0.669130606358858 + 0.743144825477394*I",
      "0.104528463267653 - 0.994521895368273*I"
    ],
    [
      "-0.913545457642601 + 0.406736643075800*I",
      "0.309016994374947 - 0.951056516295154*I",
      "-0.913545457642601 - 0.406736643075800*I"
    ],
    [
      "0.913545457642601 - 0.406736643075800*I",
      "-0.978147600733806 + 0.207911690817759*I",
      "-0.978147600733806 - 0.207911690817759*I"
    ],
    [
      "-0.978147600733806 - 0.207911690817759*I",
      "0.809016994374947 + 0.587785252292473*I",
      "0.309016994374947 - 0.951056516295154*I"
    ],
    [
      "0.309016994374947 + 0.951056516295154*I",
      "0.809016994374947 - 0.587785252292473*I",
      "-0.978147600733806 - 0.207911690817759*I"
    ],
    [
      "0.104528463267653 - 0.994521895368273*I",
      "0.913545457642601 + 0.406736643075800*I",
      "-0.978147600733806 + 0.207911690817759*I"
    ],
    [
      "1.00000000000000",
      "-0.500000000000000 - 0.866025403784438*I",
      "-0.913545457642601 - 0.406736643075800*I"
    ],
    [
      "0.104528463267653 + 0.994521895368273*I",
      "-0.978147600733806 + 0.207911690817759*I",
      "-0.978147600733806 + 0.207911690817759*I"
    ],
    [
      "0.809016994374947 - 0.587785252292473*I",
      "0.978147600733806 - 0.207911690817760*I",
      "-0.809016994374947 + 0.587785252292473*I"
    ],
    [
      "0.500000000000000 - 0.866025403784439*I",
      "-0.913545457642601 - 0.406736643075800*I",
      "-0.669130606358858 + 0.743144825477394*I"
    ],
    [
      "0.913545457642601 - 0.406736643075800*I",
      "0.104528463267653 + 0.994521895368273*I",
      "-0.978147600733806 + 0.207911690817759*I"
    ],
    [
      "0.978147600733806 + 0.207911690817759*I",
      "0.669130606358858 + 0.743144825477394*I",
      "0.913545457642601 - 0.406736643075800*I"
    ],
    [
      "0.809016994374947 + 0.587785252292473*I",
      "0.978147600733806 - 0.207911690817760*I",
      "0.500000000000000 - 0.866025403784439*I"
    ],
    [
      "-0.978147600733806 + 0.207911690817759*I",
      "-0.913545457642601 + 0.406736643075800*I",
      "-1.00000000000000 + 1.22464679914735e-16*I"
    ],
    [
      "0.104528463267653 - 0.994521895368273*I",
      "-0.309016994374948 - 0.951056516295154*I",
      "0.809016994374947 - 0.587785252292473*I"
    ],
    [
      "0.500000000000000 - 0.866025403784439*I",
      "-0.500000000000000 - 0.866025403784438*I",
      "-0.809016994374948 - 0.587785252292473*I"
    ],
    [
      "-0.669130606358858 + 0.743144825477394*I",
      "-0.309016994374947 + 0.951056516295154*I",
      "-0.104528463267654 - 0.994521895368273*I"
    ],
    [
      "-0.978147600733806 - 0.207911690817759*I",
      "-0.104528463267653 + 0.994521895368273*I",
      "0.978147600733806 - 0.207911690817760*I"
    ],
    [
      "-0.913545457642601 - 0.406736643075800*I",
      "-0.669130606358858 - 0.743144825477394*I",
      "-0.913545457642601 + 0.406736643075800*I"
    ],
    [
      "-0.809016994374948 - 0.587785252292473*I",
      "0.669130606358858 - 0.743144825477394*I",
      "1.00000000000000"
    ],
    [
      "0.978147600733806 - 0.207911690817760*I",
      "-0.309016994374947 + 0.951056516295154*I",
      "0.669130606358858 + 0.743144825477394*I"
    ],
    [
      "-0.104528463267653 + 0.994521895368273*I",
      "-0.104528463267653 + 0.994521895368273*I",
      "0.104528463267653 - 0.994521895368273*I"
    ],
    [
      "0.809016994374947 - 0.587785252292473*I",
      "-0.669130606358858 + 0.743144825477394*I",
      "-0.500000000000000 + 0.866025403784439*I"
    ],
    [
      "0.309016994374947 - 0.951056516295154*I",
      "0.669130606358858 - 0.743144825477394*I",
      "0.309016994374947 + 0.951056516295154*I"
    ],
    [
      "-0.669130606358858 + 0.743144825477394*I",
      "-0.809016994374948 - 0.587785252292473*I",
      "-0.500000000000000 + 0.866025403784439*I"
    ],
    [
      "-0.104528463267654 - 0.994521895368273*I",
      "0.978147600733806 + 0.207911690817759*I",
      "0.978147600733806 - 0.207911690817760*I"
    ],
    [
      "-0.913545457642601 - 0.406736643075800*I",
      "0.500000000000000 - 0.866025403784439*I",
      "-0.104528463267654 - 0.994521895368273*I"
    ],
    [
      "-0.500000000000000 + 0.866025403784439*I",
      "-0.104528463267653 + 0.994521895368273*I",
      "0.309016994374947 - 0.951056516295154*I"
    ],
    [
      "-0.809016994374948 - 0.587785252292473*I",
      "-0.104528463267654 - 0.994521895368273*I",
      "-0.104528463267653 + 0.994521895368273*I"
    ],
    [
      "-0.809016994374948 - 0.587785252292473*I",
      "-0.104528463267653 + 0.994521895368273*I",
      "-0.500000000000000 - 0.866025403784438*I"
    ],
    [
      "-0.104528463267654 - 0.994521895368273*I",
      "-0.309016994374948 - 0.951056516295154*I",
      "0.913545457642601 + 0.406736643075800*I"
    ],
    [
      "0.500000000000000 + 0.866025403784439*I",
      "-0.104528463267653 + 0.994521895368273*I",
      "-0.669130606358858 - 0.743144825477394*I"
    ],
    [
      "0.978147600733806 + 0.207911690817759*I",
      "0.500000000000000 + 0.866025403784439*I",
      "0.978147600733806 - 0.207911690817760*I"
    ],
    [
      "-0.978147600733806 - 0.207911690817759*I",
      "0.500000000000000 - 0.866025403784439*I",
      "0.809016994374947 + 0.587785252292473*I"
    ],
    [
      "-0.669130606358858 - 0.743144825477394*I",
      "-0.500000000000000 + 0.866025403784439*I",
      "0.309016994374947 + 0.951056516295154*I"
    ],
    [
      "0.104528463267653 + 0.994521895368273*I",
      "0.978147600733806 - 0.207911690817760*I",
      "0.309016994374947 + 0.951056516295154*I"
    ],
    [
      "0.669130606358858 + 0.743144825477394*I",
      "-0.500000000000000 + 0.866025403784439*I",
      "-0.104528463267653 + 0.994521895368273*I"
    ],
    [
      "0.669130606358858 - 0.743144825477394*I",
      "0.669130606358858 - 0.743144825477394*I",
      "-0.978147600733806 + 0.207911690817759*I"
    ],
    [
      "-0.309016994374948 - 0.951056516295154*I",
      "-1.00000000000000 + 1.22464679914735e-16*I",
      "0.309016994374947 - 0.951056516295154*I"
    ],
    [
      "0.309016994374947 + 0.951056516295154*I",
      "-0.669130606358858 + 0.743144825477394*I",
      "-0.669130606358858 - 0.743144825477394*I"
    ],
    [
      "1.00000000000000",
      "0.104528463267653 + 0.994521895368273*I",
      "0.669130606358858 - 0.743144825477394*I"
    ],
    [
      "0.809016994374947 + 0.587785252292473*I",
      "-0.669130606358858 + 0.743144825477394*I",
      "-0.669130606358858 - 0.743144825477394*I"
    ],
    [
      "0.669130606358858 + 0.743144825477394*I",
      "0.809016994374947 + 0.587785252292473*I",
      "0.309016994374947 + 0.951056516295154*I"
    ],
    [
      "0.809016994374947 - 0.587785252292473*I",
      "0.978147600733806 + 0.207911690817759*I",
      "0.104528463267653 + 0.994521895368273*I"
    ],
    [
      "-0.669130606358858 + 0.743144825477394*I",
      "0.669130606358858 - 0.743144825477394*I",
      "0.104528463267653 - 0.994521895368273*I"
    ],
    [
      "-1.00000000000000 + 1.22464679914735e-16*I",
      "-0.309016994374948 - 0.951056516295154*I",
      "-0.104528463267654 - 0.994521895368273*I"
    ],
    [
      "-0.309016994374947 + 0.951056516295154*I",
      "0.104528463267653 - 0.994521895368273*I",
      "0.809016994374947 - 0.587785252292473*I"
    ],
    [
      "-0.978147600733806 + 0.207911690817759*I",
      "-0.978147600733806 - 0.207911690817759*I",
      "-0.500000000000000 - 0.866025403784438*I"
    ],
    [
      "-0.669130606358858 + 0.743144825477394*I",
      "-0.978147600733806 - 0.207911690817759*I",
      "-0.669130606358858 - 0.743144825477394*I"
    ],
    [
      "0.309016994374947 - 0.951056516295154*I",
      "-0.913545457642601 + 0.406736643075800*I",
      "-0.309016994374948 - 0.951056516295154*I"
    ],
    [
      "0.500000000000000 + 0.866025403784439*I",
      "0.978147600733806 + 0.207911690817759*I",
      "-0.500000000000000 + 0.866025403784439*I"
    ],
    [
      "0.500000000000000 - 0.866025403784439*I",
      "0.978147600733806 + 0.207911690817759*I",
      "0.669130606358858 - 0.743144825477394*I"
    ],
    [
      "0.978147600733806 - 0.207911690817760*I",
      "0.913545457642601 + 0.406736643075800*I",
      "-0.809016994374948 - 0.587785252292473*I"
    ],
    [
      "0.104528463267653 + 0.994521895368273*I",
      "0.978147600733806 + 0.207911690817759*I",
      "-0.913545457642601 - 0.406736643075800*I"
    ],
    [
      "0.669130606358858 + 0.743144825477394*I",
      "-0.500000000000000 - 0.866025403784438*I",
      "0.500000000000000 - 0.866025403784439*I"
    ],
    [
      "1.00000000000000",
      "-0.669130606358858 + 0.743144825477394*I",
      "0.809016994374947 + 0.587785252292473*I"
    ],
    [
      "0.104528463267653 + 0.994521895368273*I",
      "0.978147600733806 + 0.207911690817759*I",
      "0.669130606358858 - 0.743144825477394*I"
    ],
    [
      "0.104528463267653 + 0.994521895368273*I",
      "-0.809016994374947 + 0.587785252292473*I",
      "0.309016994374947 + 0.951056516295154*I"
    ],
    [
      "-0.500000000000000 - 0.866025403784438*I",
      "0.809016994374947 + 0.587785252292473*I",
      "0.913545457642601 + 0.406736643075800*I"
    ],
    [
      "0.104528463267653 - 0.994521895368273*I",
      "-0.104528463267654 - 0.994521895368273*I",
      "-0.809016994374947 + 0.587785252292473*I"
    ],
    [
      "0.809016994374947 + 0.587785252292473*I",
      "0.809016994374947 - 0.587785252292473*I",
      "0.978147600733806 - 0.207911690817760*I"
    ],
    [
      "-0.809016994374948 - 0.587785252292473*I",
      "0.809016994374947 + 0.587785252292473*I",
      "0.104528463267653 + 0.994521895368273*I"
    ],
    [
      "0.309016994374947 - 0.951056516295154*I",
      "-0.104528463267654 - 0.994521895368273*I",
      "-0.500000000000000 - 0.866025403784438*I"
    ],
    [
      "0.104528463267653 + 0.994521895368273*I",
      "-0.309016994374947 + 0.951056516295154*I",
      "0.978147600733806 - 0.207911690817760*I"
    ],
    [
      "-0.978147600733806 + 0.207911690817759*I",
      "-0.913545457642601 - 0.406736643075800*I",
      "0.669130606358858 + 0.743144825477394*I"
    ],
    [
      "-0.669130606358858 + 0.743144825477394*I",
      "-0.104528463267654 - 0.994521895368273*I",
      "-0.500000000000000 + 0.866025403784439*I"
    ],
    [
      "-0.309016994374948 - 0.951056516295154*I",
      "0.500000000000000 + 0.866025403784439*I",
      "0.500000000000000 - 0.866025403784439*I"
    ],
    [
      "-0.913545457642601 - 0.406736643075800*I",
      "0.104528463267653 + 0.994521895368273*I",
      "-0.500000000000000 + 0.866025403784439*I"
    ],
    [
      "0.913545457642601 + 0.406736643075800*I",
      "-0.978147600733806 - 0.207911690817759*I",
      "-0.500000000000000 - 0.866025403784438*I"
    ],
    [
      "-0.913545457642601 - 0.406736643075800*I",
      "0.978147600733806 - 0.207911690817760*I",
      "0.669130606358858 + 0.743144825477394*I"
    ],
    [
      "0.309016994374947 - 0.951056516295154*I",
      "-0.309016994374947 + 0.951056516295154*I",
      "0.309016994374947 - 0.951056516295154*I"
    ],
    [
      "-0.669130606358858 + 0.743144825477394*I",
      "-0.309016994374947 + 0.951056516295154*I",
      "-0.500000000000000 - 0.866025403784438*I"
    ],
    [
      "0.500000000000000 - 0.866025403784439*I",
      "-0.978147600733806 + 0.207911690817759*I",
      "-0.104528463267653 + 0.994521895368273*I"
    ],
    [
      "0.309016994374947 + 0.951056516295154*I",
      "-0.809016994374948 - 0.587785252292473*I",
      "-0.104528463267653 + 0.994521895368273*I"
    ],
    [
      "0.500000000000000 + 0.866025403784439*I",
      "0.978147600733806 - 0.207911690817760*I",
      "-0.913545457642601 + 0.406736643075800*I"
    ],
    [
      "0.809016994374947 - 0.587785252292473*I",
      "0.809016994374947 + 0.587785252292473*I",
      "0.309016994374947 - 0.951056516295154*I"
    ],
    [
      "0.913545457642601 - 0.406736643075800*I",
      "-0.913545457642601 - 0.406736643075800*I",
      "0.978147600733806 - 0.207911690817760*I"
    ],
    [
      "0.913545457642601 + 0.406736643075800*I",
      "0.309016994374947 - 0.951056516295154*I",
      "0.978147600733806 + 0.207911690817759*I"
    ],
    [
      "0.500000000000000 - 0.866025403784439*I",
      "-0.978147600733806 - 0.207911690817759*I",
      "1.00000000000000"
    ],
    [
      "-0.809016994374947 + 0.587785252292473*I",
      "0.978147600733806 - 0.207911690817760*I",
      "0.309016994374947 + 0.951056516295154*I"
    ],
    [
      "-0.978147600733806 + 0.207911690817759*I",
      "0.913545457642601 + 0.406736643075800*I",
      "0.978147600733806 - 0.207911690817760*I"
    ],
    [
      "-0.809016994374947 + 0.587785252292473*I",
      "0.913545457642601 - 0.406736643075800*I",
      "0.309016994374947 + 0.951056516295154*I"
    ]
  ]
}