{
  "system": [
    "(0.290454640934674 - 0.764728988311848*I)*t*x0^30 + (-0.999901828819226 - 2.01732884671316*I)*t*x0^29 + (-0.944065773709822 + 0.691909115917465*I)*x0^30 + (0.786709176500816 + 0.922872598083919*I)*t*x0^28 + (0.322806903113871 - 0.0882363762708143*I)*t*x0^27 + (-1.51551576140750 - 0.767003657486527*I)*t*x0^26 + (1.23622629592632 + 0.858831860677595*I)*t*x0^25 + (1.67631178546745 + 0.155774277646411*I)*t*x0^24 + (-1.32773421958142 - 0.929541194409305*I)*t*x0^23 + (0.00370820415947691 - 1.35666769287658*I)*t*x0^22 + (0.937659033736537 + 2.19908810542388*I)*t*x0^21 + (-1.02388094037944 - 0.882304141797930*I)*t*x0^20 + (0.0341038659414852 - 2.30591723914339*I)*t*x0^19 + (-0.389582098345188 + 1.23324960399963*I)*t*x0^18 + (3.22679234224151 + 1.38480751104467*I)*t*x0^17 + (0.357122825200378 + 1.42785927868817*I)*t*x0^16 + (-1.52077517456622 - 0.776149911394168*I)*t*x0^15 + (-0.0983848447802450 - 0.249812733691688*I)*t*x0^14 + (-2.26209050362664 + 1.21871204474031*I)*t*x0^13 + (-0.443350000374676 - 0.746960637317837*I)*t*x0^12 + (-1.41363254677213 - 0.507875947256376*I)*t*x0^11 + (-0.0122362510326094 - 0.0691439362753171*I)*t*x0^10 + (-0.899393599313460 - 0.510424458769643*I)*t*x0^9 + (-0.219107673546874 - 0.578177145755222*I)*t*x0^8 + (-0.942442675907686 + 0.548503103350376*I)*t*x0^7 + (0.919767663651651 - 0.662777249367806*I)*t*x0^6 + (-0.850274910416066 - 0.183644446022408*I)*t*x0^5 + (0.260174769091953 + 0.392276060200265*I)*t*x0^4 + (-0.129758592385517 + 0.655110225312252*I)*t*x0^3 + (0.374293653997986 - 0.590026426441143*I)*t*x0^2 + (1.83954706873608 + 0.0544514541036273*I)*t*x0 + (-1.34517349545348 + 0.550538251158639*I)*t + 0.944065773709822 - 0.691909115917465*I"
  ],
  "variables": [
    "x0"
  ],
  "parameters": [
    "t"
  ],
  "path": [
    [
      "0.0"
    ],
    [
      "1.0"
    ]
  ],
  "fiber": [
    [
      "1.00000000000000"
    ],
    [
      "0.978147600733806 + 0.207911690817759*I"
    ],
    [
      "0.913545457642601 + 0.406736643075800*I"
    ],
    [
      "0.809016994374947 + 0.587785252292473*I"
    ],
    [
      "0.669130606358858 + 0.743144825477394*I"
    ],
    [
      "0.500000000000000 + 0.866025403784439*I"
    ],
    [
      "0.309016994374947 + 0.951056516295154*I"
    ],
    [
      "0.104528463267653 + 0.994521895368273*I"
    ],
    [
      "-0.104528463267653 + 0.994521895368273*I"
    ],
    [
      "-0.309016994374947 + 0.951056516295154*I"
    ],
    [
      "-0.500000000000000 + 0.866025403784439*I"
    ],
    [
      "-0.669130606358858 + 0.743144825477394*I"
    ],
    [
      "-0.809016994374947 + 0.587785252292473*I"
    ],
    [
      "-0.913545457642601 + 0.406736643075800*I"
    ],
    [
      "-0.978147600733806 + 0.207911690817759*I"
    ],
    [
      "-1.00000000000000 + 1.22464679914735e-16*I"
    ],
    [
      "-0.978147600733806 - 0.207911690817759*I"
    ],
    [
      "-0.913545457642601 - 0.406736643075800*I"
    ],
    [
      "-0.809016994374948 - 0.587785252292473*I"
    ],
    [
      "-0.669130606358858 - 0.743144825477394*I"
    ],
    [
      "-0.500000000000000 - 0.866025403784438*I"
    ],
    [
      "-0.309016994374948 - 0.951056516295154*I"
    ],
    [
      "-0.104528463267654 - 0.994521895368273*I"
    ],
    [
      "0.104528463267653 - 0.994521895368273*I"
    ],
    [
      "0.309016994374947 - 0.951056516295154*I"
    ],
    [
      "0.500000000000000 - 0.866025403784439*I"
    ],
    [
      "0.669130606358858 - 0.743144825477394*I"
    ],
    [
      "0.809016994374947 - 0.587785252292473*I"
    ],
    [
      "0.913545457642601 - 0.406736643075800*I"
    ],
    [
      "0.978147600733806 - 0.207911690817760*I"
    ]
  ]
}