{
  "system": [
    "(0.0927876092995688 + 3.94478757945042*I)*t + x0 + 2.00000000000000*x1 + 2.00000000000000*x2 + 2.00000000000000*x3 + 2.00000000000000*x4 + 2.00000000000000*x5 + 2.00000000000000*x6 + 2.00000000000000*x7 + 2.00000000000000*x8 + 2.00000000000000*x9 + 2.00000000000000*x10 + 2.00000000000000*x11 + 2.00000000000000*x12 + 2.00000000000000*x13 + 2.00000000000000*x14 + 2.00000000000000*x15 + 2.00000000000000*x16 + 2.00000000000000*x17 + 2.00000000000000*x18 + 2.00000000000000*x19 + 2.00000000000000*x20 + 2.00000000000000*x21 + 2.00000000000000*x22 + 2.00000000000000*x23 + 2.00000000000000*x24 + 2.00000000000000*x25 + 2.00000000000000*x26 + 2.00000000000000*x27 + 2.00000000000000*x28 + 2.00000000000000*x29 + 2.00000000000000*x30 + 2.00000000000000*x31 + 2.00000000000000*x32 + 2.00000000000000*x33 + 2.00000000000000*x34 + 2.00000000000000*x35 + 2.00000000000000*x36 + 2.00000000000000*x37 + 2.00000000000000*x38 + 2.00000000000000*x39 + 2.00000000000000*x40 - 1.09278760929957 - 3.94478757945042*I",
    "x0^2 + 2.00000000000000*x1^2 + 2.00000000000000*x2^2 + 2.00000000000000*x3^2 + 2.00000000000000*x4^2 + 2.00000000000000*x5^2 + 2.00000000000000*x6^2 + 2.00000000000000*x7^2 + 2.00000000000000*x8^2 + 2.00000000000000*x9^2 + 2.00000000000000*x10^2 + 2.00000000000000*x11^2 + 2.00000000000000*x12^2 + 2.00000000000000*x13^2 + 2.00000000000000*x14^2 + 2.00000000000000*x15^2 + 2.00000000000000*x16^2 + 2.00000000000000*x17^2 + 2.00000000000000*x18^2 + 2.00000000000000*x19^2 + 2.00000000000000*x20^2 + 2.00000000000000*x21^2 + 2.00000000000000*x22^2 + 2.00000000000000*x23^2 + 2.00000000000000*x24^2 + 2.00000000000000*x25^2 + 2.00000000000000*x26^2 + 2.00000000000000*x27^2 + 2.00000000000000*x28^2 + 2.00000000000000*x29^2 + 2.00000000000000*x30^2 + 2.00000000000000*x31^2 + 2.00000000000000*x32^2 + 2.00000000000000*x33^2 + 2.00000000000000*x34^2 + 2.00000000000000*x35^2 + 2.00000000000000*x36^2 + 2.00000000000000*x37^2 + 2.00000000000000*x38^2 + 2.00000000000000*x39^2 + 2.00000000000000*x40^2 + (-5.32878369483940 - 45.0737231512903*I)*t - x0 + 5.32878369483940 + 45.0737231512903*I",
    "2.00000000000000*x0*x1 + 2.00000000000000*x1*x2 + 2.00000000000000*x2*x3 + 2.00000000000000*x3*x4 + 2.00000000000000*x4*x5 + 2.00000000000000*x5*x6 + 2.00000000000000*x6*x7 + 2.00000000000000*x7*x8 + 2.00000000000000*x8*x9 + 2.00000000000000*x9*x10 + 2.00000000000000*x10*x11 + 2.00000000000000*x11*x12 + 2.00000000000000*x12*x13 + 2.00000000000000*x13*x14 + 2.00000000000000*x14*x15 + 2.00000000000000*x15*x16 + 2.00000000000000*x16*x17 + 2.00000000000000*x17*x18 + 2.00000000000000*x18*x19 + 2.00000000000000*x19*x20 + 2.00000000000000*x20*x21 + 2.00000000000000*x21*x22 + 2.00000000000000*x22*x23 + 2.00000000000000*x23*x24 + 2.00000000000000*x24*x25 + 2.00000000000000*x25*x26 + 2.00000000000000*x26*x27 + 2.00000000000000*x27*x28 + 2.00000000000000*x28*x29 + 2.00000000000000*x29*x30 + 2.00000000000000*x30*x31 + 2.00000000000000*x31*x32 + 2.00000000000000*x32*x33 + 2.00000000000000*x33*x34 + 2.00000000000000*x34*x35 + 2.00000000000000*x35*x36 + 2.00000000000000*x36*x37 + 2.00000000000000*x37*x38 + 2.00000000000000*x38*x39 + 2.00000000000000*x39*x40 + (-14.8671974313782 + 43.9216592036592*I)*t - x1 + 14.8671974313782 - 43.9216592036592*I",
    "x1^2 + 2.00000000000000*x0*x2 + 2.00000000000000*x1*x3 + 2.00000000000000*x2*x4 + 2.00000000000000*x3*x5 + 2.00000000000000*x4*x6 + 2.00000000000000*x5*x7 + 2.00000000000000*x6*x8 + 2.00000000000000*x7*x9 + 2.00000000000000*x8*x10 + 2.00000000000000*x9*x11 + 2.00000000000000*x10*x12 + 2.00000000000000*x11*x13 + 2.00000000000000*x12*x14 + 2.00000000000000*x13*x15 + 2.00000000000000*x14*x16 + 2.00000000000000*x15*x17 + 2.00000000000000*x16*x18 + 2.00000000000000*x17*x19 + 2.00000000000000*x18*x20 + 2.00000000000000*x19*x21 + 2.00000000000000*x20*x22 + 2.00000000000000*x21*x23 + 2.00000000000000*x22*x24 + 2.00000000000000*x23*x25 + 2.00000000000000*x24*x26 + 2.00000000000000*x25*x27 + 2.00000000000000*x26*x28 + 2.00000000000000*x27*x29 + 2.00000000000000*x28*x30 + 2.00000000000000*x29*x31 + 2.00000000000000*x30*x32 + 2.00000000000000*x31*x33 + 2.00000000000000*x32*x34 + 2.00000000000000*x33*x35 + 2.00000000000000*x34*x36 + 2.00000000000000*x35*x37 + 2.00000000000000*x36*x38 + 2.00000000000000*x37*x39 + 2.00000000000000*x38*x40 + (12.1743105664055 - 14.0545581049429*I)*t - x2 - 12.1743105664055 + 14.0545581049429*I",
    "2.00000000000000*x1*x2 + 2.00000000000000*x0*x3 + 2.00000000000000*x1*x4 + 2.00000000000000*x2*x5 + 2.00000000000000*x3*x6 + 2.00000000000000*x4*x7 + 2.00000000000000*x5*x8 + 2.00000000000000*x6*x9 + 2.00000000000000*x7*x10 + 2.00000000000000*x8*x11 + 2.00000000000000*x9*x12 + 2.00000000000000*x10*x13 + 2.00000000000000*x11*x14 + 2.00000000000000*x12*x15 + 2.00000000000000*x13*x16 + 2.00000000000000*x14*x17 + 2.00000000000000*x15*x18 + 2.00000000000000*x16*x19 + 2.00000000000000*x17*x20 + 2.00000000000000*x18*x21 + 2.00000000000000*x19*x22 + 2.00000000000000*x20*x23 + 2.00000000000000*x21*x24 + 2.00000000000000*x22*x25 + 2.00000000000000*x23*x26 + 2.00000000000000*x24*x27 + 2.00000000000000*x25*x28 + 2.00000000000000*x26*x29 + 2.00000000000000*x27*x30 + 2.00000000000000*x28*x31 + 2.00000000000000*x29*x32 + 2.00000000000000*x30*x33 + 2.00000000000000*x31*x34 + 2.00000000000000*x32*x35 + 2.00000000000000*x33*x36 + 2.00000000000000*x34*x37 + 2.00000000000000*x35*x38 + 2.00000000000000*x36*x39 + 2.00000000000000*x37*x40 + (-0.561243148245249 + 21.3239916799483*I)*t - x3 + 0.561243148245249 - 21.3239916799483*I",
    "x2^2 + 2.00000000000000*x1*x3 + 2.00000000000000*x0*x4 + 2.00000000000000*x1*x5 + 2.00000000000000*x2*x6 + 2.00000000000000*x3*x7 + 2.00000000000000*x4*x8 + 2.00000000000000*x5*x9 + 2.00000000000000*x6*x10 + 2.00000000000000*x7*x11 + 2.00000000000000*x8*x12 + 2.00000000000000*x9*x13 + 2.00000000000000*x10*x14 + 2.00000000000000*x11*x15 + 2.00000000000000*x12*x16 + 2.00000000000000*x13*x17 + 2.00000000000000*x14*x18 + 2.00000000000000*x15*x19 + 2.00000000000000*x16*x20 + 2.00000000000000*x17*x21 + 2.00000000000000*x18*x22 + 2.00000000000000*x19*x23 + 2.00000000000000*x20*x24 + 2.00000000000000*x21*x25 + 2.00000000000000*x22*x26 + 2.00000000000000*x23*x27 + 2.00000000000000*x24*x28 + 2.00000000000000*x25*x29 + 2.00000000000000*x26*x30 + 2.00000000000000*x27*x31 + 2.00000000000000*x28*x32 + 2.00000000000000*x29*x33 + 2.00000000000000*x30*x34 + 2.00000000000000*x31*x35 + 2.00000000000000*x32*x36 + 2.00000000000000*x33*x37 + 2.00000000000000*x34*x38 + 2.00000000000000*x35*x39 + 2.00000000000000*x36*x40 + (43.6307744611087 + 14.1385577594722*I)*t - x4 - 43.6307744611087 - 14.1385577594722*I",
    "2.00000000000000*x2*x3 + 2.00000000000000*x1*x4 + 2.00000000000000*x0*x5 + 2.00000000000000*x1*x6 + 2.00000000000000*x2*x7 + 2.00000000000000*x3*x8 + 2.00000000000000*x4*x9 + 2.00000000000000*x5*x10 + 2.00000000000000*x6*x11 + 2.00000000000000*x7*x12 + 2.00000000000000*x8*x13 + 2.00000000000000*x9*x14 + 2.00000000000000*x10*x15 + 2.00000000000000*x11*x16 + 2.00000000000000*x12*x17 + 2.00000000000000*x13*x18 + 2.00000000000000*x14*x19 + 2.00000000000000*x15*x20 + 2.00000000000000*x16*x21 + 2.00000000000000*x17*x22 + 2.00000000000000*x18*x23 + 2.00000000000000*x19*x24 + 2.00000000000000*x20*x25 + 2.00000000000000*x21*x26 + 2.00000000000000*x22*x27 + 2.00000000000000*x23*x28 + 2.00000000000000*x24*x29 + 2.00000000000000*x25*x30 + 2.00000000000000*x26*x31 + 2.00000000000000*x27*x32 + 2.00000000000000*x28*x33 + 2.00000000000000*x29*x34 + 2.00000000000000*x30*x35 + 2.00000000000000*x31*x36 + 2.00000000000000*x32*x37 + 2.00000000000000*x33*x38 + 2.00000000000000*x34*x39 + 2.00000000000000*x35*x40 + (-22.6413857206859 + 13.1288033006533*I)*t - x5 + 22.6413857206859 - 13.1288033006533*I",
    "x3^2 + 2.00000000000000*x2*x4 + 2.00000000000000*x1*x5 + 2.00000000000000*x0*x6 + 2.00000000000000*x1*x7 + 2.00000000000000*x2*x8 + 2.00000000000000*x3*x9 + 2.00000000000000*x4*x10 + 2.00000000000000*x5*x11 + 2.00000000000000*x6*x12 + 2.00000000000000*x7*x13 + 2.00000000000000*x8*x14 + 2.00000000000000*x9*x15 + 2.00000000000000*x10*x16 + 2.00000000000000*x11*x17 + 2.00000000000000*x12*x18 + 2.00000000000000*x13*x19 + 2.00000000000000*x14*x20 + 2.00000000000000*x15*x21 + 2.00000000000000*x16*x22 + 2.00000000000000*x17*x23 + 2.00000000000000*x18*x24 + 2.00000000000000*x19*x25 + 2.00000000000000*x20*x26 + 2.00000000000000*x21*x27 + 2.00000000000000*x22*x28 + 2.00000000000000*x23*x29 + 2.00000000000000*x24*x30 + 2.00000000000000*x25*x31 + 2.00000000000000*x26*x32 + 2.00000000000000*x27*x33 + 2.00000000000000*x28*x34 + 2.00000000000000*x29*x35 + 2.00000000000000*x30*x36 + 2.00000000000000*x31*x37 + 2.00000000000000*x32*x38 + 2.00000000000000*x33*x39 + 2.00000000000000*x34*x40 + (-17.4856275739223 - 8.34669445098243*I)*t - x6 + 17.4856275739223 + 8.34669445098243*I",
    "2.00000000000000*x3*x4 + 2.00000000000000*x2*x5 + 2.00000000000000*x1*x6 + 2.00000000000000*x0*x7 + 2.00000000000000*x1*x8 + 2.00000000000000*x2*x9 + 2.00000000000000*x3*x10 + 2.00000000000000*x4*x11 + 2.00000000000000*x5*x12 + 2.00000000000000*x6*x13 + 2.00000000000000*x7*x14 + 2.00000000000000*x8*x15 + 2.00000000000000*x9*x16 + 2.00000000000000*x10*x17 + 2.00000000000000*x11*x18 + 2.00000000000000*x12*x19 + 2.00000000000000*x13*x20 + 2.00000000000000*x14*x21 + 2.00000000000000*x15*x22 + 2.00000000000000*x16*x23 + 2.00000000000000*x17*x24 + 2.00000000000000*x18*x25 + 2.00000000000000*x19*x26 + 2.00000000000000*x20*x27 + 2.00000000000000*x21*x28 + 2.00000000000000*x22*x29 + 2.00000000000000*x23*x30 + 2.00000000000000*x24*x31 + 2.00000000000000*x25*x32 + 2.00000000000000*x26*x33 + 2.00000000000000*x27*x34 + 2.00000000000000*x28*x35 + 2.00000000000000*x29*x36 + 2.00000000000000*x30*x37 + 2.00000000000000*x31*x38 + 2.00000000000000*x32*x39 + 2.00000000000000*x33*x40 + (-3.11377447975634 - 2.78055955570776*I)*t - x7 + 3.11377447975634 + 2.78055955570776*I",
    "x4^2 + 2.00000000000000*x3*x5 + 2.00000000000000*x2*x6 + 2.00000000000000*x1*x7 + 2.00000000000000*x0*x8 + 2.00000000000000*x1*x9 + 2.00000000000000*x2*x10 + 2.00000000000000*x3*x11 + 2.00000000000000*x4*x12 + 2.00000000000000*x5*x13 + 2.00000000000000*x6*x14 + 2.00000000000000*x7*x15 + 2.00000000000000*x8*x16 + 2.00000000000000*x9*x17 + 2.00000000000000*x10*x18 + 2.00000000000000*x11*x19 + 2.00000000000000*x12*x20 + 2.00000000000000*x13*x21 + 2.00000000000000*x14*x22 + 2.00000000000000*x15*x23 + 2.00000000000000*x16*x24 + 2.00000000000000*x17*x25 + 2.00000000000000*x18*x26 + 2.00000000000000*x19*x27 + 2.00000000000000*x20*x28 + 2.00000000000000*x21*x29 + 2.00000000000000*x22*x30 + 2.00000000000000*x23*x31 + 2.00000000000000*x24*x32 + 2.00000000000000*x25*x33 + 2.00000000000000*x26*x34 + 2.00000000000000*x27*x35 + 2.00000000000000*x28*x36 + 2.00000000000000*x29*x37 + 2.00000000000000*x30*x38 + 2.00000000000000*x31*x39 + 2.00000000000000*x32*x40 + (10.2725949323058 - 0.450790973931268*I)*t - x8 - 10.2725949323058 + 0.450790973931268*I",
    "2.00000000000000*x4*x5 + 2.00000000000000*x3*x6 + 2.00000000000000*x2*x7 + 2.00000000000000*x1*x8 + 2.00000000000000*x0*x9 + 2.00000000000000*x1*x10 + 2.00000000000000*x2*x11 + 2.00000000000000*x3*x12 + 2.00000000000000*x4*x13 + 2.00000000000000*x5*x14 + 2.00000000000000*x6*x15 + 2.00000000000000*x7*x16 + 2.00000000000000*x8*x17 + 2.00000000000000*x9*x18 + 2.00000000000000*x10*x19 + 2.00000000000000*x11*x20 + 2.00000000000000*x12*x21 + 2.00000000000000*x13*x22 + 2.00000000000000*x14*x23 + 2.00000000000000*x15*x24 + 2.00000000000000*x16*x25 + 2.00000000000000*x17*x26 + 2.00000000000000*x18*x27 + 2.00000000000000*x19*x28 + 2.00000000000000*x20*x29 + 2.00000000000000*x21*x30 + 2.00000000000000*x22*x31 + 2.00000000000000*x23*x32 + 2.00000000000000*x24*x33 + 2.00000000000000*x25*x34 + 2.00000000000000*x26*x35 + 2.00000000000000*x27*x36 + 2.00000000000000*x28*x37 + 2.00000000000000*x29*x38 + 2.00000000000000*x30*x39 + 2.00000000000000*x31*x40 + (-10.6345745212878 - 28.1621752282823*I)*t - x9 + 10.6345745212878 + 28.1621752282823*I",
    "x5^2 + 2.00000000000000*x4*x6 + 2.00000000000000*x3*x7 + 2.00000000000000*x2*x8 + 2.00000000000000*x1*x9 + 2.00000000000000*x0*x10 + 2.00000000000000*x1*x11 + 2.00000000000000*x2*x12 + 2.00000000000000*x3*x13 + 2.00000000000000*x4*x14 + 2.00000000000000*x5*x15 + 2.00000000000000*x6*x16 + 2.00000000000000*x7*x17 + 2.00000000000000*x8*x18 + 2.00000000000000*x9*x19 + 2.00000000000000*x10*x20 + 2.00000000000000*x11*x21 + 2.00000000000000*x12*x22 + 2.00000000000000*x13*x23 + 2.00000000000000*x14*x24 + 2.00000000000000*x15*x25 + 2.00000000000000*x16*x26 + 2.00000000000000*x17*x27 + 2.00000000000000*x18*x28 + 2.00000000000000*x19*x29 + 2.00000000000000*x20*x30 + 2.00000000000000*x21*x31 + 2.00000000000000*x22*x32 + 2.00000000000000*x23*x33 + 2.00000000000000*x24*x34 + 2.00000000000000*x25*x35 + 2.00000000000000*x26*x36 + 2.00000000000000*x27*x37 + 2.00000000000000*x28*x38 + 2.00000000000000*x29*x39 + 2.00000000000000*x30*x40 + (10.1054574244909 + 17.7492763338081*I)*t - x10 - 10.1054574244909 - 17.7492763338081*I",
    "2.00000000000000*x5*x6 + 2.00000000000000*x4*x7 + 2.00000000000000*x3*x8 + 2.00000000000000*x2*x9 + 2.00000000000000*x1*x10 + 2.00000000000000*x0*x11 + 2.00000000000000*x1*x12 + 2.00000000000000*x2*x13 + 2.00000000000000*x3*x14 + 2.00000000000000*x4*x15 + 2.00000000000000*x5*x16 + 2.00000000000000*x6*x17 + 2.00000000000000*x7*x18 + 2.00000000000000*x8*x19 + 2.00000000000000*x9*x20 + 2.00000000000000*x10*x21 + 2.00000000000000*x11*x22 + 2.00000000000000*x12*x23 + 2.00000000000000*x13*x24 + 2.00000000000000*x14*x25 + 2.00000000000000*x15*x26 + 2.00000000000000*x16*x27 + 2.00000000000000*x17*x28 + 2.00000000000000*x18*x29 + 2.00000000000000*x19*x30 + 2.00000000000000*x20*x31 + 2.00000000000000*x21*x32 + 2.00000000000000*x22*x33 + 2.00000000000000*x23*x34 + 2.00000000000000*x24*x35 + 2.00000000000000*x25*x36 + 2.00000000000000*x26*x37 + 2.00000000000000*x27*x38 + 2.00000000000000*x28*x39 + 2.00000000000000*x29*x40 + (15.2850407970770 - 36.7936353087290*I)*t - x11 - 15.2850407970770 + 36.7936353087290*I",
    "x6^2 + 2.00000000000000*x5*x7 + 2.00000000000000*x4*x8 + 2.00000000000000*x3*x9 + 2.00000000000000*x2*x10 + 2.00000000000000*x1*x11 + 2.00000000000000*x0*x12 + 2.00000000000000*x1*x13 + 2.00000000000000*x2*x14 + 2.00000000000000*x3*x15 + 2.00000000000000*x4*x16 + 2.00000000000000*x5*x17 + 2.00000000000000*x6*x18 + 2.00000000000000*x7*x19 + 2.00000000000000*x8*x20 + 2.00000000000000*x9*x21 + 2.00000000000000*x10*x22 + 2.00000000000000*x11*x23 + 2.00000000000000*x12*x24 + 2.00000000000000*x13*x25 + 2.00000000000000*x14*x26 + 2.00000000000000*x15*x27 + 2.00000000000000*x16*x28 + 2.00000000000000*x17*x29 + 2.00000000000000*x18*x30 + 2.00000000000000*x19*x31 + 2.00000000000000*x20*x32 + 2.00000000000000*x21*x33 + 2.00000000000000*x22*x34 + 2.00000000000000*x23*x35 + 2.00000000000000*x24*x36 + 2.00000000000000*x25*x37 + 2.00000000000000*x26*x38 + 2.00000000000000*x27*x39 + 2.00000000000000*x28*x40 + (9.75788037730130 - 0.0619308073426857*I)*t - x12 - 9.75788037730130 + 0.0619308073426857*I",
    "2.00000000000000*x6*x7 + 2.00000000000000*x5*x8 + 2.00000000000000*x4*x9 + 2.00000000000000*x3*x10 + 2.00000000000000*x2*x11 + 2.00000000000000*x1*x12 + 2.00000000000000*x0*x13 + 2.00000000000000*x1*x14 + 2.00000000000000*x2*x15 + 2.00000000000000*x3*x16 + 2.00000000000000*x4*x17 + 2.00000000000000*x5*x18 + 2.00000000000000*x6*x19 + 2.00000000000000*x7*x20 + 2.00000000000000*x8*x21 + 2.00000000000000*x9*x22 + 2.00000000000000*x10*x23 + 2.00000000000000*x11*x24 + 2.00000000000000*x12*x25 + 2.00000000000000*x13*x26 + 2.00000000000000*x14*x27 + 2.00000000000000*x15*x28 + 2.00000000000000*x16*x29 + 2.00000000000000*x17*x30 + 2.00000000000000*x18*x31 + 2.00000000000000*x19*x32 + 2.00000000000000*x20*x33 + 2.00000000000000*x21*x34 + 2.00000000000000*x22*x35 + 2.00000000000000*x23*x36 + 2.00000000000000*x24*x37 + 2.00000000000000*x25*x38 + 2.00000000000000*x26*x39 + 2.00000000000000*x27*x40 + (-24.1300670996855 - 1.26566896489504*I)*t - x13 + 24.1300670996855 + 1.26566896489504*I",
    "x7^2 + 2.00000000000000*x6*x8 + 2.00000000000000*x5*x9 + 2.00000000000000*x4*x10 + 2.00000000000000*x3*x11 + 2.00000000000000*x2*x12 + 2.00000000000000*x1*x13 + 2.00000000000000*x0*x14 + 2.00000000000000*x1*x15 + 2.00000000000000*x2*x16 + 2.00000000000000*x3*x17 + 2.00000000000000*x4*x18 + 2.00000000000000*x5*x19 + 2.00000000000000*x6*x20 + 2.00000000000000*x7*x21 + 2.00000000000000*x8*x22 + 2.00000000000000*x9*x23 + 2.00000000000000*x10*x24 + 2.00000000000000*x11*x25 + 2.00000000000000*x12*x26 + 2.00000000000000*x13*x27 + 2.00000000000000*x14*x28 + 2.00000000000000*x15*x29 + 2.00000000000000*x16*x30 + 2.00000000000000*x17*x31 + 2.00000000000000*x18*x32 + 2.00000000000000*x19*x33 + 2.00000000000000*x20*x34 + 2.00000000000000*x21*x35 + 2.00000000000000*x22*x36 + 2.00000000000000*x23*x37 + 2.00000000000000*x24*x38 + 2.00000000000000*x25*x39 + 2.00000000000000*x26*x40 + (7.89908373802395 - 9.40781624434821*I)*t - x14 - 7.89908373802395 + 9.40781624434821*I",
    "2.00000000000000*x7*x8 + 2.00000000000000*x6*x9 + 2.00000000000000*x5*x10 + 2.00000000000000*x4*x11 + 2.00000000000000*x3*x12 + 2.00000000000000*x2*x13 + 2.00000000000000*x1*x14 + 2.00000000000000*x0*x15 + 2.00000000000000*x1*x16 + 2.00000000000000*x2*x17 + 2.00000000000000*x3*x18 + 2.00000000000000*x4*x19 + 2.00000000000000*x5*x20 + 2.00000000000000*x6*x21 + 2.00000000000000*x7*x22 + 2.00000000000000*x8*x23 + 2.00000000000000*x9*x24 + 2.00000000000000*x10*x25 + 2.00000000000000*x11*x26 + 2.00000000000000*x12*x27 + 2.00000000000000*x13*x28 + 2.00000000000000*x14*x29 + 2.00000000000000*x15*x30 + 2.00000000000000*x16*x31 + 2.00000000000000*x17*x32 + 2.00000000000000*x18*x33 + 2.00000000000000*x19*x34 + 2.00000000000000*x20*x35 + 2.00000000000000*x21*x36 + 2.00000000000000*x22*x37 + 2.00000000000000*x23*x38 + 2.00000000000000*x24*x39 + 2.00000000000000*x25*x40 + (3.98549159777090 - 13.1845487460861*I)*t - x15 - 3.98549159777090 + 13.1845487460861*I",
    "x8^2 + 2.00000000000000*x7*x9 + 2.00000000000000*x6*x10 + 2.00000000000000*x5*x11 + 2.00000000000000*x4*x12 + 2.00000000000000*x3*x13 + 2.00000000000000*x2*x14 + 2.00000000000000*x1*x15 + 2.00000000000000*x0*x16 + 2.00000000000000*x1*x17 + 2.00000000000000*x2*x18 + 2.00000000000000*x3*x19 + 2.00000000000000*x4*x20 + 2.00000000000000*x5*x21 + 2.00000000000000*x6*x22 + 2.00000000000000*x7*x23 + 2.00000000000000*x8*x24 + 2.00000000000000*x9*x25 + 2.00000000000000*x10*x26 + 2.00000000000000*x11*x27 + 2.00000000000000*x12*x28 + 2.00000000000000*x13*x29 + 2.00000000000000*x14*x30 + 2.00000000000000*x15*x31 + 2.00000000000000*x16*x32 + 2.00000000000000*x17*x33 + 2.00000000000000*x18*x34 + 2.00000000000000*x19*x35 + 2.00000000000000*x20*x36 + 2.00000000000000*x21*x37 + 2.00000000000000*x22*x38 + 2.00000000000000*x23*x39 + 2.00000000000000*x24*x40 + (-22.5365108751006 + 3.46259966746181*I)*t - x16 + 22.5365108751006 - 3.46259966746181*I",
    "2.00000000000000*x8*x9 + 2.00000000000000*x7*x10 + 2.00000000000000*x6*x11 + 2.00000000000000*x5*x12 + 2.00000000000000*x4*x13 + 2.00000000000000*x3*x14 + 2.00000000000000*x2*x15 + 2.00000000000000*x1*x16 + 2.00000000000000*x0*x17 + 2.00000000000000*x1*x18 + 2.00000000000000*x2*x19 + 2.00000000000000*x3*x20 + 2.00000000000000*x4*x21 + 2.00000000000000*x5*x22 + 2.00000000000000*x6*x23 + 2.00000000000000*x7*x24 + 2.00000000000000*x8*x25 + 2.00000000000000*x9*x26 + 2.00000000000000*x10*x27 + 2.00000000000000*x11*x28 + 2.00000000000000*x12*x29 + 2.00000000000000*x13*x30 + 2.00000000000000*x14*x31 + 2.00000000000000*x15*x32 + 2.00000000000000*x16*x33 + 2.00000000000000*x17*x34 + 2.00000000000000*x18*x35 + 2.00000000000000*x19*x36 + 2.00000000000000*x20*x37 + 2.00000000000000*x21*x38 + 2.00000000000000*x22*x39 + 2.00000000000000*x23*x40 + (-3.19321025583927 + 25.3274845555556*I)*t - x17 + 3.19321025583927 - 25.3274845555556*I",
    "x9^2 + 2.00000000000000*x8*x10 + 2.00000000000000*x7*x11 + 2.00000000000000*x6*x12 + 2.00000000000000*x5*x13 + 2.00000000000000*x4*x14 + 2.00000000000000*x3*x15 + 2.00000000000000*x2*x16 + 2.00000000000000*x1*x17 + 2.00000000000000*x0*x18 + 2.00000000000000*x1*x19 + 2.00000000000000*x2*x20 + 2.00000000000000*x3*x21 + 2.00000000000000*x4*x22 + 2.00000000000000*x5*x23 + 2.00000000000000*x6*x24 + 2.00000000000000*x7*x25 + 2.00000000000000*x8*x26 + 2.00000000000000*x9*x27 + 2.00000000000000*x10*x28 + 2.00000000000000*x11*x29 + 2.00000000000000*x12*x30 + 2.00000000000000*x13*x31 + 2.00000000000000*x14*x32 + 2.00000000000000*x15*x33 + 2.00000000000000*x16*x34 + 2.00000000000000*x17*x35 + 2.00000000000000*x18*x36 + 2.00000000000000*x19*x37 + 2.00000000000000*x20*x38 + 2.00000000000000*x21*x39 + 2.00000000000000*x22*x40 + (31.5909082120099 - 1.43577044030969*I)*t - x18 - 31.5909082120099 + 1.43577044030969*I",
    "2.00000000000000*x9*x10 + 2.00000000000000*x8*x11 + 2.00000000000000*x7*x12 + 2.00000000000000*x6*x13 + 2.00000000000000*x5*x14 + 2.00000000000000*x4*x15 + 2.00000000000000*x3*x16 + 2.00000000000000*x2*x17 + 2.00000000000000*x1*x18 + 2.00000000000000*x0*x19 + 2.00000000000000*x1*x20 + 2.00000000000000*x2*x21 + 2.00000000000000*x3*x22 + 2.00000000000000*x4*x23 + 2.00000000000000*x5*x24 + 2.00000000000000*x6*x25 + 2.00000000000000*x7*x26 + 2.00000000000000*x8*x27 + 2.00000000000000*x9*x28 + 2.00000000000000*x10*x29 + 2.00000000000000*x11*x30 + 2.00000000000000*x12*x31 + 2.00000000000000*x13*x32 + 2.00000000000000*x14*x33 + 2.00000000000000*x15*x34 + 2.00000000000000*x16*x35 + 2.00000000000000*x17*x36 + 2.00000000000000*x18*x37 + 2.00000000000000*x19*x38 + 2.00000000000000*x20*x39 + 2.00000000000000*x21*x40 + (14.4466621385455 - 22.6920790338486*I)*t - x19 - 14.4466621385455 + 22.6920790338486*I",
    "x10^2 + 2.00000000000000*x9*x11 + 2.00000000000000*x8*x12 + 2.00000000000000*x7*x13 + 2.00000000000000*x6*x14 + 2.00000000000000*x5*x15 + 2.00000000000000*x4*x16 + 2.00000000000000*x3*x17 + 2.00000000000000*x2*x18 + 2.00000000000000*x1*x19 + 2.00000000000000*x0*x20 + 2.00000000000000*x1*x21 + 2.00000000000000*x2*x22 + 2.00000000000000*x3*x23 + 2.00000000000000*x4*x24 + 2.00000000000000*x5*x25 + 2.00000000000000*x6*x26 + 2.00000000000000*x7*x27 + 2.00000000000000*x8*x28 + 2.00000000000000*x9*x29 + 2.00000000000000*x10*x30 + 2.00000000000000*x11*x31 + 2.00000000000000*x12*x32 + 2.00000000000000*x13*x33 + 2.00000000000000*x14*x34 + 2.00000000000000*x15*x35 + 2.00000000000000*x16*x36 + 2.00000000000000*x17*x37 + 2.00000000000000*x18*x38 + 2.00000000000000*x19*x39 + 2.00000000000000*x20*x40 + (-51.9982192947001 - 8.11941666210854*I)*t - x20 + 51.9982192947001 + 8.11941666210854*I",
    "2.00000000000000*x10*x11 + 2.00000000000000*x9*x12 + 2.00000000000000*x8*x13 + 2.00000000000000*x7*x14 + 2.00000000000000*x6*x15 + 2.00000000000000*x5*x16 + 2.00000000000000*x4*x17 + 2.00000000000000*x3*x18 + 2.00000000000000*x2*x19 + 2.00000000000000*x1*x20 + 2.00000000000000*x0*x21 + 2.00000000000000*x1*x22 + 2.00000000000000*x2*x23 + 2.00000000000000*x3*x24 + 2.00000000000000*x4*x25 + 2.00000000000000*x5*x26 + 2.00000000000000*x6*x27 + 2.00000000000000*x7*x28 + 2.00000000000000*x8*x29 + 2.00000000000000*x9*x30 + 2.00000000000000*x10*x31 + 2.00000000000000*x11*x32 + 2.00000000000000*x12*x33 + 2.00000000000000*x13*x34 + 2.00000000000000*x14*x35 + 2.00000000000000*x15*x36 + 2.00000000000000*x16*x37 + 2.00000000000000*x17*x38 + 2.00000000000000*x18*x39 + 2.00000000000000*x19*x40 + (4.22851192791630 + 15.4995620550313*I)*t - x21 - 4.22851192791630 - 15.4995620550313*I",
    "x11^2 + 2.00000000000000*x10*x12 + 2.00000000000000*x9*x13 + 2.00000000000000*x8*x14 + 2.00000000000000*x7*x15 + 2.00000000000000*x6*x16 + 2.00000000000000*x5*x17 + 2.00000000000000*x4*x18 + 2.00000000000000*x3*x19 + 2.00000000000000*x2*x20 + 2.00000000000000*x1*x21 + 2.00000000000000*x0*x22 + 2.00000000000000*x1*x23 + 2.00000000000000*x2*x24 + 2.00000000000000*x3*x25 + 2.00000000000000*x4*x26 + 2.00000000000000*x5*x27 + 2.00000000000000*x6*x28 + 2.00000000000000*x7*x29 + 2.00000000000000*x8*x30 + 2.00000000000000*x9*x31 + 2.00000000000000*x10*x32 + 2.00000000000000*x11*x33 + 2.00000000000000*x12*x34 + 2.00000000000000*x13*x35 + 2.00000000000000*x14*x36 + 2.00000000000000*x15*x37 + 2.00000000000000*x16*x38 + 2.00000000000000*x17*x39 + 2.00000000000000*x18*x40 + (2.88518720868552 - 0.966915596655450*I)*t - x22 - 2.88518720868552 + 0.966915596655450*I",
    "2.00000000000000*x11*x12 + 2.00000000000000*x10*x13 + 2.00000000000000*x9*x14 + 2.00000000000000*x8*x15 + 2.00000000000000*x7*x16 + 2.00000000000000*x6*x17 + 2.00000000000000*x5*x18 + 2.00000000000000*x4*x19 + 2.00000000000000*x3*x20 + 2.00000000000000*x2*x21 + 2.00000000000000*x1*x22 + 2.00000000000000*x0*x23 + 2.00000000000000*x1*x24 + 2.00000000000000*x2*x25 + 2.00000000000000*x3*x26 + 2.00000000000000*x4*x27 + 2.00000000000000*x5*x28 + 2.00000000000000*x6*x29 + 2.00000000000000*x7*x30 + 2.00000000000000*x8*x31 + 2.00000000000000*x9*x32 + 2.00000000000000*x10*x33 + 2.00000000000000*x11*x34 + 2.00000000000000*x12*x35 + 2.00000000000000*x13*x36 + 2.00000000000000*x14*x37 + 2.00000000000000*x15*x38 + 2.00000000000000*x16*x39 + 2.00000000000000*x17*x40 + (3.26021877864228 + 15.5711757662974*I)*t - x23 - 3.26021877864228 - 15.5711757662974*I",
    "x12^2 + 2.00000000000000*x11*x13 + 2.00000000000000*x10*x14 + 2.00000000000000*x9*x15 + 2.00000000000000*x8*x16 + 2.00000000000000*x7*x17 + 2.00000000000000*x6*x18 + 2.00000000000000*x5*x19 + 2.00000000000000*x4*x20 + 2.00000000000000*x3*x21 + 2.00000000000000*x2*x22 + 2.00000000000000*x1*x23 + 2.00000000000000*x0*x24 + 2.00000000000000*x1*x25 + 2.00000000000000*x2*x26 + 2.00000000000000*x3*x27 + 2.00000000000000*x4*x28 + 2.00000000000000*x5*x29 + 2.00000000000000*x6*x30 + 2.00000000000000*x7*x31 + 2.00000000000000*x8*x32 + 2.00000000000000*x9*x33 + 2.00000000000000*x10*x34 + 2.00000000000000*x11*x35 + 2.00000000000000*x12*x36 + 2.00000000000000*x13*x37 + 2.00000000000000*x14*x38 + 2.00000000000000*x15*x39 + 2.00000000000000*x16*x40 + (-11.6493889422841 + 12.0267709048189*I)*t - x24 + 11.6493889422841 - 12.0267709048189*I",
    "2.00000000000000*x12*x13 + 2.00000000000000*x11*x14 + 2.00000000000000*x10*x15 + 2.00000000000000*x9*x16 + 2.00000000000000*x8*x17 + 2.00000000000000*x7*x18 + 2.00000000000000*x6*x19 + 2.00000000000000*x5*x20 + 2.00000000000000*x4*x21 + 2.00000000000000*x3*x22 + 2.00000000000000*x2*x23 + 2.00000000000000*x1*x24 + 2.00000000000000*x0*x25 + 2.00000000000000*x1*x26 + 2.00000000000000*x2*x27 + 2.00000000000000*x3*x28 + 2.00000000000000*x4*x29 + 2.00000000000000*x5*x30 + 2.00000000000000*x6*x31 + 2.00000000000000*x7*x32 + 2.00000000000000*x8*x33 + 2.00000000000000*x9*x34 + 2.00000000000000*x10*x35 + 2.00000000000000*x11*x36 + 2.00000000000000*x12*x37 + 2.00000000000000*x13*x38 + 2.00000000000000*x14*x39 + 2.00000000000000*x15*x40 + (10.3837684842925 + 0.734932539421894*I)*t - x25 - 10.3837684842925 - 0.734932539421894*I",
    "x13^2 + 2.00000000000000*x12*x14 + 2.00000000000000*x11*x15 + 2.00000000000000*x10*x16 + 2.00000000000000*x9*x17 + 2.00000000000000*x8*x18 + 2.00000000000000*x7*x19 + 2.00000000000000*x6*x20 + 2.00000000000000*x5*x21 + 2.00000000000000*x4*x22 + 2.00000000000000*x3*x23 + 2.00000000000000*x2*x24 + 2.00000000000000*x1*x25 + 2.00000000000000*x0*x26 + 2.00000000000000*x1*x27 + 2.00000000000000*x2*x28 + 2.00000000000000*x3*x29 + 2.00000000000000*x4*x30 + 2.00000000000000*x5*x31 + 2.00000000000000*x6*x32 + 2.00000000000000*x7*x33 + 2.00000000000000*x8*x34 + 2.00000000000000*x9*x35 + 2.00000000000000*x10*x36 + 2.00000000000000*x11*x37 + 2.00000000000000*x12*x38 + 2.00000000000000*x13*x39 + 2.00000000000000*x14*x40 + (-14.8870327242251 + 15.1223033910436*I)*t - x26 + 14.8870327242251 - 15.1223033910436*I",
    "2.00000000000000*x13*x14 + 2.00000000000000*x12*x15 + 2.00000000000000*x11*x16 + 2.00000000000000*x10*x17 + 2.00000000000000*x9*x18 + 2.00000000000000*x8*x19 + 2.00000000000000*x7*x20 + 2.00000000000000*x6*x21 + 2.00000000000000*x5*x22 + 2.00000000000000*x4*x23 + 2.00000000000000*x3*x24 + 2.00000000000000*x2*x25 + 2.00000000000000*x1*x26 + 2.00000000000000*x0*x27 + 2.00000000000000*x1*x28 + 2.00000000000000*x2*x29 + 2.00000000000000*x3*x30 + 2.00000000000000*x4*x31 + 2.00000000000000*x5*x32 + 2.00000000000000*x6*x33 + 2.00000000000000*x7*x34 + 2.00000000000000*x8*x35 + 2.00000000000000*x9*x36 + 2.00000000000000*x10*x37 + 2.00000000000000*x11*x38 + 2.00000000000000*x12*x39 + 2.00000000000000*x13*x40 + (7.99812568930276 - 11.6842030251596*I)*t - x27 - 7.99812568930276 + 11.6842030251596*I",
    "x14^2 + 2.00000000000000*x13*x15 + 2.00000000000000*x12*x16 + 2.00000000000000*x11*x17 + 2.00000000000000*x10*x18 + 2.00000000000000*x9*x19 + 2.00000000000000*x8*x20 + 2.00000000000000*x7*x21 + 2.00000000000000*x6*x22 + 2.00000000000000*x5*x23 + 2.00000000000000*x4*x24 + 2.00000000000000*x3*x25 + 2.00000000000000*x2*x26 + 2.00000000000000*x1*x27 + 2.00000000000000*x0*x28 + 2.00000000000000*x1*x29 + 2.00000000000000*x2*x30 + 2.00000000000000*x3*x31 + 2.00000000000000*x4*x32 + 2.00000000000000*x5*x33 + 2.00000000000000*x6*x34 + 2.00000000000000*x7*x35 + 2.00000000000000*x8*x36 + 2.00000000000000*x9*x37 + 2.00000000000000*x10*x38 + 2.00000000000000*x11*x39 + 2.00000000000000*x12*x40 + (-27.7860632729464 - 4.89804936944423*I)*t - x28 + 27.7860632729464 + 4.89804936944423*I",
    "2.00000000000000*x14*x15 + 2.00000000000000*x13*x16 + 2.00000000000000*x12*x17 + 2.00000000000000*x11*x18 + 2.00000000000000*x10*x19 + 2.00000000000000*x9*x20 + 2.00000000000000*x8*x21 + 2.00000000000000*x7*x22 + 2.00000000000000*x6*x23 + 2.00000000000000*x5*x24 + 2.00000000000000*x4*x25 + 2.00000000000000*x3*x26 + 2.00000000000000*x2*x27 + 2.00000000000000*x1*x28 + 2.00000000000000*x0*x29 + 2.00000000000000*x1*x30 + 2.00000000000000*x2*x31 + 2.00000000000000*x3*x32 + 2.00000000000000*x4*x33 + 2.00000000000000*x5*x34 + 2.00000000000000*x6*x35 + 2.00000000000000*x7*x36 + 2.00000000000000*x8*x37 + 2.00000000000000*x9*x38 + 2.00000000000000*x10*x39 + 2.00000000000000*x11*x40 + (11.6792670111468 - 5.58373585997992*I)*t - x29 - 11.6792670111468 + 5.58373585997992*I",
    "x15^2 + 2.00000000000000*x14*x16 + 2.00000000000000*x13*x17 + 2.00000000000000*x12*x18 + 2.00000000000000*x11*x19 + 2.00000000000000*x10*x20 + 2.00000000000000*x9*x21 + 2.00000000000000*x8*x22 + 2.00000000000000*x7*x23 + 2.00000000000000*x6*x24 + 2.00000000000000*x5*x25 + 2.00000000000000*x4*x26 + 2.00000000000000*x3*x27 + 2.00000000000000*x2*x28 + 2.00000000000000*x1*x29 + 2.00000000000000*x0*x30 + 2.00000000000000*x1*x31 + 2.00000000000000*x2*x32 + 2.00000000000000*x3*x33 + 2.00000000000000*x4*x34 + 2.00000000000000*x5*x35 + 2.00000000000000*x6*x36 + 2.00000000000000*x7*x37 + 2.00000000000000*x8*x38 + 2.00000000000000*x9*x39 + 2.00000000000000*x10*x40 + (-4.06346803402701 + 5.36307541432314*I)*t - x30 + 4.06346803402701 - 5.36307541432314*I",
    "2.00000000000000*x15*x16 + 2.00000000000000*x14*x17 + 2.00000000000000*x13*x18 + 2.00000000000000*x12*x19 + 2.00000000000000*x11*x20 + 2.00000000000000*x10*x21 + 2.00000000000000*x9*x22 + 2.00000000000000*x8*x23 + 2.00000000000000*x7*x24 + 2.00000000000000*x6*x25 + 2.00000000000000*x5*x26 + 2.00000000000000*x4*x27 + 2.00000000000000*x3*x28 + 2.00000000000000*x2*x29 + 2.00000000000000*x1*x30 + 2.00000000000000*x0*x31 + 2.00000000000000*x1*x32 + 2.00000000000000*x2*x33 + 2.00000000000000*x3*x34 + 2.00000000000000*x4*x35 + 2.00000000000000*x5*x36 + 2.00000000000000*x6*x37 + 2.00000000000000*x7*x38 + 2.00000000000000*x8*x39 + 2.00000000000000*x9*x40 + (20.3756070165789 - 26.6670467158186*I)*t - x31 - 20.3756070165789 + 26.6670467158186*I",
    "x16^2 + 2.00000000000000*x15*x17 + 2.00000000000000*x14*x18 + 2.00000000000000*x13*x19 + 2.00000000000000*x12*x20 + 2.00000000000000*x11*x21 + 2.00000000000000*x10*x22 + 2.00000000000000*x9*x23 + 2.00000000000000*x8*x24 + 2.00000000000000*x7*x25 + 2.00000000000000*x6*x26 + 2.00000000000000*x5*x27 + 2.00000000000000*x4*x28 + 2.00000000000000*x3*x29 + 2.00000000000000*x2*x30 + 2.00000000000000*x1*x31 + 2.00000000000000*x0*x32 + 2.00000000000000*x1*x33 + 2.00000000000000*x2*x34 + 2.00000000000000*x3*x35 + 2.00000000000000*x4*x36 + 2.00000000000000*x5*x37 + 2.00000000000000*x6*x38 + 2.00000000000000*x7*x39 + 2.00000000000000*x8*x40 + (-27.9884418443558 + 9.68328371576854*I)*t - x32 + 27.9884418443558 - 9.68328371576854*I",
    "2.00000000000000*x16*x17 + 2.00000000000000*x15*x18 + 2.00000000000000*x14*x19 + 2.00000000000000*x13*x20 + 2.00000000000000*x12*x21 + 2.00000000000000*x11*x22 + 2.00000000000000*x10*x23 + 2.00000000000000*x9*x24 + 2.00000000000000*x8*x25 + 2.00000000000000*x7*x26 + 2.00000000000000*x6*x27 + 2.00000000000000*x5*x28 + 2.00000000000000*x4*x29 + 2.00000000000000*x3*x30 + 2.00000000000000*x2*x31 + 2.00000000000000*x1*x32 + 2.00000000000000*x0*x33 + 2.00000000000000*x1*x34 + 2.00000000000000*x2*x35 + 2.00000000000000*x3*x36 + 2.00000000000000*x4*x37 + 2.00000000000000*x5*x38 + 2.00000000000000*x6*x39 + 2.00000000000000*x7*x40 + (34.7753597823961 - 17.8760871614528*I)*t - x33 - 34.7753597823961 + 17.8760871614528*I",
    "x17^2 + 2.00000000000000*x16*x18 + 2.00000000000000*x15*x19 + 2.00000000000000*x14*x20 + 2.00000000000000*x13*x21 + 2.00000000000000*x12*x22 + 2.00000000000000*x11*x23 + 2.00000000000000*x10*x24 + 2.00000000000000*x9*x25 + 2.00000000000000*x8*x26 + 2.00000000000000*x7*x27 + 2.00000000000000*x6*x28 + 2.00000000000000*x5*x29 + 2.00000000000000*x4*x30 + 2.00000000000000*x3*x31 + 2.00000000000000*x2*x32 + 2.00000000000000*x1*x33 + 2.00000000000000*x0*x34 + 2.00000000000000*x1*x35 + 2.00000000000000*x2*x36 + 2.00000000000000*x3*x37 + 2.00000000000000*x4*x38 + 2.00000000000000*x5*x39 + 2.00000000000000*x6*x40 + (-21.3991812237568 - 2.00983575052676*I)*t - x34 + 21.3991812237568 + 2.00983575052676*I",
    "2.00000000000000*x17*x18 + 2.00000000000000*x16*x19 + 2.00000000000000*x15*x20 + 2.00000000000000*x14*x21 + 2.00000000000000*x13*x22 + 2.00000000000000*x12*x23 + 2.00000000000000*x11*x24 + 2.00000000000000*x10*x25 + 2.00000000000000*x9*x26 + 2.00000000000000*x8*x27 + 2.00000000000000*x7*x28 + 2.00000000000000*x6*x29 + 2.00000000000000*x5*x30 + 2.00000000000000*x4*x31 + 2.00000000000000*x3*x32 + 2.00000000000000*x2*x33 + 2.00000000000000*x1*x34 + 2.00000000000000*x0*x35 + 2.00000000000000*x1*x36 + 2.00000000000000*x2*x37 + 2.00000000000000*x3*x38 + 2.00000000000000*x4*x39 + 2.00000000000000*x5*x40 + (12.8873897685980 - 10.6011854868762*I)*t - x35 - 12.8873897685980 + 10.6011854868762*I",
    "x18^2 + 2.00000000000000*x17*x19 + 2.00000000000000*x16*x20 + 2.00000000000000*x15*x21 + 2.00000000000000*x14*x22 + 2.00000000000000*x13*x23 + 2.00000000000000*x12*x24 + 2.00000000000000*x11*x25 + 2.00000000000000*x10*x26 + 2.00000000000000*x9*x27 + 2.00000000000000*x8*x28 + 2.00000000000000*x7*x29 + 2.00000000000000*x6*x30 + 2.00000000000000*x5*x31 + 2.00000000000000*x4*x32 + 2.00000000000000*x3*x33 + 2.00000000000000*x2*x34 + 2.00000000000000*x1*x35 + 2.00000000000000*x0*x36 + 2.00000000000000*x1*x37 + 2.00000000000000*x2*x38 + 2.00000000000000*x3*x39 + 2.00000000000000*x4*x40 + (-24.6491689012873 + 17.4716365125902*I)*t - x36 + 24.6491689012873 - 17.4716365125902*I",
    "2.00000000000000*x18*x19 + 2.00000000000000*x17*x20 + 2.00000000000000*x16*x21 + 2.00000000000000*x15*x22 + 2.00000000000000*x14*x23 + 2.00000000000000*x13*x24 + 2.00000000000000*x12*x25 + 2.00000000000000*x11*x26 + 2.00000000000000*x10*x27 + 2.00000000000000*x9*x28 + 2.00000000000000*x8*x29 + 2.00000000000000*x7*x30 + 2.00000000000000*x6*x31 + 2.00000000000000*x5*x32 + 2.00000000000000*x4*x33 + 2.00000000000000*x3*x34 + 2.00000000000000*x2*x35 + 2.00000000000000*x1*x36 + 2.00000000000000*x0*x37 + 2.00000000000000*x1*x38 + 2.00000000000000*x2*x39 + 2.00000000000000*x3*x40 + (54.3685201666585 + 4.19271335718013*I)*t - x37 - 54.3685201666585 - 4.19271335718013*I",
    "x19^2 + 2.00000000000000*x18*x20 + 2.00000000000000*x17*x21 + 2.00000000000000*x16*x22 + 2.00000000000000*x15*x23 + 2.00000000000000*x14*x24 + 2.00000000000000*x13*x25 + 2.00000000000000*x12*x26 + 2.00000000000000*x11*x27 + 2.00000000000000*x10*x28 + 2.00000000000000*x9*x29 + 2.00000000000000*x8*x30 + 2.00000000000000*x7*x31 + 2.00000000000000*x6*x32 + 2.00000000000000*x5*x33 + 2.00000000000000*x4*x34 + 2.00000000000000*x3*x35 + 2.00000000000000*x2*x36 + 2.00000000000000*x1*x37 + 2.00000000000000*x0*x38 + 2.00000000000000*x1*x39 + 2.00000000000000*x2*x40 + (-9.16296586591558 - 2.95118207960324*I)*t - x38 + 9.16296586591558 + 2.95118207960324*I",
    "2.00000000000000*x19*x20 + 2.00000000000000*x18*x21 + 2.00000000000000*x17*x22 + 2.00000000000000*x16*x23 + 2.00000000000000*x15*x24 + 2.00000000000000*x14*x25 + 2.00000000000000*x13*x26 + 2.00000000000000*x12*x27 + 2.00000000000000*x11*x28 + 2.00000000000000*x10*x29 + 2.00000000000000*x9*x30 + 2.00000000000000*x8*x31 + 2.00000000000000*x7*x32 + 2.00000000000000*x6*x33 + 2.00000000000000*x5*x34 + 2.00000000000000*x4*x35 + 2.00000000000000*x3*x36 + 2.00000000000000*x2*x37 + 2.00000000000000*x1*x38 + 2.00000000000000*x0*x39 + 2.00000000000000*x1*x40 + (4.07027741724814 - 12.8522891241230*I)*t - x39 - 4.07027741724814 + 12.8522891241230*I"
  ],
  "variables": [
    "x0",
    "x1",
    "x2",
    "x3",
    "x4",
    "x5",
    "x6",
    "x7",
    "x8",
    "x9",
    "x10",
    "x11",
    "x12",
    "x13",
    "x14",
    "x15",
    "x16",
    "x17",
    "x18",
    "x19",
    "x20",
    "x21",
    "x22",
    "x23",
    "x24",
    "x25",
    "x26",
    "x27",
    "x28",
    "x29",
    "x30",
    "x31",
    "x32",
    "x33",
    "x34",
    "x35",
    "x36",
    "x37",
    "x38",
    "x39",
    "x40"
  ],
  "parameters": [
    "t"
  ],
  "path": [
    [
      "0.0"
    ],
    [
      "1.0"
    ]
  ],
  "fiber": [
    [
      "0.22588570208080366 + 0.8113064317110282*I",
      "1.658537512385698 - 1.0336427635536207*I",
      "-2.210505431260268 + 0.3735168237271533*I",
      "1.359257516915375 - 1.4533707933962396*I",
      "0.33831010796737915 - 0.33328465548320135*I",
      "-0.8116139446845819 + 2.3232208424347673*I",
      "-1.077048012025734 + 0.09684110814144736*I",
      "0.17433534313737337 - 0.8576657841910689*I",
      "1.022064031549221 + 1.51854573470219*I",
      "0.670860509654944 + 0.007193513409721735*I",
      "0.9971718966458595 - 0.7790790653524724*I",
      "0.39939853042776796 + 0.7941880848059406*I",
      "1.0315659132676505 - 0.04595288866130154*I",
      "-0.3804358357137589 + 0.6135242952747003*I",
      "-1.6195060711785116 + 2.7259732785254958*I",
      "1.3611804754052867 - 0.5779457266640047*I",
      "-1.4072976679920783 + 1.0350664789742658*I",
      "-0.7727565945723334 - 1.9578573353840263*I",
      "0.6141444834525002 + 0.10705131968753875*I",
      "-1.0679396398716021 - 1.8211720216591478*I",
      "-2.0098045045640442 + 1.82284727154309*I",
      "0.2435355174692689 + 0.4014478367288033*I",
      "1.5223056282265828 - 0.4366458511735839*I",
      "-0.9912482966885097 - 2.425912558446439*I",
      "-1.6412164156865274 - 1.1669334302700163*I",
      "-0.6134724310062254 + 1.1029038246344516*I",
      "0.928913705840216 + 0.5103378088175182*I",
      "-0.537811128369451 - 0.5900329443257362*I",
      "0.44755429543611425 + 0.46598006526156444*I",
      "-0.588604656069946 - 0.42099350619987336*I",
      "1.5368256696310991 - 0.8218196026977985*I",
      "-0.932816295023763 + 0.4969798674119858*I",
      "1.420344509253474 - 1.2149381966938664*I",
      "-0.9375039366865636 + 1.2961710877681958*I",
      "1.4334121696135518 + 0.5824152200241446*I",
      "-0.9357943988069755 + 0.42924853050045914*I",
      "1.1054315848087202 + 0.7661065489423231*I",
      "0.16677748401513987 + 0.765194684529109*I",
      "0.8256049309595196 - 0.4237993627977045*I",
      "-0.6722935324366772 - 0.9426798110383445*I",
      "0.3835879301841908 + 0.6357126460132783*I"
    ]
  ]
}