{
  "system": [
    "t*(1 + ((-1.77547631247102)*x_0 + (-1.25089978053881)*x_1 + (-0.912252388739873)*x_2)^20 + (0.310491794840541*x_0 + (-0.377354320318276)*x_1 + (-0.671100756992142)*x_2)^20 + ((-0.601124387686754)*x_0 + (-1.86788986008524)*x_1 + (-1.96286854530689)*x_2)^20 + ((-0.391785339916837)*x_0 + (-2.21811423555324)*x_1 + (-1.75180647537057)*x_2)^20 + ((-0.504126881686735)*x_0 + (-0.253891428214915)*x_1 + 0.627337664041512*x_2)^20 + (0.516894439219079*x_0 + (-2.07977197471254)*x_1 + (-1.36452122648236)*x_2)^20 + ((-2.76255725526199)*x_0 + 1.66983800765142*x_1 + (-0.815901749015095)*x_2)^20 + ((-2.91511060705107)*x_0 + (-0.365173074697529)*x_1 + (-1.73718919455537)*x_2)^20 + ((-0.324337207163915)*x_0 + (-0.840391864418853)*x_1 + (-1.14692607766652)*x_2)^20 + ((-2.32624761373200)*x_0 + (-3.16026476926439)*x_1 + (-0.0494675142144229)*x_2)^20) + (1 - t)*((0.7758674507462816 + I*-0.3797413993739551)*(x_0^20 - 1))",
    "t*(-1 + (0.313400728503128*x_0 + (-0.0936265214358873)*x_1 + (-0.948843094511922)*x_2)^20 + ((-1.63637923229922)*x_0 + (-3.30766334832243)*x_1 + (-1.53570112359051)*x_2)^20 + ((-1.63707981701652)*x_0 + (-0.247176326924696)*x_1 + (-0.548225588774317)*x_2)^20 + ((-1.69424477268656)*x_0 + (-2.67127537055460)*x_1 + (-1.09680843863624)*x_2)^20 + ((-0.643881564864604)*x_0 + 0.439860916118335*x_1 + (-1.50732074412771)*x_2)^20 + (0.562889020102049*x_0 + 0.961600668226546*x_1 + (-0.593409556572684)*x_2)^20 + ((-2.02168587875620)*x_0 + (-2.42228105509618)*x_1 + (-0.299537907651830)*x_2)^20 + ((-1.31020797397176)*x_0 + (-0.329002685191906)*x_1 + (-3.42625939765394)*x_2)^20 + (0.222407600888562*x_0 + (-0.794236052974358)*x_1 + 1.05986257789592*x_2)^20 + ((-0.113881600766034)*x_0 + (-1.69117235249364)*x_1 + (-0.674836783966662)*x_2)^20) + (1 - t)*((-0.10935129635796291 + I*-0.5355567904187585)*(x_1^20 - 1))",
    "t*(-1 + ((-0.688273293970393)*x_0 + 0.347384057679886*x_1 + (-0.375343935086033)*x_2)^20 + ((-1.63590671305910)*x_0 + (-0.486795924465798)*x_1 + (-2.11921712191390)*x_2)^20 + (0.102611957245412*x_0 + (-0.142758119456280)*x_1 + (-0.894385375707004)*x_2)^20 + (0.129779585868470*x_0 + (-0.339118911127048)*x_1 + 0.608298060690711*x_2)^20 + ((-1.23940915652887)*x_0 + (-2.02404733855593)*x_1 + (-1.26318477487100)*x_2)^20 + ((-1.41931800902961)*x_0 + 1.07234693953976*x_1 + (-2.41803257596718)*x_2)^20 + ((-1.50496340966090)*x_0 + (-1.46895256046786)*x_1 + (-1.10249879916244)*x_2)^20 + (0.169453895025536*x_0 + (-0.0788590082319377)*x_1 + (-1.83758469674773)*x_2)^20 + ((-0.706854090650996)*x_0 + (-0.907607637527864)*x_1 + (-0.918530895847943)*x_2)^20 + ((-1.54209524682928)*x_0 + (-1.84398439148231)*x_1 + 0.184299116185288*x_2)^20) + (1 - t)*((1.0486000517112062 + I*-0.7108382907053575)*(x_2^20 - 1))"
  ],
  "variables": [
    "x_0",
    "x_1",
    "x_2"
  ],
  "parameters": [
    "t"
  ],
  "path": [
    [
      "0.0"
    ],
    [
      "1.0"
    ]
  ],
  "fiber": [
    [
      "0.951056516295154 - 0.309016994374948*I",
      "-0.951056516295154 - 0.309016994374948*I",
      "-0.951056516295154 - 0.309016994374948*I"
    ],
    [
      "-0.951056516295154 - 0.309016994374948*I",
      "0.587785252292474 - 0.809016994374947*I",
      "0.951056516295154 - 0.309016994374948*I"
    ],
    [
      "0.809016994374947 + 0.587785252292473*I",
      "0.951056516295154 - 0.309016994374948*I",
      "0.951056516295154 - 0.309016994374948*I"
    ],
    [
      "-0.587785252292473 - 0.809016994374947*I",
      "-0.309016994374948 - 0.951056516295154*I",
      "0.587785252292474 - 0.809016994374947*I"
    ],
    [
      "-0.951056516295154 + 0.309016994374948*I",
      "-0.587785252292473 - 0.809016994374947*I",
      "0.951056516295154 - 0.309016994374948*I"
    ],
    [
      "-1.00000000000000 + 1.22464679914735e-16*I",
      "1.00000000000000",
      "0.951056516295154 - 0.309016994374948*I"
    ],
    [
      "0.309016994374947 + 0.951056516295154*I",
      "-0.587785252292473 - 0.809016994374947*I",
      "-1.83697019872103e-16 - 1.00000000000000*I"
    ],
    [
      "-0.587785252292473 - 0.809016994374947*I",
      "1.00000000000000",
      "1.00000000000000"
    ],
    [
      "0.809016994374947 - 0.587785252292473*I",
      "-0.309016994374948 + 0.951056516295154*I",
      "0.809016994374947 + 0.587785252292473*I"
    ],
    [
      "-0.951056516295154 + 0.309016994374948*I",
      "0.809016994374947 + 0.587785252292473*I",
      "-0.951056516295154 + 0.309016994374948*I"
    ],
    [
      "-0.951056516295154 + 0.309016994374948*I",
      "0.809016994374947 + 0.587785252292473*I",
      "-0.809016994374947 - 0.587785252292473*I"
    ],
    [
      "0.587785252292474 - 0.809016994374947*I",
      "-0.809016994374947 - 0.587785252292473*I",
      "0.587785252292473 + 0.809016994374947*I"
    ],
    [
      "-0.587785252292473 + 0.809016994374947*I",
      "-0.809016994374947 - 0.587785252292473*I",
      "-0.951056516295154 + 0.309016994374948*I"
    ],
    [
      "-0.587785252292473 + 0.809016994374947*I",
      "-0.809016994374947 + 0.587785252292473*I",
      "-0.951056516295154 - 0.309016994374948*I"
    ],
    [
      "-0.309016994374948 + 0.951056516295154*I",
      "-0.309016994374948 + 0.951056516295154*I",
      "-1.00000000000000 + 1.22464679914735e-16*I"
    ],
    [
      "-0.587785252292473 - 0.809016994374947*I",
      "-0.951056516295154 - 0.309016994374948*I",
      "-0.587785252292473 - 0.809016994374947*I"
    ],
    [
      "-1.83697019872103e-16 - 1.00000000000000*I",
      "0.309016994374947 - 0.951056516295154*I",
      "-1.00000000000000 + 1.22464679914735e-16*I"
    ],
    [
      "0.951056516295154 + 0.309016994374947*I",
      "-1.83697019872103e-16 - 1.00000000000000*I",
      "0.951056516295154 + 0.309016994374947*I"
    ],
    [
      "0.809016994374947 - 0.587785252292473*I",
      "-0.951056516295154 + 0.309016994374948*I",
      "0.309016994374947 + 0.951056516295154*I"
    ],
    [
      "-0.309016994374948 + 0.951056516295154*I",
      "-0.309016994374948 - 0.951056516295154*I",
      "-0.309016994374948 - 0.951056516295154*I"
    ],
    [
      "-0.809016994374947 - 0.587785252292473*I",
      "-0.951056516295154 + 0.309016994374948*I",
      "0.587785252292473 + 0.809016994374947*I"
    ],
    [
      "-0.951056516295154 - 0.309016994374948*I",
      "1.00000000000000",
      "0.309016994374947 - 0.951056516295154*I"
    ],
    [
      "-0.587785252292473 + 0.809016994374947*I",
      "-0.809016994374947 + 0.587785252292473*I",
      "-1.83697019872103e-16 - 1.00000000000000*I"
    ],
    [
      "-0.587785252292473 + 0.809016994374947*I",
      "0.309016994374947 + 0.951056516295154*I",
      "-0.309016994374948 + 0.951056516295154*I"
    ],
    [
      "0.951056516295154 - 0.309016994374948*I",
      "0.951056516295154 - 0.309016994374948*I",
      "-1.00000000000000 + 1.22464679914735e-16*I"
    ],
    [
      "-0.951056516295154 + 0.309016994374948*I",
      "0.587785252292473 + 0.809016994374947*I",
      "0.809016994374947 + 0.587785252292473*I"
    ],
    [
      "-1.83697019872103e-16 - 1.00000000000000*I",
      "-1.00000000000000 + 1.22464679914735e-16*I",
      "0.309016994374947 + 0.951056516295154*I"
    ],
    [
      "-0.309016994374948 + 0.951056516295154*I",
      "0.951056516295154 - 0.309016994374948*I",
      "1.00000000000000"
    ],
    [
      "-1.83697019872103e-16 - 1.00000000000000*I",
      "0.309016994374947 + 0.951056516295154*I",
      "0.951056516295154 + 0.309016994374947*I"
    ],
    [
      "0.951056516295154 - 0.309016994374948*I",
      "0.809016994374947 - 0.587785252292473*I",
      "-0.309016994374948 - 0.951056516295154*I"
    ],
    [
      "6.12323399573677e-17 + 1.00000000000000*I",
      "0.809016994374947 - 0.587785252292473*I",
      "0.587785252292474 - 0.809016994374947*I"
    ],
    [
      "-0.951056516295154 + 0.309016994374948*I",
      "-0.809016994374947 - 0.587785252292473*I",
      "-0.309016994374948 - 0.951056516295154*I"
    ],
    [
      "0.951056516295154 - 0.309016994374948*I",
      "-1.00000000000000 + 1.22464679914735e-16*I",
      "0.809016994374947 + 0.587785252292473*I"
    ],
    [
      "-0.951056516295154 - 0.309016994374948*I",
      "0.951056516295154 - 0.309016994374948*I",
      "-1.00000000000000 + 1.22464679914735e-16*I"
    ],
    [
      "0.309016994374947 + 0.951056516295154*I",
      "0.951056516295154 - 0.309016994374948*I",
      "-1.00000000000000 + 1.22464679914735e-16*I"
    ],
    [
      "0.951056516295154 - 0.309016994374948*I",
      "0.809016994374947 - 0.587785252292473*I",
      "0.951056516295154 + 0.309016994374947*I"
    ],
    [
      "6.12323399573677e-17 + 1.00000000000000*I",
      "0.309016994374947 - 0.951056516295154*I",
      "0.587785252292474 - 0.809016994374947*I"
    ],
    [
      "0.809016994374947 + 0.587785252292473*I",
      "0.951056516295154 + 0.309016994374947*I",
      "-0.587785252292473 - 0.809016994374947*I"
    ],
    [
      "0.309016994374947 - 0.951056516295154*I",
      "1.00000000000000",
      "0.809016994374947 - 0.587785252292473*I"
    ],
    [
      "1.00000000000000",
      "-0.951056516295154 + 0.309016994374948*I",
      "0.951056516295154 - 0.309016994374948*I"
    ],
    [
      "0.309016994374947 + 0.951056516295154*I",
      "0.951056516295154 + 0.309016994374947*I",
      "0.809016994374947 - 0.587785252292473*I"
    ],
    [
      "0.587785252292473 + 0.809016994374947*I",
      "0.809016994374947 - 0.587785252292473*I",
      "-0.951056516295154 + 0.309016994374948*I"
    ],
    [
      "0.809016994374947 - 0.587785252292473*I",
      "-0.309016994374948 - 0.951056516295154*I",
      "6.12323399573677e-17 + 1.00000000000000*I"
    ],
    [
      "0.951056516295154 + 0.309016994374947*I",
      "1.00000000000000",
      "-1.00000000000000 + 1.22464679914735e-16*I"
    ],
    [
      "-0.809016994374947 + 0.587785252292473*I",
      "-0.951056516295154 - 0.309016994374948*I",
      "0.951056516295154 + 0.309016994374947*I"
    ],
    [
      "0.951056516295154 + 0.309016994374947*I",
      "-0.951056516295154 - 0.309016994374948*I",
      "0.309016994374947 - 0.951056516295154*I"
    ],
    [
      "0.809016994374947 + 0.587785252292473*I",
      "-0.951056516295154 + 0.309016994374948*I",
      "0.951056516295154 - 0.309016994374948*I"
    ],
    [
      "-0.587785252292473 - 0.809016994374947*I",
      "-0.951056516295154 - 0.309016994374948*I",
      "-1.83697019872103e-16 - 1.00000000000000*I"
    ],
    [
      "0.587785252292474 - 0.809016994374947*I",
      "6.12323399573677e-17 + 1.00000000000000*I",
      "-0.309016994374948 + 0.951056516295154*I"
    ],
    [
      "-0.309016994374948 + 0.951056516295154*I",
      "-0.951056516295154 + 0.309016994374948*I",
      "0.951056516295154 - 0.309016994374948*I"
    ],
    [
      "-0.587785252292473 - 0.809016994374947*I",
      "1.00000000000000",
      "-1.00000000000000 + 1.22464679914735e-16*I"
    ],
    [
      "-0.951056516295154 - 0.309016994374948*I",
      "-0.809016994374947 - 0.587785252292473*I",
      "6.12323399573677e-17 + 1.00000000000000*I"
    ],
    [
      "0.809016994374947 + 0.587785252292473*I",
      "0.309016994374947 - 0.951056516295154*I",
      "-0.809016994374947 + 0.587785252292473*I"
    ],
    [
      "0.951056516295154 + 0.309016994374947*I",
      "0.951056516295154 - 0.309016994374948*I",
      "-0.809016994374947 + 0.587785252292473*I"
    ],
    [
      "-0.587785252292473 + 0.809016994374947*I",
      "-0.951056516295154 - 0.309016994374948*I",
      "-0.809016994374947 + 0.587785252292473*I"
    ],
    [
      "-0.809016994374947 + 0.587785252292473*I",
      "-0.587785252292473 - 0.809016994374947*I",
      "-0.587785252292473 + 0.809016994374947*I"
    ],
    [
      "0.309016994374947 - 0.951056516295154*I",
      "-0.587785252292473 - 0.809016994374947*I",
      "-0.809016994374947 + 0.587785252292473*I"
    ],
    [
      "6.12323399573677e-17 + 1.00000000000000*I",
      "0.951056516295154 - 0.309016994374948*I",
      "6.12323399573677e-17 + 1.00000000000000*I"
    ],
    [
      "-1.83697019872103e-16 - 1.00000000000000*I",
      "0.809016994374947 + 0.587785252292473*I",
      "-0.309016994374948 - 0.951056516295154*I"
    ],
    [
      "6.12323399573677e-17 + 1.00000000000000*I",
      "0.951056516295154 - 0.309016994374948*I",
      "0.309016994374947 + 0.951056516295154*I"
    ],
    [
      "-0.809016994374947 - 0.587785252292473*I",
      "0.951056516295154 - 0.309016994374948*I",
      "-0.309016994374948 - 0.951056516295154*I"
    ],
    [
      "0.587785252292474 - 0.809016994374947*I",
      "1.00000000000000",
      "-0.951056516295154 - 0.309016994374948*I"
    ],
    [
      "0.809016994374947 + 0.587785252292473*I",
      "-0.809016994374947 - 0.587785252292473*I",
      "0.809016994374947 + 0.587785252292473*I"
    ],
    [
      "0.951056516295154 - 0.309016994374948*I",
      "-0.809016994374947 - 0.587785252292473*I",
      "0.951056516295154 + 0.309016994374947*I"
    ],
    [
      "-0.309016994374948 + 0.951056516295154*I",
      "-0.809016994374947 + 0.587785252292473*I",
      "0.587785252292473 + 0.809016994374947*I"
    ],
    [
      "6.12323399573677e-17 + 1.00000000000000*I",
      "6.12323399573677e-17 + 1.00000000000000*I",
      "-0.951056516295154 - 0.309016994374948*I"
    ],
    [
      "0.809016994374947 + 0.587785252292473*I",
      "-1.83697019872103e-16 - 1.00000000000000*I",
      "-0.951056516295154 - 0.309016994374948*I"
    ],
    [
      "0.587785252292474 - 0.809016994374947*I",
      "0.809016994374947 - 0.587785252292473*I",
      "0.951056516295154 - 0.309016994374948*I"
    ],
    [
      "-0.309016994374948 + 0.951056516295154*I",
      "0.809016994374947 - 0.587785252292473*I",
      "0.309016994374947 - 0.951056516295154*I"
    ],
    [
      "1.00000000000000",
      "-0.809016994374947 - 0.587785252292473*I",
      "0.587785252292473 + 0.809016994374947*I"
    ],
    [
      "-0.587785252292473 - 0.809016994374947*I",
      "-1.83697019872103e-16 - 1.00000000000000*I",
      "0.309016994374947 + 0.951056516295154*I"
    ],
    [
      "0.951056516295154 - 0.309016994374948*I",
      "-0.951056516295154 - 0.309016994374948*I",
      "0.587785252292473 + 0.809016994374947*I"
    ],
    [
      "-0.587785252292473 - 0.809016994374947*I",
      "-1.00000000000000 + 1.22464679914735e-16*I",
      "0.309016994374947 - 0.951056516295154*I"
    ],
    [
      "0.587785252292474 - 0.809016994374947*I",
      "-0.809016994374947 + 0.587785252292473*I",
      "0.587785252292474 - 0.809016994374947*I"
    ],
    [
      "-1.00000000000000 + 1.22464679914735e-16*I",
      "-0.809016994374947 - 0.587785252292473*I",
      "-0.951056516295154 + 0.309016994374948*I"
    ],
    [
      "0.587785252292474 - 0.809016994374947*I",
      "0.809016994374947 - 0.587785252292473*I",
      "0.309016994374947 + 0.951056516295154*I"
    ],
    [
      "-0.951056516295154 - 0.309016994374948*I",
      "0.309016994374947 + 0.951056516295154*I",
      "-0.309016994374948 - 0.951056516295154*I"
    ],
    [
      "0.309016994374947 - 0.951056516295154*I",
      "-0.809016994374947 - 0.587785252292473*I",
      "-1.83697019872103e-16 - 1.00000000000000*I"
    ],
    [
      "-0.951056516295154 - 0.309016994374948*I",
      "0.951056516295154 + 0.309016994374947*I",
      "-0.951056516295154 - 0.309016994374948*I"
    ],
    [
      "0.809016994374947 - 0.587785252292473*I",
      "6.12323399573677e-17 + 1.00000000000000*I",
      "0.951056516295154 - 0.309016994374948*I"
    ],
    [
      "6.12323399573677e-17 + 1.00000000000000*I",
      "-0.951056516295154 + 0.309016994374948*I",
      "0.309016994374947 - 0.951056516295154*I"
    ],
    [
      "-0.951056516295154 + 0.309016994374948*I",
      "0.951056516295154 - 0.309016994374948*I",
      "0.809016994374947 + 0.587785252292473*I"
    ],
    [
      "-0.587785252292473 - 0.809016994374947*I",
      "-0.951056516295154 - 0.309016994374948*I",
      "0.809016994374947 + 0.587785252292473*I"
    ],
    [
      "-0.587785252292473 - 0.809016994374947*I",
      "-0.809016994374947 + 0.587785252292473*I",
      "0.809016994374947 - 0.587785252292473*I"
    ],
    [
      "0.809016994374947 + 0.587785252292473*I",
      "-0.309016994374948 + 0.951056516295154*I",
      "1.00000000000000"
    ],
    [
      "-0.809016994374947 - 0.587785252292473*I",
      "0.951056516295154 + 0.309016994374947*I",
      "0.309016994374947 - 0.951056516295154*I"
    ],
    [
      "-0.309016994374948 + 0.951056516295154*I",
      "-0.587785252292473 - 0.809016994374947*I",
      "0.587785252292473 + 0.809016994374947*I"
    ],
    [
      "0.309016994374947 - 0.951056516295154*I",
      "-1.00000000000000 + 1.22464679914735e-16*I",
      "-0.309016994374948 + 0.951056516295154*I"
    ],
    [
      "-0.809016994374947 - 0.587785252292473*I",
      "6.12323399573677e-17 + 1.00000000000000*I",
      "-0.309016994374948 + 0.951056516295154*I"
    ],
    [
      "-0.309016994374948 - 0.951056516295154*I",
      "0.309016994374947 + 0.951056516295154*I",
      "0.951056516295154 + 0.309016994374947*I"
    ],
    [
      "-0.309016994374948 + 0.951056516295154*I",
      "1.00000000000000",
      "-0.809016994374947 - 0.587785252292473*I"
    ],
    [
      "-1.00000000000000 + 1.22464679914735e-16*I",
      "0.587785252292474 - 0.809016994374947*I",
      "0.951056516295154 + 0.309016994374947*I"
    ],
    [
      "0.951056516295154 - 0.309016994374948*I",
      "-0.309016994374948 + 0.951056516295154*I",
      "0.587785252292473 + 0.809016994374947*I"
    ],
    [
      "0.587785252292474 - 0.809016994374947*I",
      "-1.83697019872103e-16 - 1.00000000000000*I",
      "-0.951056516295154 - 0.309016994374948*I"
    ],
    [
      "-1.00000000000000 + 1.22464679914735e-16*I",
      "0.951056516295154 - 0.309016994374948*I",
      "0.587785252292474 - 0.809016994374947*I"
    ],
    [
      "-0.309016994374948 + 0.951056516295154*I",
      "-0.809016994374947 + 0.587785252292473*I",
      "-0.309016994374948 - 0.951056516295154*I"
    ],
    [
      "-0.587785252292473 + 0.809016994374947*I",
      "0.809016994374947 - 0.587785252292473*I",
      "-0.587785252292473 - 0.809016994374947*I"
    ],
    [
      "0.587785252292473 + 0.809016994374947*I",
      "0.809016994374947 - 0.587785252292473*I",
      "-0.951056516295154 + 0.309016994374948*I"
    ],
    [
      "-0.951056516295154 - 0.309016994374948*I",
      "1.00000000000000",
      "-0.809016994374947 + 0.587785252292473*I"
    ],
    [
      "0.587785252292474 - 0.809016994374947*I",
      "-0.309016994374948 + 0.951056516295154*I",
      "-0.809016994374947 - 0.587785252292473*I"
    ]
  ]
}