{
  "failures": 0,
  "instructions": {
    "df": 1252,
    "f": 670
  },
  "overheadtime": 2.2617528438568115,
  "steplist": [
    102.0,
    91.0,
    258.0,
    218.0,
    124.0,
    166.0,
    150.0,
    168.0,
    141.0,
    137.0,
    198.0,
    187.0,
    215.0,
    170.0,
    204.0,
    146.0,
    196.0,
    174.0,
    149.0,
    182.0,
    249.0,
    176.0,
    191.0,
    130.0,
    136.0,
    184.0,
    191.0,
    207.0,
    154.0,
    236.0,
    103.0,
    132.0,
    221.0,
    133.0,
    181.0,
    224.0,
    190.0,
    123.0,
    201.0,
    168.0,
    127.0,
    126.0,
    184.0,
    137.0,
    209.0,
    235.0,
    104.0,
    130.0,
    228.0,
    194.0,
    131.0,
    203.0,
    150.0,
    205.0,
    191.0,
    144.0,
    167.0,
    187.0,
    186.0,
    192.0,
    209.0,
    212.0,
    265.0,
    194.0,
    135.0,
    136.0,
    274.0,
    119.0,
    213.0,
    100.0,
    283.0,
    163.0,
    153.0,
    232.0,
    183.0,
    277.0,
    115.0,
    192.0,
    143.0,
    198.0,
    222.0,
    106.0,
    123.0,
    184.0,
    153.0,
    193.0,
    262.0,
    167.0,
    138.0,
    217.0,
    159.0,
    148.0,
    237.0,
    182.0,
    155.0,
    205.0,
    182.0,
    184.0,
    145.0,
    153.0
  ],
  "time": 2.2215137481689453
}