{
  "system": [
    "(1.84322659565986 + 1.87172834008620*I)*t*x0 + 2.00000000000000*t*x1 + 2.00000000000000*t*x2 + 2.00000000000000*t*x3 + 2.00000000000000*t*x4 + 2.00000000000000*t*x5 + 2.00000000000000*t*x6 + 2.00000000000000*t*x7 + 2.00000000000000*t*x8 + (-1.84322659565986 - 1.87172834008620*I)*t + (-0.843226595659861 - 1.87172834008620*I)*x0 + 0.843226595659861 + 1.87172834008620*I",
    "t*x0^2 + (2.48653113938904 - 1.30257960018077*I)*t*x1^2 + 2.00000000000000*t*x2^2 + 2.00000000000000*t*x3^2 + 2.00000000000000*t*x4^2 + 2.00000000000000*t*x5^2 + 2.00000000000000*t*x6^2 + 2.00000000000000*t*x7^2 + 2.00000000000000*t*x8^2 - t*x0 + (-0.486531139389038 + 1.30257960018077*I)*x1^2 + (-0.486531139389038 + 1.30257960018077*I)*t + 0.486531139389038 - 1.30257960018077*I",
    "2.00000000000000*t*x0*x1 + 2.00000000000000*t*x1*x2 + (0.994817033198227 + 0.522455469738009*I)*t*x2^2 + 2.00000000000000*t*x2*x3 + 2.00000000000000*t*x3*x4 + 2.00000000000000*t*x4*x5 + 2.00000000000000*t*x5*x6 + 2.00000000000000*t*x6*x7 + 2.00000000000000*t*x7*x8 - t*x1 + (-0.994817033198227 - 0.522455469738009*I)*x2^2 + (-0.994817033198227 - 0.522455469738009*I)*t + 0.994817033198227 + 0.522455469738009*I",
    "t*x1^2 + 2.00000000000000*t*x0*x2 + 2.00000000000000*t*x1*x3 + (-1.44089142339616 - 0.107510007759377*I)*t*x3^2 + 2.00000000000000*t*x2*x4 + 2.00000000000000*t*x3*x5 + 2.00000000000000*t*x4*x6 + 2.00000000000000*t*x5*x7 + 2.00000000000000*t*x6*x8 - t*x2 + (1.44089142339616 + 0.107510007759377*I)*x3^2 + (1.44089142339616 + 0.107510007759377*I)*t - 1.44089142339616 - 0.107510007759377*I",
    "2.00000000000000*t*x1*x2 + 2.00000000000000*t*x0*x3 + 2.00000000000000*t*x1*x4 + (-0.488366546970012 + 0.386018548920970*I)*t*x4^2 + 2.00000000000000*t*x2*x5 + 2.00000000000000*t*x3*x6 + 2.00000000000000*t*x4*x7 + 2.00000000000000*t*x5*x8 - t*x3 + (0.488366546970012 - 0.386018548920970*I)*x4^2 + (0.488366546970012 - 0.386018548920970*I)*t - 0.488366546970012 + 0.386018548920970*I",
    "t*x2^2 + 2.00000000000000*t*x1*x3 + 2.00000000000000*t*x0*x4 + 2.00000000000000*t*x1*x5 + (0.430657362968268 - 0.809344394383194*I)*t*x5^2 + 2.00000000000000*t*x2*x6 + 2.00000000000000*t*x3*x7 + 2.00000000000000*t*x4*x8 - t*x4 + (-0.430657362968268 + 0.809344394383194*I)*x5^2 + (-0.430657362968268 + 0.809344394383194*I)*t + 0.430657362968268 - 0.809344394383194*I",
    "2.00000000000000*t*x2*x3 + 2.00000000000000*t*x1*x4 + 2.00000000000000*t*x0*x5 + 2.00000000000000*t*x1*x6 + (-1.97067158491020 - 2.28875975129932*I)*t*x6^2 + 2.00000000000000*t*x2*x7 + 2.00000000000000*t*x3*x8 - t*x5 + (1.97067158491020 + 2.28875975129932*I)*x6^2 + (1.97067158491020 + 2.28875975129932*I)*t - 1.97067158491020 - 2.28875975129932*I",
    "t*x3^2 + 2.00000000000000*t*x2*x4 + 2.00000000000000*t*x1*x5 + 2.00000000000000*t*x0*x6 + 2.00000000000000*t*x1*x7 + (-0.363271581068229 - 0.980150535209175*I)*t*x7^2 + 2.00000000000000*t*x2*x8 - t*x6 + (0.363271581068229 + 0.980150535209175*I)*x7^2 + (0.363271581068229 + 0.980150535209175*I)*t - 0.363271581068229 - 0.980150535209175*I",
    "2.00000000000000*t*x3*x4 + 2.00000000000000*t*x2*x5 + 2.00000000000000*t*x1*x6 + 2.00000000000000*t*x0*x7 + 2.00000000000000*t*x1*x8 + (1.15744424763597 + 0.392179892954882*I)*t*x8^2 - t*x7 + (-1.15744424763597 - 0.392179892954882*I)*x8^2 + (-1.15744424763597 - 0.392179892954882*I)*t + 1.15744424763597 + 0.392179892954882*I"
  ],
  "variables": [
    "x0",
    "x1",
    "x2",
    "x3",
    "x4",
    "x5",
    "x6",
    "x7",
    "x8"
  ],
  "parameters": [
    "t"
  ],
  "path": [
    [
      "0.0"
    ],
    [
      "1.0"
    ]
  ],
  "fiber": [
    [
      "1.00000000000000",
      "1.00000000000000",
      "-1.00000000000000 + 1.22464679914735e-16*I",
      "-1.00000000000000 + 1.22464679914735e-16*I",
      "1.00000000000000",
      "1.00000000000000",
      "-1.00000000000000 + 1.22464679914735e-16*I",
      "-1.00000000000000 + 1.22464679914735e-16*I",
      "-1.00000000000000 + 1.22464679914735e-16*I"
    ],
    [
      "1.00000000000000",
      "-1.00000000000000 + 1.22464679914735e-16*I",
      "-1.00000000000000 + 1.22464679914735e-16*I",
      "1.00000000000000",
      "-1.00000000000000 + 1.22464679914735e-16*I",
      "-1.00000000000000 + 1.22464679914735e-16*I",
      "-1.00000000000000 + 1.22464679914735e-16*I",
      "1.00000000000000",
      "1.00000000000000"
    ],
    [
      "1.00000000000000",
      "1.00000000000000",
      "-1.00000000000000 + 1.22464679914735e-16*I",
      "1.00000000000000",
      "1.00000000000000",
      "1.00000000000000",
      "-1.00000000000000 + 1.22464679914735e-16*I",
      "1.00000000000000",
      "1.00000000000000"
    ],
    [
      "1.00000000000000",
      "-1.00000000000000 + 1.22464679914735e-16*I",
      "-1.00000000000000 + 1.22464679914735e-16*I",
      "1.00000000000000",
      "-1.00000000000000 + 1.22464679914735e-16*I",
      "1.00000000000000",
      "1.00000000000000",
      "1.00000000000000",
      "1.00000000000000"
    ],
    [
      "1.00000000000000",
      "-1.00000000000000 + 1.22464679914735e-16*I",
      "1.00000000000000",
      "-1.00000000000000 + 1.22464679914735e-16*I",
      "1.00000000000000",
      "-1.00000000000000 + 1.22464679914735e-16*I",
      "-1.00000000000000 + 1.22464679914735e-16*I",
      "1.00000000000000",
      "-1.00000000000000 + 1.22464679914735e-16*I"
    ],
    [
      "1.00000000000000",
      "-1.00000000000000 + 1.22464679914735e-16*I",
      "-1.00000000000000 + 1.22464679914735e-16*I",
      "-1.00000000000000 + 1.22464679914735e-16*I",
      "-1.00000000000000 + 1.22464679914735e-16*I",
      "-1.00000000000000 + 1.22464679914735e-16*I",
      "-1.00000000000000 + 1.22464679914735e-16*I",
      "-1.00000000000000 + 1.22464679914735e-16*I",
      "-1.00000000000000 + 1.22464679914735e-16*I"
    ],
    [
      "1.00000000000000",
      "-1.00000000000000 + 1.22464679914735e-16*I",
      "-1.00000000000000 + 1.22464679914735e-16*I",
      "-1.00000000000000 + 1.22464679914735e-16*I",
      "1.00000000000000",
      "-1.00000000000000 + 1.22464679914735e-16*I",
      "1.00000000000000",
      "1.00000000000000",
      "-1.00000000000000 + 1.22464679914735e-16*I"
    ],
    [
      "1.00000000000000",
      "1.00000000000000",
      "-1.00000000000000 + 1.22464679914735e-16*I",
      "-1.00000000000000 + 1.22464679914735e-16*I",
      "-1.00000000000000 + 1.22464679914735e-16*I",
      "-1.00000000000000 + 1.22464679914735e-16*I",
      "1.00000000000000",
      "-1.00000000000000 + 1.22464679914735e-16*I",
      "-1.00000000000000 + 1.22464679914735e-16*I"
    ],
    [
      "1.00000000000000",
      "1.00000000000000",
      "-1.00000000000000 + 1.22464679914735e-16*I",
      "1.00000000000000",
      "1.00000000000000",
      "1.00000000000000",
      "-1.00000000000000 + 1.22464679914735e-16*I",
      "-1.00000000000000 + 1.22464679914735e-16*I",
      "1.00000000000000"
    ],
    [
      "1.00000000000000",
      "1.00000000000000",
      "-1.00000000000000 + 1.22464679914735e-16*I",
      "1.00000000000000",
      "1.00000000000000",
      "1.00000000000000",
      "1.00000000000000",
      "-1.00000000000000 + 1.22464679914735e-16*I",
      "-1.00000000000000 + 1.22464679914735e-16*I"
    ],
    [
      "1.00000000000000",
      "-1.00000000000000 + 1.22464679914735e-16*I",
      "1.00000000000000",
      "-1.00000000000000 + 1.22464679914735e-16*I",
      "1.00000000000000",
      "-1.00000000000000 + 1.22464679914735e-16*I",
      "1.00000000000000",
      "1.00000000000000",
      "-1.00000000000000 + 1.22464679914735e-16*I"
    ],
    [
      "1.00000000000000",
      "1.00000000000000",
      "1.00000000000000",
      "-1.00000000000000 + 1.22464679914735e-16*I",
      "-1.00000000000000 + 1.22464679914735e-16*I",
      "1.00000000000000",
      "-1.00000000000000 + 1.22464679914735e-16*I",
      "-1.00000000000000 + 1.22464679914735e-16*I",
      "1.00000000000000"
    ],
    [
      "1.00000000000000",
      "-1.00000000000000 + 1.22464679914735e-16*I",
      "1.00000000000000",
      "-1.00000000000000 + 1.22464679914735e-16*I",
      "1.00000000000000",
      "1.00000000000000",
      "1.00000000000000",
      "-1.00000000000000 + 1.22464679914735e-16*I",
      "1.00000000000000"
    ],
    [
      "1.00000000000000",
      "1.00000000000000",
      "-1.00000000000000 + 1.22464679914735e-16*I",
      "1.00000000000000",
      "-1.00000000000000 + 1.22464679914735e-16*I",
      "1.00000000000000",
      "-1.00000000000000 + 1.22464679914735e-16*I",
      "-1.00000000000000 + 1.22464679914735e-16*I",
      "1.00000000000000"
    ],
    [
      "1.00000000000000",
      "1.00000000000000",
      "-1.00000000000000 + 1.22464679914735e-16*I",
      "1.00000000000000",
      "-1.00000000000000 + 1.22464679914735e-16*I",
      "-1.00000000000000 + 1.22464679914735e-16*I",
      "-1.00000000000000 + 1.22464679914735e-16*I",
      "1.00000000000000",
      "1.00000000000000"
    ],
    [
      "1.00000000000000",
      "-1.00000000000000 + 1.22464679914735e-16*I",
      "-1.00000000000000 + 1.22464679914735e-16*I",
      "-1.00000000000000 + 1.22464679914735e-16*I",
      "-1.00000000000000 + 1.22464679914735e-16*I",
      "1.00000000000000",
      "1.00000000000000",
      "1.00000000000000",
      "-1.00000000000000 + 1.22464679914735e-16*I"
    ],
    [
      "1.00000000000000",
      "1.00000000000000",
      "-1.00000000000000 + 1.22464679914735e-16*I",
      "1.00000000000000",
      "1.00000000000000",
      "1.00000000000000",
      "1.00000000000000",
      "-1.00000000000000 + 1.22464679914735e-16*I",
      "1.00000000000000"
    ],
    [
      "1.00000000000000",
      "1.00000000000000",
      "1.00000000000000",
      "1.00000000000000",
      "-1.00000000000000 + 1.22464679914735e-16*I",
      "-1.00000000000000 + 1.22464679914735e-16*I",
      "1.00000000000000",
      "1.00000000000000",
      "-1.00000000000000 + 1.22464679914735e-16*I"
    ],
    [
      "1.00000000000000",
      "1.00000000000000",
      "1.00000000000000",
      "-1.00000000000000 + 1.22464679914735e-16*I",
      "1.00000000000000",
      "1.00000000000000",
      "1.00000000000000",
      "-1.00000000000000 + 1.22464679914735e-16*I",
      "1.00000000000000"
    ],
    [
      "1.00000000000000",
      "-1.00000000000000 + 1.22464679914735e-16*I",
      "-1.00000000000000 + 1.22464679914735e-16*I",
      "1.00000000000000",
      "1.00000000000000",
      "1.00000000000000",
      "1.00000000000000",
      "-1.00000000000000 + 1.22464679914735e-16*I",
      "-1.00000000000000 + 1.22464679914735e-16*I"
    ],
    [
      "1.00000000000000",
      "-1.00000000000000 + 1.22464679914735e-16*I",
      "-1.00000000000000 + 1.22464679914735e-16*I",
      "1.00000000000000",
      "1.00000000000000",
      "1.00000000000000",
      "-1.00000000000000 + 1.22464679914735e-16*I",
      "-1.00000000000000 + 1.22464679914735e-16*I",
      "-1.00000000000000 + 1.22464679914735e-16*I"
    ],
    [
      "1.00000000000000",
      "1.00000000000000",
      "1.00000000000000",
      "-1.00000000000000 + 1.22464679914735e-16*I",
      "1.00000000000000",
      "1.00000000000000",
      "-1.00000000000000 + 1.22464679914735e-16*I",
      "-1.00000000000000 + 1.22464679914735e-16*I",
      "-1.00000000000000 + 1.22464679914735e-16*I"
    ],
    [
      "1.00000000000000",
      "1.00000000000000",
      "-1.00000000000000 + 1.22464679914735e-16*I",
      "1.00000000000000",
      "-1.00000000000000 + 1.22464679914735e-16*I",
      "1.00000000000000",
      "-1.00000000000000 + 1.22464679914735e-16*I",
      "-1.00000000000000 + 1.22464679914735e-16*I",
      "-1.00000000000000 + 1.22464679914735e-16*I"
    ],
    [
      "1.00000000000000",
      "1.00000000000000",
      "1.00000000000000",
      "-1.00000000000000 + 1.22464679914735e-16*I",
      "1.00000000000000",
      "1.00000000000000",
      "1.00000000000000",
      "1.00000000000000",
      "1.00000000000000"
    ],
    [
      "1.00000000000000",
      "-1.00000000000000 + 1.22464679914735e-16*I",
      "1.00000000000000",
      "1.00000000000000",
      "1.00000000000000",
      "-1.00000000000000 + 1.22464679914735e-16*I",
      "-1.00000000000000 + 1.22464679914735e-16*I",
      "-1.00000000000000 + 1.22464679914735e-16*I",
      "-1.00000000000000 + 1.22464679914735e-16*I"
    ],
    [
      "1.00000000000000",
      "1.00000000000000",
      "-1.00000000000000 + 1.22464679914735e-16*I",
      "1.00000000000000",
      "1.00000000000000",
      "-1.00000000000000 + 1.22464679914735e-16*I",
      "-1.00000000000000 + 1.22464679914735e-16*I",
      "1.00000000000000",
      "1.00000000000000"
    ],
    [
      "1.00000000000000",
      "1.00000000000000",
      "1.00000000000000",
      "1.00000000000000",
      "1.00000000000000",
      "1.00000000000000",
      "1.00000000000000",
      "1.00000000000000",
      "1.00000000000000"
    ],
    [
      "1.00000000000000",
      "1.00000000000000",
      "1.00000000000000",
      "1.00000000000000",
      "1.00000000000000",
      "1.00000000000000",
      "1.00000000000000",
      "1.00000000000000",
      "-1.00000000000000 + 1.22464679914735e-16*I"
    ],
    [
      "1.00000000000000",
      "1.00000000000000",
      "-1.00000000000000 + 1.22464679914735e-16*I",
      "1.00000000000000",
      "-1.00000000000000 + 1.22464679914735e-16*I",
      "1.00000000000000",
      "-1.00000000000000 + 1.22464679914735e-16*I",
      "-1.00000000000000 + 1.22464679914735e-16*I",
      "-1.00000000000000 + 1.22464679914735e-16*I"
    ],
    [
      "1.00000000000000",
      "-1.00000000000000 + 1.22464679914735e-16*I",
      "-1.00000000000000 + 1.22464679914735e-16*I",
      "-1.00000000000000 + 1.22464679914735e-16*I",
      "1.00000000000000",
      "1.00000000000000",
      "-1.00000000000000 + 1.22464679914735e-16*I",
      "-1.00000000000000 + 1.22464679914735e-16*I",
      "-1.00000000000000 + 1.22464679914735e-16*I"
    ],
    [
      "1.00000000000000",
      "-1.00000000000000 + 1.22464679914735e-16*I",
      "-1.00000000000000 + 1.22464679914735e-16*I",
      "1.00000000000000",
      "1.00000000000000",
      "-1.00000000000000 + 1.22464679914735e-16*I",
      "1.00000000000000",
      "1.00000000000000",
      "-1.00000000000000 + 1.22464679914735e-16*I"
    ],
    [
      "1.00000000000000",
      "-1.00000000000000 + 1.22464679914735e-16*I",
      "-1.00000000000000 + 1.22464679914735e-16*I",
      "-1.00000000000000 + 1.22464679914735e-16*I",
      "1.00000000000000",
      "1.00000000000000",
      "1.00000000000000",
      "1.00000000000000",
      "1.00000000000000"
    ],
    [
      "1.00000000000000",
      "1.00000000000000",
      "1.00000000000000",
      "1.00000000000000",
      "1.00000000000000",
      "-1.00000000000000 + 1.22464679914735e-16*I",
      "1.00000000000000",
      "1.00000000000000",
      "1.00000000000000"
    ],
    [
      "1.00000000000000",
      "-1.00000000000000 + 1.22464679914735e-16*I",
      "1.00000000000000",
      "-1.00000000000000 + 1.22464679914735e-16*I",
      "1.00000000000000",
      "1.00000000000000",
      "-1.00000000000000 + 1.22464679914735e-16*I",
      "-1.00000000000000 + 1.22464679914735e-16*I",
      "-1.00000000000000 + 1.22464679914735e-16*I"
    ],
    [
      "1.00000000000000",
      "1.00000000000000",
      "-1.00000000000000 + 1.22464679914735e-16*I",
      "-1.00000000000000 + 1.22464679914735e-16*I",
      "-1.00000000000000 + 1.22464679914735e-16*I",
      "1.00000000000000",
      "1.00000000000000",
      "-1.00000000000000 + 1.22464679914735e-16*I",
      "1.00000000000000"
    ],
    [
      "1.00000000000000",
      "-1.00000000000000 + 1.22464679914735e-16*I",
      "-1.00000000000000 + 1.22464679914735e-16*I",
      "-1.00000000000000 + 1.22464679914735e-16*I",
      "1.00000000000000",
      "-1.00000000000000 + 1.22464679914735e-16*I",
      "-1.00000000000000 + 1.22464679914735e-16*I",
      "-1.00000000000000 + 1.22464679914735e-16*I",
      "-1.00000000000000 + 1.22464679914735e-16*I"
    ],
    [
      "1.00000000000000",
      "1.00000000000000",
      "1.00000000000000",
      "1.00000000000000",
      "1.00000000000000",
      "-1.00000000000000 + 1.22464679914735e-16*I",
      "1.00000000000000",
      "1.00000000000000",
      "1.00000000000000"
    ],
    [
      "1.00000000000000",
      "-1.00000000000000 + 1.22464679914735e-16*I",
      "1.00000000000000",
      "1.00000000000000",
      "-1.00000000000000 + 1.22464679914735e-16*I",
      "1.00000000000000",
      "-1.00000000000000 + 1.22464679914735e-16*I",
      "1.00000000000000",
      "1.00000000000000"
    ],
    [
      "1.00000000000000",
      "-1.00000000000000 + 1.22464679914735e-16*I",
      "1.00000000000000",
      "-1.00000000000000 + 1.22464679914735e-16*I",
      "-1.00000000000000 + 1.22464679914735e-16*I",
      "1.00000000000000",
      "1.00000000000000",
      "1.00000000000000",
      "1.00000000000000"
    ],
    [
      "1.00000000000000",
      "1.00000000000000",
      "-1.00000000000000 + 1.22464679914735e-16*I",
      "1.00000000000000",
      "-1.00000000000000 + 1.22464679914735e-16*I",
      "1.00000000000000",
      "1.00000000000000",
      "-1.00000000000000 + 1.22464679914735e-16*I",
      "1.00000000000000"
    ],
    [
      "1.00000000000000",
      "1.00000000000000",
      "-1.00000000000000 + 1.22464679914735e-16*I",
      "-1.00000000000000 + 1.22464679914735e-16*I",
      "-1.00000000000000 + 1.22464679914735e-16*I",
      "-1.00000000000000 + 1.22464679914735e-16*I",
      "-1.00000000000000 + 1.22464679914735e-16*I",
      "-1.00000000000000 + 1.22464679914735e-16*I",
      "-1.00000000000000 + 1.22464679914735e-16*I"
    ],
    [
      "1.00000000000000",
      "-1.00000000000000 + 1.22464679914735e-16*I",
      "1.00000000000000",
      "-1.00000000000000 + 1.22464679914735e-16*I",
      "1.00000000000000",
      "-1.00000000000000 + 1.22464679914735e-16*I",
      "1.00000000000000",
      "-1.00000000000000 + 1.22464679914735e-16*I",
      "-1.00000000000000 + 1.22464679914735e-16*I"
    ],
    [
      "1.00000000000000",
      "-1.00000000000000 + 1.22464679914735e-16*I",
      "1.00000000000000",
      "1.00000000000000",
      "1.00000000000000",
      "-1.00000000000000 + 1.22464679914735e-16*I",
      "-1.00000000000000 + 1.22464679914735e-16*I",
      "1.00000000000000",
      "-1.00000000000000 + 1.22464679914735e-16*I"
    ],
    [
      "1.00000000000000",
      "1.00000000000000",
      "-1.00000000000000 + 1.22464679914735e-16*I",
      "1.00000000000000",
      "-1.00000000000000 + 1.22464679914735e-16*I",
      "-1.00000000000000 + 1.22464679914735e-16*I",
      "-1.00000000000000 + 1.22464679914735e-16*I",
      "1.00000000000000",
      "1.00000000000000"
    ],
    [
      "1.00000000000000",
      "-1.00000000000000 + 1.22464679914735e-16*I",
      "1.00000000000000",
      "1.00000000000000",
      "-1.00000000000000 + 1.22464679914735e-16*I",
      "-1.00000000000000 + 1.22464679914735e-16*I",
      "-1.00000000000000 + 1.22464679914735e-16*I",
      "-1.00000000000000 + 1.22464679914735e-16*I",
      "1.00000000000000"
    ],
    [
      "1.00000000000000",
      "1.00000000000000",
      "-1.00000000000000 + 1.22464679914735e-16*I",
      "1.00000000000000",
      "-1.00000000000000 + 1.22464679914735e-16*I",
      "1.00000000000000",
      "1.00000000000000",
      "-1.00000000000000 + 1.22464679914735e-16*I",
      "1.00000000000000"
    ],
    [
      "1.00000000000000",
      "1.00000000000000",
      "1.00000000000000",
      "-1.00000000000000 + 1.22464679914735e-16*I",
      "1.00000000000000",
      "-1.00000000000000 + 1.22464679914735e-16*I",
      "-1.00000000000000 + 1.22464679914735e-16*I",
      "1.00000000000000",
      "1.00000000000000"
    ],
    [
      "1.00000000000000",
      "1.00000000000000",
      "-1.00000000000000 + 1.22464679914735e-16*I",
      "1.00000000000000",
      "1.00000000000000",
      "-1.00000000000000 + 1.22464679914735e-16*I",
      "-1.00000000000000 + 1.22464679914735e-16*I",
      "-1.00000000000000 + 1.22464679914735e-16*I",
      "-1.00000000000000 + 1.22464679914735e-16*I"
    ],
    [
      "1.00000000000000",
      "1.00000000000000",
      "1.00000000000000",
      "-1.00000000000000 + 1.22464679914735e-16*I",
      "-1.00000000000000 + 1.22464679914735e-16*I",
      "1.00000000000000",
      "-1.00000000000000 + 1.22464679914735e-16*I",
      "1.00000000000000",
      "1.00000000000000"
    ],
    [
      "1.00000000000000",
      "-1.00000000000000 + 1.22464679914735e-16*I",
      "1.00000000000000",
      "-1.00000000000000 + 1.22464679914735e-16*I",
      "-1.00000000000000 + 1.22464679914735e-16*I",
      "1.00000000000000",
      "1.00000000000000",
      "1.00000000000000",
      "1.00000000000000"
    ],
    [
      "1.00000000000000",
      "-1.00000000000000 + 1.22464679914735e-16*I",
      "-1.00000000000000 + 1.22464679914735e-16*I",
      "1.00000000000000",
      "1.00000000000000",
      "-1.00000000000000 + 1.22464679914735e-16*I",
      "-1.00000000000000 + 1.22464679914735e-16*I",
      "-1.00000000000000 + 1.22464679914735e-16*I",
      "-1.00000000000000 + 1.22464679914735e-16*I"
    ],
    [
      "1.00000000000000",
      "1.00000000000000",
      "1.00000000000000",
      "-1.00000000000000 + 1.22464679914735e-16*I",
      "1.00000000000000",
      "1.00000000000000",
      "1.00000000000000",
      "1.00000000000000",
      "-1.00000000000000 + 1.22464679914735e-16*I"
    ],
    [
      "1.00000000000000",
      "1.00000000000000",
      "-1.00000000000000 + 1.22464679914735e-16*I",
      "1.00000000000000",
      "1.00000000000000",
      "1.00000000000000",
      "1.00000000000000",
      "-1.00000000000000 + 1.22464679914735e-16*I",
      "-1.00000000000000 + 1.22464679914735e-16*I"
    ],
    [
      "1.00000000000000",
      "1.00000000000000",
      "1.00000000000000",
      "-1.00000000000000 + 1.22464679914735e-16*I",
      "1.00000000000000",
      "1.00000000000000",
      "1.00000000000000",
      "1.00000000000000",
      "1.00000000000000"
    ],
    [
      "1.00000000000000",
      "-1.00000000000000 + 1.22464679914735e-16*I",
      "-1.00000000000000 + 1.22464679914735e-16*I",
      "-1.00000000000000 + 1.22464679914735e-16*I",
      "-1.00000000000000 + 1.22464679914735e-16*I",
      "1.00000000000000",
      "-1.00000000000000 + 1.22464679914735e-16*I",
      "-1.00000000000000 + 1.22464679914735e-16*I",
      "-1.00000000000000 + 1.22464679914735e-16*I"
    ],
    [
      "1.00000000000000",
      "1.00000000000000",
      "1.00000000000000",
      "-1.00000000000000 + 1.22464679914735e-16*I",
      "1.00000000000000",
      "1.00000000000000",
      "1.00000000000000",
      "-1.00000000000000 + 1.22464679914735e-16*I",
      "1.00000000000000"
    ],
    [
      "1.00000000000000",
      "1.00000000000000",
      "-1.00000000000000 + 1.22464679914735e-16*I",
      "1.00000000000000",
      "1.00000000000000",
      "-1.00000000000000 + 1.22464679914735e-16*I",
      "-1.00000000000000 + 1.22464679914735e-16*I",
      "-1.00000000000000 + 1.22464679914735e-16*I",
      "-1.00000000000000 + 1.22464679914735e-16*I"
    ],
    [
      "1.00000000000000",
      "1.00000000000000",
      "1.00000000000000",
      "-1.00000000000000 + 1.22464679914735e-16*I",
      "-1.00000000000000 + 1.22464679914735e-16*I",
      "1.00000000000000",
      "1.00000000000000",
      "-1.00000000000000 + 1.22464679914735e-16*I",
      "-1.00000000000000 + 1.22464679914735e-16*I"
    ],
    [
      "1.00000000000000",
      "1.00000000000000",
      "-1.00000000000000 + 1.22464679914735e-16*I",
      "-1.00000000000000 + 1.22464679914735e-16*I",
      "-1.00000000000000 + 1.22464679914735e-16*I",
      "-1.00000000000000 + 1.22464679914735e-16*I",
      "1.00000000000000",
      "-1.00000000000000 + 1.22464679914735e-16*I",
      "1.00000000000000"
    ],
    [
      "1.00000000000000",
      "-1.00000000000000 + 1.22464679914735e-16*I",
      "-1.00000000000000 + 1.22464679914735e-16*I",
      "1.00000000000000",
      "-1.00000000000000 + 1.22464679914735e-16*I",
      "-1.00000000000000 + 1.22464679914735e-16*I",
      "-1.00000000000000 + 1.22464679914735e-16*I",
      "-1.00000000000000 + 1.22464679914735e-16*I",
      "1.00000000000000"
    ],
    [
      "1.00000000000000",
      "1.00000000000000",
      "-1.00000000000000 + 1.22464679914735e-16*I",
      "-1.00000000000000 + 1.22464679914735e-16*I",
      "-1.00000000000000 + 1.22464679914735e-16*I",
      "1.00000000000000",
      "-1.00000000000000 + 1.22464679914735e-16*I",
      "-1.00000000000000 + 1.22464679914735e-16*I",
      "-1.00000000000000 + 1.22464679914735e-16*I"
    ],
    [
      "1.00000000000000",
      "-1.00000000000000 + 1.22464679914735e-16*I",
      "1.00000000000000",
      "-1.00000000000000 + 1.22464679914735e-16*I",
      "-1.00000000000000 + 1.22464679914735e-16*I",
      "1.00000000000000",
      "1.00000000000000",
      "-1.00000000000000 + 1.22464679914735e-16*I",
      "1.00000000000000"
    ],
    [
      "1.00000000000000",
      "-1.00000000000000 + 1.22464679914735e-16*I",
      "-1.00000000000000 + 1.22464679914735e-16*I",
      "1.00000000000000",
      "1.00000000000000",
      "-1.00000000000000 + 1.22464679914735e-16*I",
      "-1.00000000000000 + 1.22464679914735e-16*I",
      "-1.00000000000000 + 1.22464679914735e-16*I",
      "1.00000000000000"
    ],
    [
      "1.00000000000000",
      "1.00000000000000",
      "-1.00000000000000 + 1.22464679914735e-16*I",
      "1.00000000000000",
      "1.00000000000000",
      "1.00000000000000",
      "1.00000000000000",
      "1.00000000000000",
      "-1.00000000000000 + 1.22464679914735e-16*I"
    ],
    [
      "1.00000000000000",
      "1.00000000000000",
      "1.00000000000000",
      "1.00000000000000",
      "-1.00000000000000 + 1.22464679914735e-16*I",
      "-1.00000000000000 + 1.22464679914735e-16*I",
      "-1.00000000000000 + 1.22464679914735e-16*I",
      "-1.00000000000000 + 1.22464679914735e-16*I",
      "-1.00000000000000 + 1.22464679914735e-16*I"
    ],
    [
      "1.00000000000000",
      "-1.00000000000000 + 1.22464679914735e-16*I",
      "-1.00000000000000 + 1.22464679914735e-16*I",
      "-1.00000000000000 + 1.22464679914735e-16*I",
      "-1.00000000000000 + 1.22464679914735e-16*I",
      "1.00000000000000",
      "1.00000000000000",
      "-1.00000000000000 + 1.22464679914735e-16*I",
      "-1.00000000000000 + 1.22464679914735e-16*I"
    ],
    [
      "1.00000000000000",
      "-1.00000000000000 + 1.22464679914735e-16*I",
      "-1.00000000000000 + 1.22464679914735e-16*I",
      "1.00000000000000",
      "1.00000000000000",
      "1.00000000000000",
      "1.00000000000000",
      "1.00000000000000",
      "-1.00000000000000 + 1.22464679914735e-16*I"
    ],
    [
      "1.00000000000000",
      "1.00000000000000",
      "-1.00000000000000 + 1.22464679914735e-16*I",
      "-1.00000000000000 + 1.22464679914735e-16*I",
      "1.00000000000000",
      "-1.00000000000000 + 1.22464679914735e-16*I",
      "-1.00000000000000 + 1.22464679914735e-16*I",
      "-1.00000000000000 + 1.22464679914735e-16*I",
      "1.00000000000000"
    ],
    [
      "1.00000000000000",
      "-1.00000000000000 + 1.22464679914735e-16*I",
      "-1.00000000000000 + 1.22464679914735e-16*I",
      "-1.00000000000000 + 1.22464679914735e-16*I",
      "1.00000000000000",
      "1.00000000000000",
      "-1.00000000000000 + 1.22464679914735e-16*I",
      "1.00000000000000",
      "1.00000000000000"
    ],
    [
      "1.00000000000000",
      "1.00000000000000",
      "-1.00000000000000 + 1.22464679914735e-16*I",
      "1.00000000000000",
      "1.00000000000000",
      "1.00000000000000",
      "1.00000000000000",
      "-1.00000000000000 + 1.22464679914735e-16*I",
      "-1.00000000000000 + 1.22464679914735e-16*I"
    ],
    [
      "1.00000000000000",
      "1.00000000000000",
      "1.00000000000000",
      "1.00000000000000",
      "1.00000000000000",
      "-1.00000000000000 + 1.22464679914735e-16*I",
      "1.00000000000000",
      "-1.00000000000000 + 1.22464679914735e-16*I",
      "-1.00000000000000 + 1.22464679914735e-16*I"
    ],
    [
      "1.00000000000000",
      "1.00000000000000",
      "1.00000000000000",
      "-1.00000000000000 + 1.22464679914735e-16*I",
      "1.00000000000000",
      "1.00000000000000",
      "1.00000000000000",
      "1.00000000000000",
      "1.00000000000000"
    ],
    [
      "1.00000000000000",
      "1.00000000000000",
      "-1.00000000000000 + 1.22464679914735e-16*I",
      "1.00000000000000",
      "1.00000000000000",
      "-1.00000000000000 + 1.22464679914735e-16*I",
      "1.00000000000000",
      "-1.00000000000000 + 1.22464679914735e-16*I",
      "1.00000000000000"
    ],
    [
      "1.00000000000000",
      "1.00000000000000",
      "1.00000000000000",
      "1.00000000000000",
      "-1.00000000000000 + 1.22464679914735e-16*I",
      "1.00000000000000",
      "1.00000000000000",
      "1.00000000000000",
      "1.00000000000000"
    ],
    [
      "1.00000000000000",
      "-1.00000000000000 + 1.22464679914735e-16*I",
      "-1.00000000000000 + 1.22464679914735e-16*I",
      "-1.00000000000000 + 1.22464679914735e-16*I",
      "-1.00000000000000 + 1.22464679914735e-16*I",
      "1.00000000000000",
      "-1.00000000000000 + 1.22464679914735e-16*I",
      "1.00000000000000",
      "-1.00000000000000 + 1.22464679914735e-16*I"
    ],
    [
      "1.00000000000000",
      "-1.00000000000000 + 1.22464679914735e-16*I",
      "1.00000000000000",
      "-1.00000000000000 + 1.22464679914735e-16*I",
      "1.00000000000000",
      "1.00000000000000",
      "1.00000000000000",
      "1.00000000000000",
      "1.00000000000000"
    ],
    [
      "1.00000000000000",
      "1.00000000000000",
      "-1.00000000000000 + 1.22464679914735e-16*I",
      "-1.00000000000000 + 1.22464679914735e-16*I",
      "-1.00000000000000 + 1.22464679914735e-16*I",
      "-1.00000000000000 + 1.22464679914735e-16*I",
      "1.00000000000000",
      "-1.00000000000000 + 1.22464679914735e-16*I",
      "-1.00000000000000 + 1.22464679914735e-16*I"
    ],
    [
      "1.00000000000000",
      "-1.00000000000000 + 1.22464679914735e-16*I",
      "1.00000000000000",
      "-1.00000000000000 + 1.22464679914735e-16*I",
      "-1.00000000000000 + 1.22464679914735e-16*I",
      "1.00000000000000",
      "-1.00000000000000 + 1.22464679914735e-16*I",
      "-1.00000000000000 + 1.22464679914735e-16*I",
      "1.00000000000000"
    ],
    [
      "1.00000000000000",
      "1.00000000000000",
      "-1.00000000000000 + 1.22464679914735e-16*I",
      "1.00000000000000",
      "1.00000000000000",
      "-1.00000000000000 + 1.22464679914735e-16*I",
      "1.00000000000000",
      "-1.00000000000000 + 1.22464679914735e-16*I",
      "1.00000000000000"
    ],
    [
      "1.00000000000000",
      "1.00000000000000",
      "-1.00000000000000 + 1.22464679914735e-16*I",
      "1.00000000000000",
      "-1.00000000000000 + 1.22464679914735e-16*I",
      "-1.00000000000000 + 1.22464679914735e-16*I",
      "1.00000000000000",
      "-1.00000000000000 + 1.22464679914735e-16*I",
      "-1.00000000000000 + 1.22464679914735e-16*I"
    ],
    [
      "1.00000000000000",
      "1.00000000000000",
      "-1.00000000000000 + 1.22464679914735e-16*I",
      "-1.00000000000000 + 1.22464679914735e-16*I",
      "1.00000000000000",
      "1.00000000000000",
      "1.00000000000000",
      "-1.00000000000000 + 1.22464679914735e-16*I",
      "-1.00000000000000 + 1.22464679914735e-16*I"
    ],
    [
      "1.00000000000000",
      "-1.00000000000000 + 1.22464679914735e-16*I",
      "1.00000000000000",
      "1.00000000000000",
      "-1.00000000000000 + 1.22464679914735e-16*I",
      "-1.00000000000000 + 1.22464679914735e-16*I",
      "-1.00000000000000 + 1.22464679914735e-16*I",
      "1.00000000000000",
      "1.00000000000000"
    ],
    [
      "1.00000000000000",
      "-1.00000000000000 + 1.22464679914735e-16*I",
      "1.00000000000000",
      "-1.00000000000000 + 1.22464679914735e-16*I",
      "-1.00000000000000 + 1.22464679914735e-16*I",
      "-1.00000000000000 + 1.22464679914735e-16*I",
      "-1.00000000000000 + 1.22464679914735e-16*I",
      "1.00000000000000",
      "-1.00000000000000 + 1.22464679914735e-16*I"
    ],
    [
      "1.00000000000000",
      "-1.00000000000000 + 1.22464679914735e-16*I",
      "-1.00000000000000 + 1.22464679914735e-16*I",
      "1.00000000000000",
      "-1.00000000000000 + 1.22464679914735e-16*I",
      "-1.00000000000000 + 1.22464679914735e-16*I",
      "1.00000000000000",
      "1.00000000000000",
      "1.00000000000000"
    ],
    [
      "1.00000000000000",
      "-1.00000000000000 + 1.22464679914735e-16*I",
      "-1.00000000000000 + 1.22464679914735e-16*I",
      "1.00000000000000",
      "-1.00000000000000 + 1.22464679914735e-16*I",
      "-1.00000000000000 + 1.22464679914735e-16*I",
      "-1.00000000000000 + 1.22464679914735e-16*I",
      "-1.00000000000000 + 1.22464679914735e-16*I",
      "-1.00000000000000 + 1.22464679914735e-16*I"
    ],
    [
      "1.00000000000000",
      "1.00000000000000",
      "-1.00000000000000 + 1.22464679914735e-16*I",
      "1.00000000000000",
      "-1.00000000000000 + 1.22464679914735e-16*I",
      "-1.00000000000000 + 1.22464679914735e-16*I",
      "-1.00000000000000 + 1.22464679914735e-16*I",
      "1.00000000000000",
      "1.00000000000000"
    ],
    [
      "1.00000000000000",
      "-1.00000000000000 + 1.22464679914735e-16*I",
      "1.00000000000000",
      "1.00000000000000",
      "-1.00000000000000 + 1.22464679914735e-16*I",
      "-1.00000000000000 + 1.22464679914735e-16*I",
      "1.00000000000000",
      "1.00000000000000",
      "1.00000000000000"
    ],
    [
      "1.00000000000000",
      "1.00000000000000",
      "-1.00000000000000 + 1.22464679914735e-16*I",
      "-1.00000000000000 + 1.22464679914735e-16*I",
      "1.00000000000000",
      "-1.00000000000000 + 1.22464679914735e-16*I",
      "-1.00000000000000 + 1.22464679914735e-16*I",
      "1.00000000000000",
      "-1.00000000000000 + 1.22464679914735e-16*I"
    ],
    [
      "1.00000000000000",
      "-1.00000000000000 + 1.22464679914735e-16*I",
      "1.00000000000000",
      "1.00000000000000",
      "-1.00000000000000 + 1.22464679914735e-16*I",
      "1.00000000000000",
      "1.00000000000000",
      "-1.00000000000000 + 1.22464679914735e-16*I",
      "-1.00000000000000 + 1.22464679914735e-16*I"
    ],
    [
      "1.00000000000000",
      "1.00000000000000",
      "1.00000000000000",
      "-1.00000000000000 + 1.22464679914735e-16*I",
      "-1.00000000000000 + 1.22464679914735e-16*I",
      "1.00000000000000",
      "-1.00000000000000 + 1.22464679914735e-16*I",
      "1.00000000000000",
      "1.00000000000000"
    ],
    [
      "1.00000000000000",
      "1.00000000000000",
      "-1.00000000000000 + 1.22464679914735e-16*I",
      "1.00000000000000",
      "1.00000000000000",
      "-1.00000000000000 + 1.22464679914735e-16*I",
      "-1.00000000000000 + 1.22464679914735e-16*I",
      "-1.00000000000000 + 1.22464679914735e-16*I",
      "-1.00000000000000 + 1.22464679914735e-16*I"
    ],
    [
      "1.00000000000000",
      "1.00000000000000",
      "-1.00000000000000 + 1.22464679914735e-16*I",
      "-1.00000000000000 + 1.22464679914735e-16*I",
      "-1.00000000000000 + 1.22464679914735e-16*I",
      "1.00000000000000",
      "1.00000000000000",
      "-1.00000000000000 + 1.22464679914735e-16*I",
      "-1.00000000000000 + 1.22464679914735e-16*I"
    ],
    [
      "1.00000000000000",
      "1.00000000000000",
      "1.00000000000000",
      "1.00000000000000",
      "-1.00000000000000 + 1.22464679914735e-16*I",
      "-1.00000000000000 + 1.22464679914735e-16*I",
      "-1.00000000000000 + 1.22464679914735e-16*I",
      "1.00000000000000",
      "-1.00000000000000 + 1.22464679914735e-16*I"
    ],
    [
      "1.00000000000000",
      "1.00000000000000",
      "1.00000000000000",
      "1.00000000000000",
      "-1.00000000000000 + 1.22464679914735e-16*I",
      "-1.00000000000000 + 1.22464679914735e-16*I",
      "-1.00000000000000 + 1.22464679914735e-16*I",
      "-1.00000000000000 + 1.22464679914735e-16*I",
      "1.00000000000000"
    ],
    [
      "1.00000000000000",
      "-1.00000000000000 + 1.22464679914735e-16*I",
      "1.00000000000000",
      "1.00000000000000",
      "1.00000000000000",
      "-1.00000000000000 + 1.22464679914735e-16*I",
      "1.00000000000000",
      "1.00000000000000",
      "-1.00000000000000 + 1.22464679914735e-16*I"
    ],
    [
      "1.00000000000000",
      "-1.00000000000000 + 1.22464679914735e-16*I",
      "-1.00000000000000 + 1.22464679914735e-16*I",
      "-1.00000000000000 + 1.22464679914735e-16*I",
      "-1.00000000000000 + 1.22464679914735e-16*I",
      "-1.00000000000000 + 1.22464679914735e-16*I",
      "-1.00000000000000 + 1.22464679914735e-16*I",
      "1.00000000000000",
      "1.00000000000000"
    ],
    [
      "1.00000000000000",
      "-1.00000000000000 + 1.22464679914735e-16*I",
      "-1.00000000000000 + 1.22464679914735e-16*I",
      "1.00000000000000",
      "-1.00000000000000 + 1.22464679914735e-16*I",
      "-1.00000000000000 + 1.22464679914735e-16*I",
      "1.00000000000000",
      "1.00000000000000",
      "1.00000000000000"
    ],
    [
      "1.00000000000000",
      "1.00000000000000",
      "-1.00000000000000 + 1.22464679914735e-16*I",
      "-1.00000000000000 + 1.22464679914735e-16*I",
      "1.00000000000000",
      "1.00000000000000",
      "1.00000000000000",
      "-1.00000000000000 + 1.22464679914735e-16*I",
      "-1.00000000000000 + 1.22464679914735e-16*I"
    ],
    [
      "1.00000000000000",
      "1.00000000000000",
      "-1.00000000000000 + 1.22464679914735e-16*I",
      "-1.00000000000000 + 1.22464679914735e-16*I",
      "1.00000000000000",
      "-1.00000000000000 + 1.22464679914735e-16*I",
      "1.00000000000000",
      "-1.00000000000000 + 1.22464679914735e-16*I",
      "1.00000000000000"
    ],
    [
      "1.00000000000000",
      "-1.00000000000000 + 1.22464679914735e-16*I",
      "1.00000000000000",
      "1.00000000000000",
      "1.00000000000000",
      "1.00000000000000",
      "-1.00000000000000 + 1.22464679914735e-16*I",
      "1.00000000000000",
      "1.00000000000000"
    ]
  ]
}