{
  "datetime": "2024-02-07 14:33:51.164367",
  "return code": -15,
  "timeout": 3600,
  "timeout error": true,
  "memory": 8589934592,
  "memory error": false,
  "script error": false,
  "killed manually": false
}