# started on Fri Apr 26 19:12:38 2024


 Performance counter stats for 'taskset 1 ./command.sh':

          52251.55 msec task-clock                       #    1.000 CPUs utilized             
               501      context-switches                 #    9.588 /sec                      
                 1      cpu-migrations                   #    0.019 /sec                      
            169370      page-faults                      #    3.241 K/sec                     
      161592778414      cycles                           #    3.093 GHz                       
      215463351975      instructions                     #    1.33  insn per cycle            
       43402438605      branches                         #  830.644 M/sec                     
        1142673038      branch-misses                    #    2.63% of all branches           

      52.259877973 seconds time elapsed

      51.777138000 seconds user
       0.471911000 seconds sys


