{
  "failures": 0,
  "instructions": {
    "df": 778,
    "f": 426
  },
  "overheadtime": 1.066716194152832,
  "steplist": [
    124.0,
    97.0,
    168.0,
    182.0,
    100.0,
    123.0,
    97.0,
    254.0,
    156.0,
    121.0,
    164.0,
    133.0,
    113.0,
    214.0,
    136.0,
    169.0,
    144.0,
    180.0,
    130.0,
    97.0,
    154.0,
    96.0,
    141.0,
    141.0,
    171.0,
    198.0,
    83.0,
    136.0,
    209.0,
    129.0,
    111.0,
    92.0,
    135.0,
    120.0,
    146.0,
    147.0,
    124.0,
    169.0,
    94.0,
    142.0,
    129.0,
    97.0,
    94.0,
    233.0,
    63.0,
    57.0,
    168.0,
    121.0,
    199.0,
    128.0,
    152.0,
    179.0,
    107.0,
    115.0,
    95.0,
    193.0,
    141.0,
    179.0,
    91.0,
    167.0,
    103.0,
    179.0,
    113.0,
    131.0,
    135.0,
    62.0,
    179.0,
    94.0,
    94.0,
    79.0,
    169.0,
    99.0,
    88.0,
    83.0,
    121.0,
    88.0,
    135.0,
    119.0,
    79.0,
    130.0,
    101.0,
    180.0,
    180.0,
    135.0,
    103.0,
    121.0,
    132.0,
    96.0,
    117.0,
    130.0,
    172.0,
    132.0,
    93.0,
    64.0,
    133.0,
    151.0,
    121.0,
    210.0,
    132.0,
    130.0
  ],
  "time": 1.0414024591445923
}