{
  "failures": 0,
  "instructions": {
    "df": 416,
    "f": 328
  },
  "overheadtime": 0.08072030544281006,
  "steplist": [
    33.0,
    197.0,
    26.0,
    42.0,
    35.0,
    15.0,
    46.0,
    38.0,
    28.0,
    21.0,
    16.0,
    21.0,
    25.0,
    21.0,
    76.0,
    19.0,
    83.0,
    24.0,
    29.0,
    21.0,
    34.0,
    48.0,
    54.0,
    47.0,
    55.0,
    72.0,
    34.0,
    46.0,
    31.0,
    35.0,
    15.0,
    81.0,
    42.0,
    26.0,
    29.0,
    34.0,
    43.0,
    29.0,
    26.0,
    33.0
  ],
  "time": 0.07031811773777008
}