Running as unit: run-r2ea16dd6c21047a1bddd90e85f76cb67.scope; invocation ID: 487812725c304105a92535d03e2db7a6
[src/main.rs:28] parametric_system.f[0].instructions.len() = 808
[src/main.rs:29] parametric_system.df[0].instructions.len() = 1054
continuation 1/100
41
continuation 2/100
33
continuation 3/100
38
continuation 4/100
26
continuation 5/100
37
continuation 6/100
42
continuation 7/100
456
continuation 8/100
42
continuation 9/100
27
continuation 10/100
36
continuation 11/100
73
continuation 12/100
24
continuation 13/100
40
continuation 14/100
79
continuation 15/100
55
continuation 16/100
45
continuation 17/100
59
continuation 18/100
24
continuation 19/100
21
continuation 20/100
50
continuation 21/100
29
continuation 22/100
47
continuation 23/100
89
continuation 24/100
30
continuation 25/100
12
continuation 26/100
27
continuation 27/100
108
continuation 28/100
41
continuation 29/100
42
continuation 30/100
26
continuation 31/100
35
continuation 32/100
94
continuation 33/100
122
continuation 34/100
34
continuation 35/100
5289
continuation 36/100
60
continuation 37/100
38
continuation 38/100
38
continuation 39/100
94
continuation 40/100
39
continuation 41/100
24
continuation 42/100
26
continuation 43/100
100
continuation 44/100
34
continuation 45/100
28
continuation 46/100
35
continuation 47/100
25
continuation 48/100
39
continuation 49/100
34
continuation 50/100
17
continuation 51/100
50
continuation 52/100
56
continuation 53/100
38
continuation 54/100
49
continuation 55/100
37
continuation 56/100
26
continuation 57/100
310
continuation 58/100
29
continuation 59/100
255
continuation 60/100
64
continuation 61/100
28
continuation 62/100
88
continuation 63/100
19
continuation 64/100
58
continuation 65/100
54
continuation 66/100
122
continuation 67/100
65
continuation 68/100
30
continuation 69/100
84
continuation 70/100
27
continuation 71/100
34
continuation 72/100
29
continuation 73/100
41
continuation 74/100
30
continuation 75/100
17
continuation 76/100
41
continuation 77/100
49
continuation 78/100
33
continuation 79/100
34
continuation 80/100
29
continuation 81/100
29
continuation 82/100
33
continuation 83/100
42
continuation 84/100
25
continuation 85/100
19
continuation 86/100
26
continuation 87/100
23
continuation 88/100
20
continuation 89/100
26
continuation 90/100
186
continuation 91/100
106
continuation 92/100
43
continuation 93/100
33
continuation 94/100
23
continuation 95/100
34
continuation 96/100
22
continuation 97/100
40
continuation 98/100
35
continuation 99/100
47
continuation 100/100
48
