{
  "failures": 0,
  "instructions": {
    "df": 1054,
    "f": 808
  },
  "overheadtime": 1.446514368057251,
  "steplist": [
    48.0,
    47.0,
    35.0,
    40.0,
    22.0,
    34.0,
    23.0,
    33.0,
    43.0,
    106.0,
    186.0,
    26.0,
    20.0,
    23.0,
    26.0,
    19.0,
    25.0,
    42.0,
    33.0,
    29.0,
    29.0,
    34.0,
    33.0,
    49.0,
    41.0,
    17.0,
    30.0,
    41.0,
    29.0,
    34.0,
    27.0,
    84.0,
    30.0,
    65.0,
    122.0,
    54.0,
    58.0,
    19.0,
    88.0,
    28.0,
    64.0,
    255.0,
    29.0,
    310.0,
    26.0,
    37.0,
    49.0,
    38.0,
    56.0,
    50.0,
    17.0,
    34.0,
    39.0,
    25.0,
    35.0,
    28.0,
    34.0,
    100.0,
    26.0,
    24.0,
    39.0,
    94.0,
    38.0,
    38.0,
    60.0,
    5289.0,
    34.0,
    122.0,
    94.0,
    35.0,
    26.0,
    42.0,
    41.0,
    108.0,
    27.0,
    12.0,
    30.0,
    89.0,
    47.0,
    29.0,
    50.0,
    21.0,
    24.0,
    59.0,
    45.0,
    55.0,
    79.0,
    40.0,
    24.0,
    73.0,
    36.0,
    27.0,
    42.0,
    456.0,
    42.0,
    37.0,
    26.0,
    38.0,
    33.0,
    41.0
  ],
  "time": 1.4296131134033203
}