# started on Mon Feb  5 16:01:36 2024


 Performance counter stats for './command.sh':

           1448.52 msec task-clock                       #    1.000 CPUs utilized             
                 7      context-switches                 #    4.833 /sec                      
                 0      cpu-migrations                   #    0.000 /sec                      
              1519      page-faults                      #    1.049 K/sec                     
        4479723815      cycles                           #    3.093 GHz                       
       10394662597      instructions                     #    2.32  insn per cycle            
         891512546      branches                         #  615.464 M/sec                     
          10993735      branch-misses                    #    1.23% of all branches           

       1.449011425 seconds time elapsed

       1.444874000 seconds user
       0.003999000 seconds sys


