# started on Mon Feb  5 16:01:54 2024


 Performance counter stats for './command.sh':

            364.56 msec task-clock                       #    0.999 CPUs utilized             
                 8      context-switches                 #   21.944 /sec                      
                 0      cpu-migrations                   #    0.000 /sec                      
              5191      page-faults                      #   14.239 K/sec                     
        1126544119      cycles                           #    3.090 GHz                       
        1942712574      instructions                     #    1.72  insn per cycle            
         278365571      branches                         #  763.565 M/sec                     
           2167982      branch-misses                    #    0.78% of all branches           

       0.365000327 seconds time elapsed

       0.358726000 seconds user
       0.003975000 seconds sys


