{
  "datetime": "2024-02-16 09:23:10.493258",
  "return code": 0,
  "timeout": null,
  "timeout error": false,
  "memory": null,
  "memory error": false,
  "script error": false,
  "killed manually": false
}