{
  "failures": 0,
  "time": "161.673",
  "steplist": [
    19968,
    23019,
    25602,
    16312,
    10207,
    14126,
    14375,
    27770,
    28122,
    19138,
    17455,
    22857,
    17976,
    15588,
    26697,
    18943,
    23728,
    15821,
    15871,
    12688,
    22344,
    13222,
    14866,
    13172,
    13143,
    14375,
    15984,
    26697,
    11640,
    28558,
    17990,
    14794,
    35050,
    14541,
    14439,
    14614,
    23780,
    9308,
    17692,
    13656,
    25753,
    24814,
    12514,
    16843,
    14541,
    30837,
    19528,
    8776,
    32209,
    8519,
    18752,
    26312,
    14535,
    16186,
    9165,
    17738,
    32034,
    23571,
    29951,
    26322,
    14131,
    13389,
    20315,
    19098,
    25222,
    27888,
    15971,
    24369,
    54705,
    9841,
    21549,
    22464,
    18603,
    21285,
    20364,
    22067,
    45897,
    15871,
    22547,
    8704,
    19364,
    24477,
    21444,
    20951,
    15139,
    25015,
    61870,
    19159,
    43424,
    12959,
    28260,
    14278,
    24369,
    25250,
    24707,
    19528,
    28148,
    20238,
    24098,
    10354
  ]
}