{
  "failures": 1,
  "instructions": {
    "df": 1614,
    "f": 3286
  },
  "overheadtime": 219.98114013671875,
  "steplist": [
    1399.0,
    510.0,
    1236.0,
    1981.0,
    651.0,
    891.0,
    643.0,
    1216.0,
    1194.0,
    900.0,
    701.0,
    630.0,
    870.0,
    870.0,
    776.0,
    1753.0,
    518.0,
    743.0,
    494.0,
    892.0,
    881.0,
    936.0,
    624.0,
    5021.0,
    909.0,
    412.0,
    530.0,
    619.0,
    4098.0,
    1248.0,
    1428.0,
    810.0,
    654.0,
    725.0,
    454.0,
    881.0,
    495.0,
    1038.0,
    1067.0,
    740.0,
    2178.0,
    1066.0,
    857.0,
    1156.0,
    852.0,
    532.0,
    495.0,
    1147.0,
    883.0,
    562.0,
    654.0,
    886.0,
    763.0,
    1066.0,
    1323.0,
    4524.0,
    868.0,
    469.0,
    1167.0,
    823.0,
    null,
    1112.0,
    846.0,
    644.0,
    390.0,
    881.0,
    820.0,
    699.0,
    1709.0,
    925.0,
    1398.0,
    975.0,
    1612.0,
    1049.0,
    1369.0,
    1046.0,
    721.0,
    1171.0,
    603.0,
    591.0,
    790.0,
    705.0,
    666.0,
    1278.0,
    761.0,
    479.0,
    719.0,
    995.0,
    3826.0,
    819.0,
    665.0,
    540.0,
    722.0,
    763.0,
    1191.0,
    481.0,
    781.0,
    1059.0,
    424.0,
    799.0
  ],
  "time": 216.48388671875
}