{
    "system": [
        "x + t"
    ],
    "variables": [
      "x"
    ],
    "parameters": [
      "t"
    ],
    "path": [
      [
        "0.0"
      ],
      [
        "1.0"
      ]
    ],
    "fiber": [
      [
        "0.0"
      ]
    ]
  }