{
  "overheadtime": 1.835253206,
  "time": 0.00498002,
  "ncertified": 20,
  "failures": 0,
  "steplist": [
    14,
    8,
    13,
    9,
    9,
    11,
    9,
    12,
    15,
    23,
    21,
    22,
    13,
    15,
    13,
    13,
    14,
    12,
    5,
    9
  ]
}