{
  "system": [
    "(2.59786871951887 + 1.31197861723498*I)*t*x0 + 2.00000000000000*t*x1 + 2.00000000000000*t*x2 + 2.00000000000000*t*x3 + 2.00000000000000*t*x4 + 2.00000000000000*t*x5 + 2.00000000000000*t*x6 + (-2.59786871951887 - 1.31197861723498*I)*t + (-1.59786871951887 - 1.31197861723498*I)*x0 + 1.59786871951887 + 1.31197861723498*I",
    "t*x0^2 + (2.58601653368152 + 0.775105199969922*I)*t*x1^2 + 2.00000000000000*t*x2^2 + 2.00000000000000*t*x3^2 + 2.00000000000000*t*x4^2 + 2.00000000000000*t*x5^2 + 2.00000000000000*t*x6^2 - t*x0 + (-0.586016533681521 - 0.775105199969922*I)*x1^2 + (-0.586016533681521 - 0.775105199969922*I)*t + 0.586016533681521 + 0.775105199969922*I",
    "2.00000000000000*t*x0*x1 + 2.00000000000000*t*x1*x2 + (0.664243058228847 + 0.722352391992322*I)*t*x2^2 + 2.00000000000000*t*x2*x3 + 2.00000000000000*t*x3*x4 + 2.00000000000000*t*x4*x5 + 2.00000000000000*t*x5*x6 - t*x1 + (-0.664243058228847 - 0.722352391992322*I)*x2^2 + (-0.664243058228847 - 0.722352391992322*I)*t + 0.664243058228847 + 0.722352391992322*I",
    "t*x1^2 + 2.00000000000000*t*x0*x2 + 2.00000000000000*t*x1*x3 + (0.492078949234138 - 0.126323427932456*I)*t*x3^2 + 2.00000000000000*t*x2*x4 + 2.00000000000000*t*x3*x5 + 2.00000000000000*t*x4*x6 - t*x2 + (-0.492078949234138 + 0.126323427932456*I)*x3^2 + (-0.492078949234138 + 0.126323427932456*I)*t + 0.492078949234138 - 0.126323427932456*I",
    "2.00000000000000*t*x1*x2 + 2.00000000000000*t*x0*x3 + 2.00000000000000*t*x1*x4 + (-1.53755768027574 - 0.0594910278571640*I)*t*x4^2 + 2.00000000000000*t*x2*x5 + 2.00000000000000*t*x3*x6 - t*x3 + (1.53755768027574 + 0.0594910278571640*I)*x4^2 + (1.53755768027574 + 0.0594910278571640*I)*t - 1.53755768027574 - 0.0594910278571640*I",
    "t*x2^2 + 2.00000000000000*t*x1*x3 + 2.00000000000000*t*x0*x4 + 2.00000000000000*t*x1*x5 + (-1.27514946065138 + 1.23519854173216*I)*t*x5^2 + 2.00000000000000*t*x2*x6 - t*x4 + (1.27514946065138 - 1.23519854173216*I)*x5^2 + (1.27514946065138 - 1.23519854173216*I)*t - 1.27514946065138 + 1.23519854173216*I",
    "2.00000000000000*t*x2*x3 + 2.00000000000000*t*x1*x4 + 2.00000000000000*t*x0*x5 + 2.00000000000000*t*x1*x6 + (0.256740381650594 + 0.241621663481749*I)*t*x6^2 - t*x5 + (-0.256740381650594 - 0.241621663481749*I)*x6^2 + (-0.256740381650594 - 0.241621663481749*I)*t + 0.256740381650594 + 0.241621663481749*I"
  ],
  "variables": [
    "x0",
    "x1",
    "x2",
    "x3",
    "x4",
    "x5",
    "x6"
  ],
  "parameters": [
    "t"
  ],
  "path": [
    [
      "0.0"
    ],
    [
      "1.0"
    ]
  ],
  "fiber": [
    [
      "1.00000000000000",
      "1.00000000000000",
      "1.00000000000000",
      "1.00000000000000",
      "1.00000000000000",
      "1.00000000000000",
      "1.00000000000000"
    ],
    [
      "1.00000000000000",
      "-1.00000000000000 + 1.22464679914735e-16*I",
      "1.00000000000000",
      "1.00000000000000",
      "1.00000000000000",
      "1.00000000000000",
      "1.00000000000000"
    ],
    [
      "1.00000000000000",
      "1.00000000000000",
      "-1.00000000000000 + 1.22464679914735e-16*I",
      "1.00000000000000",
      "1.00000000000000",
      "1.00000000000000",
      "1.00000000000000"
    ],
    [
      "1.00000000000000",
      "-1.00000000000000 + 1.22464679914735e-16*I",
      "-1.00000000000000 + 1.22464679914735e-16*I",
      "1.00000000000000",
      "1.00000000000000",
      "1.00000000000000",
      "1.00000000000000"
    ],
    [
      "1.00000000000000",
      "1.00000000000000",
      "1.00000000000000",
      "-1.00000000000000 + 1.22464679914735e-16*I",
      "1.00000000000000",
      "1.00000000000000",
      "1.00000000000000"
    ],
    [
      "1.00000000000000",
      "-1.00000000000000 + 1.22464679914735e-16*I",
      "1.00000000000000",
      "-1.00000000000000 + 1.22464679914735e-16*I",
      "1.00000000000000",
      "1.00000000000000",
      "1.00000000000000"
    ],
    [
      "1.00000000000000",
      "1.00000000000000",
      "-1.00000000000000 + 1.22464679914735e-16*I",
      "-1.00000000000000 + 1.22464679914735e-16*I",
      "1.00000000000000",
      "1.00000000000000",
      "1.00000000000000"
    ],
    [
      "1.00000000000000",
      "-1.00000000000000 + 1.22464679914735e-16*I",
      "-1.00000000000000 + 1.22464679914735e-16*I",
      "-1.00000000000000 + 1.22464679914735e-16*I",
      "1.00000000000000",
      "1.00000000000000",
      "1.00000000000000"
    ],
    [
      "1.00000000000000",
      "1.00000000000000",
      "1.00000000000000",
      "1.00000000000000",
      "-1.00000000000000 + 1.22464679914735e-16*I",
      "1.00000000000000",
      "1.00000000000000"
    ],
    [
      "1.00000000000000",
      "-1.00000000000000 + 1.22464679914735e-16*I",
      "1.00000000000000",
      "1.00000000000000",
      "-1.00000000000000 + 1.22464679914735e-16*I",
      "1.00000000000000",
      "1.00000000000000"
    ],
    [
      "1.00000000000000",
      "1.00000000000000",
      "-1.00000000000000 + 1.22464679914735e-16*I",
      "1.00000000000000",
      "-1.00000000000000 + 1.22464679914735e-16*I",
      "1.00000000000000",
      "1.00000000000000"
    ],
    [
      "1.00000000000000",
      "-1.00000000000000 + 1.22464679914735e-16*I",
      "-1.00000000000000 + 1.22464679914735e-16*I",
      "1.00000000000000",
      "-1.00000000000000 + 1.22464679914735e-16*I",
      "1.00000000000000",
      "1.00000000000000"
    ],
    [
      "1.00000000000000",
      "1.00000000000000",
      "1.00000000000000",
      "-1.00000000000000 + 1.22464679914735e-16*I",
      "-1.00000000000000 + 1.22464679914735e-16*I",
      "1.00000000000000",
      "1.00000000000000"
    ],
    [
      "1.00000000000000",
      "-1.00000000000000 + 1.22464679914735e-16*I",
      "1.00000000000000",
      "-1.00000000000000 + 1.22464679914735e-16*I",
      "-1.00000000000000 + 1.22464679914735e-16*I",
      "1.00000000000000",
      "1.00000000000000"
    ],
    [
      "1.00000000000000",
      "1.00000000000000",
      "-1.00000000000000 + 1.22464679914735e-16*I",
      "-1.00000000000000 + 1.22464679914735e-16*I",
      "-1.00000000000000 + 1.22464679914735e-16*I",
      "1.00000000000000",
      "1.00000000000000"
    ],
    [
      "1.00000000000000",
      "-1.00000000000000 + 1.22464679914735e-16*I",
      "-1.00000000000000 + 1.22464679914735e-16*I",
      "-1.00000000000000 + 1.22464679914735e-16*I",
      "-1.00000000000000 + 1.22464679914735e-16*I",
      "1.00000000000000",
      "1.00000000000000"
    ],
    [
      "1.00000000000000",
      "1.00000000000000",
      "1.00000000000000",
      "1.00000000000000",
      "1.00000000000000",
      "-1.00000000000000 + 1.22464679914735e-16*I",
      "1.00000000000000"
    ],
    [
      "1.00000000000000",
      "-1.00000000000000 + 1.22464679914735e-16*I",
      "1.00000000000000",
      "1.00000000000000",
      "1.00000000000000",
      "-1.00000000000000 + 1.22464679914735e-16*I",
      "1.00000000000000"
    ],
    [
      "1.00000000000000",
      "1.00000000000000",
      "-1.00000000000000 + 1.22464679914735e-16*I",
      "1.00000000000000",
      "1.00000000000000",
      "-1.00000000000000 + 1.22464679914735e-16*I",
      "1.00000000000000"
    ],
    [
      "1.00000000000000",
      "-1.00000000000000 + 1.22464679914735e-16*I",
      "-1.00000000000000 + 1.22464679914735e-16*I",
      "1.00000000000000",
      "1.00000000000000",
      "-1.00000000000000 + 1.22464679914735e-16*I",
      "1.00000000000000"
    ],
    [
      "1.00000000000000",
      "1.00000000000000",
      "1.00000000000000",
      "-1.00000000000000 + 1.22464679914735e-16*I",
      "1.00000000000000",
      "-1.00000000000000 + 1.22464679914735e-16*I",
      "1.00000000000000"
    ],
    [
      "1.00000000000000",
      "-1.00000000000000 + 1.22464679914735e-16*I",
      "1.00000000000000",
      "-1.00000000000000 + 1.22464679914735e-16*I",
      "1.00000000000000",
      "-1.00000000000000 + 1.22464679914735e-16*I",
      "1.00000000000000"
    ],
    [
      "1.00000000000000",
      "1.00000000000000",
      "-1.00000000000000 + 1.22464679914735e-16*I",
      "-1.00000000000000 + 1.22464679914735e-16*I",
      "1.00000000000000",
      "-1.00000000000000 + 1.22464679914735e-16*I",
      "1.00000000000000"
    ],
    [
      "1.00000000000000",
      "-1.00000000000000 + 1.22464679914735e-16*I",
      "-1.00000000000000 + 1.22464679914735e-16*I",
      "-1.00000000000000 + 1.22464679914735e-16*I",
      "1.00000000000000",
      "-1.00000000000000 + 1.22464679914735e-16*I",
      "1.00000000000000"
    ],
    [
      "1.00000000000000",
      "1.00000000000000",
      "1.00000000000000",
      "1.00000000000000",
      "-1.00000000000000 + 1.22464679914735e-16*I",
      "-1.00000000000000 + 1.22464679914735e-16*I",
      "1.00000000000000"
    ],
    [
      "1.00000000000000",
      "-1.00000000000000 + 1.22464679914735e-16*I",
      "1.00000000000000",
      "1.00000000000000",
      "-1.00000000000000 + 1.22464679914735e-16*I",
      "-1.00000000000000 + 1.22464679914735e-16*I",
      "1.00000000000000"
    ],
    [
      "1.00000000000000",
      "1.00000000000000",
      "-1.00000000000000 + 1.22464679914735e-16*I",
      "1.00000000000000",
      "-1.00000000000000 + 1.22464679914735e-16*I",
      "-1.00000000000000 + 1.22464679914735e-16*I",
      "1.00000000000000"
    ],
    [
      "1.00000000000000",
      "-1.00000000000000 + 1.22464679914735e-16*I",
      "-1.00000000000000 + 1.22464679914735e-16*I",
      "1.00000000000000",
      "-1.00000000000000 + 1.22464679914735e-16*I",
      "-1.00000000000000 + 1.22464679914735e-16*I",
      "1.00000000000000"
    ],
    [
      "1.00000000000000",
      "1.00000000000000",
      "1.00000000000000",
      "-1.00000000000000 + 1.22464679914735e-16*I",
      "-1.00000000000000 + 1.22464679914735e-16*I",
      "-1.00000000000000 + 1.22464679914735e-16*I",
      "1.00000000000000"
    ],
    [
      "1.00000000000000",
      "-1.00000000000000 + 1.22464679914735e-16*I",
      "1.00000000000000",
      "-1.00000000000000 + 1.22464679914735e-16*I",
      "-1.00000000000000 + 1.22464679914735e-16*I",
      "-1.00000000000000 + 1.22464679914735e-16*I",
      "1.00000000000000"
    ],
    [
      "1.00000000000000",
      "1.00000000000000",
      "-1.00000000000000 + 1.22464679914735e-16*I",
      "-1.00000000000000 + 1.22464679914735e-16*I",
      "-1.00000000000000 + 1.22464679914735e-16*I",
      "-1.00000000000000 + 1.22464679914735e-16*I",
      "1.00000000000000"
    ],
    [
      "1.00000000000000",
      "-1.00000000000000 + 1.22464679914735e-16*I",
      "-1.00000000000000 + 1.22464679914735e-16*I",
      "-1.00000000000000 + 1.22464679914735e-16*I",
      "-1.00000000000000 + 1.22464679914735e-16*I",
      "-1.00000000000000 + 1.22464679914735e-16*I",
      "1.00000000000000"
    ],
    [
      "1.00000000000000",
      "1.00000000000000",
      "1.00000000000000",
      "1.00000000000000",
      "1.00000000000000",
      "1.00000000000000",
      "-1.00000000000000 + 1.22464679914735e-16*I"
    ],
    [
      "1.00000000000000",
      "-1.00000000000000 + 1.22464679914735e-16*I",
      "1.00000000000000",
      "1.00000000000000",
      "1.00000000000000",
      "1.00000000000000",
      "-1.00000000000000 + 1.22464679914735e-16*I"
    ],
    [
      "1.00000000000000",
      "1.00000000000000",
      "-1.00000000000000 + 1.22464679914735e-16*I",
      "1.00000000000000",
      "1.00000000000000",
      "1.00000000000000",
      "-1.00000000000000 + 1.22464679914735e-16*I"
    ],
    [
      "1.00000000000000",
      "-1.00000000000000 + 1.22464679914735e-16*I",
      "-1.00000000000000 + 1.22464679914735e-16*I",
      "1.00000000000000",
      "1.00000000000000",
      "1.00000000000000",
      "-1.00000000000000 + 1.22464679914735e-16*I"
    ],
    [
      "1.00000000000000",
      "1.00000000000000",
      "1.00000000000000",
      "-1.00000000000000 + 1.22464679914735e-16*I",
      "1.00000000000000",
      "1.00000000000000",
      "-1.00000000000000 + 1.22464679914735e-16*I"
    ],
    [
      "1.00000000000000",
      "-1.00000000000000 + 1.22464679914735e-16*I",
      "1.00000000000000",
      "-1.00000000000000 + 1.22464679914735e-16*I",
      "1.00000000000000",
      "1.00000000000000",
      "-1.00000000000000 + 1.22464679914735e-16*I"
    ],
    [
      "1.00000000000000",
      "1.00000000000000",
      "-1.00000000000000 + 1.22464679914735e-16*I",
      "-1.00000000000000 + 1.22464679914735e-16*I",
      "1.00000000000000",
      "1.00000000000000",
      "-1.00000000000000 + 1.22464679914735e-16*I"
    ],
    [
      "1.00000000000000",
      "-1.00000000000000 + 1.22464679914735e-16*I",
      "-1.00000000000000 + 1.22464679914735e-16*I",
      "-1.00000000000000 + 1.22464679914735e-16*I",
      "1.00000000000000",
      "1.00000000000000",
      "-1.00000000000000 + 1.22464679914735e-16*I"
    ],
    [
      "1.00000000000000",
      "1.00000000000000",
      "1.00000000000000",
      "1.00000000000000",
      "-1.00000000000000 + 1.22464679914735e-16*I",
      "1.00000000000000",
      "-1.00000000000000 + 1.22464679914735e-16*I"
    ],
    [
      "1.00000000000000",
      "-1.00000000000000 + 1.22464679914735e-16*I",
      "1.00000000000000",
      "1.00000000000000",
      "-1.00000000000000 + 1.22464679914735e-16*I",
      "1.00000000000000",
      "-1.00000000000000 + 1.22464679914735e-16*I"
    ],
    [
      "1.00000000000000",
      "1.00000000000000",
      "-1.00000000000000 + 1.22464679914735e-16*I",
      "1.00000000000000",
      "-1.00000000000000 + 1.22464679914735e-16*I",
      "1.00000000000000",
      "-1.00000000000000 + 1.22464679914735e-16*I"
    ],
    [
      "1.00000000000000",
      "-1.00000000000000 + 1.22464679914735e-16*I",
      "-1.00000000000000 + 1.22464679914735e-16*I",
      "1.00000000000000",
      "-1.00000000000000 + 1.22464679914735e-16*I",
      "1.00000000000000",
      "-1.00000000000000 + 1.22464679914735e-16*I"
    ],
    [
      "1.00000000000000",
      "1.00000000000000",
      "1.00000000000000",
      "-1.00000000000000 + 1.22464679914735e-16*I",
      "-1.00000000000000 + 1.22464679914735e-16*I",
      "1.00000000000000",
      "-1.00000000000000 + 1.22464679914735e-16*I"
    ],
    [
      "1.00000000000000",
      "-1.00000000000000 + 1.22464679914735e-16*I",
      "1.00000000000000",
      "-1.00000000000000 + 1.22464679914735e-16*I",
      "-1.00000000000000 + 1.22464679914735e-16*I",
      "1.00000000000000",
      "-1.00000000000000 + 1.22464679914735e-16*I"
    ],
    [
      "1.00000000000000",
      "1.00000000000000",
      "-1.00000000000000 + 1.22464679914735e-16*I",
      "-1.00000000000000 + 1.22464679914735e-16*I",
      "-1.00000000000000 + 1.22464679914735e-16*I",
      "1.00000000000000",
      "-1.00000000000000 + 1.22464679914735e-16*I"
    ],
    [
      "1.00000000000000",
      "-1.00000000000000 + 1.22464679914735e-16*I",
      "-1.00000000000000 + 1.22464679914735e-16*I",
      "-1.00000000000000 + 1.22464679914735e-16*I",
      "-1.00000000000000 + 1.22464679914735e-16*I",
      "1.00000000000000",
      "-1.00000000000000 + 1.22464679914735e-16*I"
    ],
    [
      "1.00000000000000",
      "1.00000000000000",
      "1.00000000000000",
      "1.00000000000000",
      "1.00000000000000",
      "-1.00000000000000 + 1.22464679914735e-16*I",
      "-1.00000000000000 + 1.22464679914735e-16*I"
    ],
    [
      "1.00000000000000",
      "-1.00000000000000 + 1.22464679914735e-16*I",
      "1.00000000000000",
      "1.00000000000000",
      "1.00000000000000",
      "-1.00000000000000 + 1.22464679914735e-16*I",
      "-1.00000000000000 + 1.22464679914735e-16*I"
    ],
    [
      "1.00000000000000",
      "1.00000000000000",
      "-1.00000000000000 + 1.22464679914735e-16*I",
      "1.00000000000000",
      "1.00000000000000",
      "-1.00000000000000 + 1.22464679914735e-16*I",
      "-1.00000000000000 + 1.22464679914735e-16*I"
    ],
    [
      "1.00000000000000",
      "-1.00000000000000 + 1.22464679914735e-16*I",
      "-1.00000000000000 + 1.22464679914735e-16*I",
      "1.00000000000000",
      "1.00000000000000",
      "-1.00000000000000 + 1.22464679914735e-16*I",
      "-1.00000000000000 + 1.22464679914735e-16*I"
    ],
    [
      "1.00000000000000",
      "1.00000000000000",
      "1.00000000000000",
      "-1.00000000000000 + 1.22464679914735e-16*I",
      "1.00000000000000",
      "-1.00000000000000 + 1.22464679914735e-16*I",
      "-1.00000000000000 + 1.22464679914735e-16*I"
    ],
    [
      "1.00000000000000",
      "-1.00000000000000 + 1.22464679914735e-16*I",
      "1.00000000000000",
      "-1.00000000000000 + 1.22464679914735e-16*I",
      "1.00000000000000",
      "-1.00000000000000 + 1.22464679914735e-16*I",
      "-1.00000000000000 + 1.22464679914735e-16*I"
    ],
    [
      "1.00000000000000",
      "1.00000000000000",
      "-1.00000000000000 + 1.22464679914735e-16*I",
      "-1.00000000000000 + 1.22464679914735e-16*I",
      "1.00000000000000",
      "-1.00000000000000 + 1.22464679914735e-16*I",
      "-1.00000000000000 + 1.22464679914735e-16*I"
    ],
    [
      "1.00000000000000",
      "-1.00000000000000 + 1.22464679914735e-16*I",
      "-1.00000000000000 + 1.22464679914735e-16*I",
      "-1.00000000000000 + 1.22464679914735e-16*I",
      "1.00000000000000",
      "-1.00000000000000 + 1.22464679914735e-16*I",
      "-1.00000000000000 + 1.22464679914735e-16*I"
    ],
    [
      "1.00000000000000",
      "1.00000000000000",
      "1.00000000000000",
      "1.00000000000000",
      "-1.00000000000000 + 1.22464679914735e-16*I",
      "-1.00000000000000 + 1.22464679914735e-16*I",
      "-1.00000000000000 + 1.22464679914735e-16*I"
    ],
    [
      "1.00000000000000",
      "-1.00000000000000 + 1.22464679914735e-16*I",
      "1.00000000000000",
      "1.00000000000000",
      "-1.00000000000000 + 1.22464679914735e-16*I",
      "-1.00000000000000 + 1.22464679914735e-16*I",
      "-1.00000000000000 + 1.22464679914735e-16*I"
    ],
    [
      "1.00000000000000",
      "1.00000000000000",
      "-1.00000000000000 + 1.22464679914735e-16*I",
      "1.00000000000000",
      "-1.00000000000000 + 1.22464679914735e-16*I",
      "-1.00000000000000 + 1.22464679914735e-16*I",
      "-1.00000000000000 + 1.22464679914735e-16*I"
    ],
    [
      "1.00000000000000",
      "-1.00000000000000 + 1.22464679914735e-16*I",
      "-1.00000000000000 + 1.22464679914735e-16*I",
      "1.00000000000000",
      "-1.00000000000000 + 1.22464679914735e-16*I",
      "-1.00000000000000 + 1.22464679914735e-16*I",
      "-1.00000000000000 + 1.22464679914735e-16*I"
    ],
    [
      "1.00000000000000",
      "1.00000000000000",
      "1.00000000000000",
      "-1.00000000000000 + 1.22464679914735e-16*I",
      "-1.00000000000000 + 1.22464679914735e-16*I",
      "-1.00000000000000 + 1.22464679914735e-16*I",
      "-1.00000000000000 + 1.22464679914735e-16*I"
    ],
    [
      "1.00000000000000",
      "-1.00000000000000 + 1.22464679914735e-16*I",
      "1.00000000000000",
      "-1.00000000000000 + 1.22464679914735e-16*I",
      "-1.00000000000000 + 1.22464679914735e-16*I",
      "-1.00000000000000 + 1.22464679914735e-16*I",
      "-1.00000000000000 + 1.22464679914735e-16*I"
    ],
    [
      "1.00000000000000",
      "1.00000000000000",
      "-1.00000000000000 + 1.22464679914735e-16*I",
      "-1.00000000000000 + 1.22464679914735e-16*I",
      "-1.00000000000000 + 1.22464679914735e-16*I",
      "-1.00000000000000 + 1.22464679914735e-16*I",
      "-1.00000000000000 + 1.22464679914735e-16*I"
    ],
    [
      "1.00000000000000",
      "-1.00000000000000 + 1.22464679914735e-16*I",
      "-1.00000000000000 + 1.22464679914735e-16*I",
      "-1.00000000000000 + 1.22464679914735e-16*I",
      "-1.00000000000000 + 1.22464679914735e-16*I",
      "-1.00000000000000 + 1.22464679914735e-16*I",
      "-1.00000000000000 + 1.22464679914735e-16*I"
    ]
  ]
}