# started on Fri Apr 26 17:40:45 2024


 Performance counter stats for 'taskset 1 ./command.sh':

          53933.76 msec task-clock                       #    1.000 CPUs utilized             
               539      context-switches                 #    9.994 /sec                      
                 1      cpu-migrations                   #    0.019 /sec                      
            174400      page-faults                      #    3.234 K/sec                     
      166794326930      cycles                           #    3.093 GHz                       
      223093212744      instructions                     #    1.34  insn per cycle            
       44711069067      branches                         #  829.000 M/sec                     
        1180386409      branch-misses                    #    2.64% of all branches           

      53.942369039 seconds time elapsed

      53.445536000 seconds user
       0.485438000 seconds sys


