{
  "time": "175.4155912399292",
  "steplist": [
    16,
    43,
    270,
    496,
    272,
    474,
    92,
    40,
    42,
    361,
    400,
    970,
    623,
    224,
    68,
    7,
    71,
    162,
    328,
    698,
    470,
    2096,
    53,
    23,
    185,
    163,
    932,
    132,
    132,
    60
  ]
}