# started on Fri Apr 26 19:13:30 2024


 Performance counter stats for 'taskset 1 ./command.sh':

          58257.19 msec task-clock                       #    1.000 CPUs utilized             
               596      context-switches                 #   10.230 /sec                      
                 1      cpu-migrations                   #    0.017 /sec                      
            181087      page-faults                      #    3.108 K/sec                     
      180165012487      cycles                           #    3.093 GHz                       
      253626477332      instructions                     #    1.41  insn per cycle            
       52056912838      branches                         #  893.571 M/sec                     
        1267803703      branch-misses                    #    2.44% of all branches           

      58.266578658 seconds time elapsed

      57.848826000 seconds user
       0.405475000 seconds sys


