{
  "failures": 0,
  "time": "1110.59",
  "steplist": [
    805134,
    579606,
    1255699,
    1100790,
    793898,
    629321,
    477271,
    651243,
    1177072,
    2156161,
    3477604,
    1146332,
    3041231,
    879784,
    522632,
    226008,
    1343078,
    611458,
    682981,
    852908,
    1642919,
    2669591,
    1124357,
    541948,
    986218,
    194137,
    1926147,
    259576,
    362227,
    664302
  ]
}