{
  "failures": 0,
  "time": "61.3937",
  "steplist": [
    10673,
    9696,
    10047,
    9818,
    13449,
    14666,
    18582,
    12145,
    8206,
    8692,
    8863,
    9500,
    10671,
    9061,
    11622,
    12302,
    9899,
    11490,
    10492,
    14668,
    14816,
    11837,
    8455,
    11279,
    5771,
    10772,
    8588,
    5806,
    8455,
    10095,
    12697,
    8845,
    12377,
    21224,
    17774,
    17878,
    12377,
    8122,
    5204,
    13196,
    6592,
    20132,
    10658,
    11622,
    10453,
    13196,
    10092,
    6944,
    10472,
    5204,
    10735,
    5609,
    8692,
    11279,
    20009,
    10492,
    6944,
    8313,
    9008,
    6894,
    11942,
    10416,
    10264,
    8318,
    11581,
    17973,
    9091,
    13544,
    10114,
    8692,
    9523,
    11279,
    13388,
    11537,
    17124,
    9371,
    12145,
    9600,
    13388,
    6227,
    9703,
    13507,
    12241,
    10438,
    8288,
    11622,
    12914,
    6907,
    9235,
    10472,
    6944,
    10328,
    10988,
    10503,
    13424,
    20112,
    10438,
    9703,
    13805,
    8147
  ]
}