{
  "datetime": "2024-04-25 18:09:25.347194",
  "return code": 0,
  "timeout": 3600,
  "timeout error": false,
  "memory": 8589934592,
  "memory error": false,
  "script error": false,
  "killed manually": false
}