{
  "failures": 0,
  "time": "11.7191",
  "steplist": [
    8925,
    2811,
    3638,
    3329,
    7763,
    5547,
    6870,
    3799,
    4749,
    6971,
    4633,
    3638,
    4633,
    3799,
    8925,
    3501,
    4734,
    2125,
    6870,
    4531,
    2426,
    2811,
    3329,
    8925,
    3501,
    5651,
    4531,
    3329,
    4734,
    4656,
    3638,
    2811,
    4275,
    7131,
    4734,
    5651,
    8925,
    7131,
    7763,
    7763,
    6543,
    6971,
    4633,
    7131,
    7763,
    4734,
    2811,
    4275,
    2125,
    4633,
    1409,
    3329,
    3799,
    1409,
    3976,
    4262,
    4262,
    4712,
    4712,
    1409,
    4734,
    4275,
    4633,
    3638,
    4531,
    4262,
    2426,
    7131,
    6870,
    2811,
    1409,
    1409,
    2924,
    6971,
    3799,
    4656,
    7131,
    3329,
    6543,
    4633,
    7763,
    3976,
    3976,
    3329,
    3638,
    4712,
    4633,
    2125,
    4749,
    7763,
    3976,
    3976,
    3976,
    4712,
    5651,
    2924,
    3329,
    2924,
    6543,
    5651
  ]
}