{
  "system": [
    "(-6.59153071951150 + 4.22224183192408*I)*t + x0 + 2.00000000000000*x1 + 2.00000000000000*x2 + 2.00000000000000*x3 + 2.00000000000000*x4 + 2.00000000000000*x5 + 5.59153071951150 - 4.22224183192408*I",
    "x0^2 + 2.00000000000000*x1^2 + 2.00000000000000*x2^2 + 2.00000000000000*x3^2 + 2.00000000000000*x4^2 + 2.00000000000000*x5^2 + (2.23763767983073 - 11.8961169816062*I)*t - x0 - 2.23763767983073 + 11.8961169816062*I",
    "2.00000000000000*x0*x1 + 2.00000000000000*x1*x2 + 2.00000000000000*x2*x3 + 2.00000000000000*x3*x4 + 2.00000000000000*x4*x5 + (13.9842922110324 + 0.401615002589961*I)*t - x1 - 13.9842922110324 - 0.401615002589961*I",
    "x1^2 + 2.00000000000000*x0*x2 + 2.00000000000000*x1*x3 + 2.00000000000000*x2*x4 + 2.00000000000000*x3*x5 + (-4.82048700630855 - 5.40113104770247*I)*t - x2 + 4.82048700630855 + 5.40113104770247*I",
    "2.00000000000000*x1*x2 + 2.00000000000000*x0*x3 + 2.00000000000000*x1*x4 + 2.00000000000000*x2*x5 + (-8.69111586278494 + 0.530195625488692*I)*t - x3 + 8.69111586278494 - 0.530195625488692*I",
    "x2^2 + 2.00000000000000*x1*x3 + 2.00000000000000*x0*x4 + 2.00000000000000*x1*x5 + (0.488484250652808 - 1.26282435260403*I)*t - x4 - 0.488484250652808 + 1.26282435260403*I"
  ],
  "variables": [
    "x0",
    "x1",
    "x2",
    "x3",
    "x4",
    "x5"
  ],
  "parameters": [
    "t"
  ],
  "path": [
    [
      "0.0"
    ],
    [
      "1.0"
    ]
  ],
  "fiber": [
    [
      "1.4884104943813916 - 1.4222150949808896*I",
      "0.1666636622641088 + 1.954666664626526*I",
      "0.2779359522163725 - 0.14689310518076812*I",
      "-2.050743470457604 + 0.17782847959897782*I",
      "-1.7702874918297997 + 1.2787356548913897*I",
      "-0.16353925913952552 - 0.4421092304836419*I"
    ]
  ]
}