{
    "data_list": [
        "linear/dense-10/all/1",
        "linear/dense-20/all/1",
        "linear/dense-30/all/1",
        "linear/dense-40/all/1",
        "linear/dense-50/all/1",
        "linear/dense-100/all/1",
        "linear/dense-500/all/1",
        "linear/dense-1000/all/1",
        "linear/dense-5-5/all/1",
        "linear/dense-10-10/all/1",
        "linear/dense-20-20/all/1",
        "linear/dense-30-30/all/1",
        "linear/dense-40-40/all/1",
        "linear/dense-50-50/all/1",
        "linear/katsura-4/all/1",
        "linear/katsura-6/all/1",
        "linear/katsura-8/all/1",
        "linear/katsura-10/all/1",
        "linear/katsura-15/all/1",
        "linear/katsura-20/all/1",
        "linear/katsura-25/random-100/1",
        "linear/katsura-30/random-100/1",
        "linear/katsura-40/random-100/1",
        "linear/dense-3-3-3-3/random-100/1",
        "linear/dense-3-3-3-3-3-3/random-100/1",
        "linear/dense-3-3-3-3-3-3-3-3/random-100/1",
        "linear/sumpowlin-4-3-5/random-100/1",
        "linear/sumpowlin-6-3-5/random-100/1",
        "linear/sumpowlin-8-3-5/random-100/1",
        "newton/sumpowlin-5-5-5/1",
        "newton/sumpowlin-10-10-5/1",
        "newton/sumpowlin-15-15-5/1",
        "newton/sumpowlin-20-20-5/1",
        "newton/sumpowlin-25-25-5/1",
        "newton/sumpowlin-30-30-5/1",
        "newton/dense-3-3-3-3/1",
        "newton/dense-3-3-3-3-3-3/1",
        "newton/dense-3-3-3-3-3-3-3-3/1",
        "newton/sumpowlin-4-3-5/1",
        "newton/sumpowlin-6-3-5/1",
        "newton/sumpowlin-8-3-5/1"
    ],
    "packages": [
        "homotopycontinuation",
        "algpath",
        "macaulay2"
    ],
    "header": {
        "val": "root",
        "children": [
            {
                "val": "name",
                "children": []
            },
            {
                "val": "dimension",
                "children": []
            },
            {
                "val": "max deg",
                "children": []
            },
            {
                "val": "paths",
                "children": []
            },
            {
                "val": "instructions",
                "children": [
                    {
                        "val": "f",
                        "children": []
                    },
                    {
                        "val": "df",
                        "children": []
                    }
                ]
            },
            {
                "val": "homotopycontinuation",
                "children": [
                    {
                        "val": "failures",
                        "children": []
                    },
                    {
                        "val": "medsteps",
                        "children": []
                    },
                    {
                        "val": "maxsteps",
                        "children": []
                    },
                    {
                        "val": "stepspersec",
                        "children": []
                    },
                    {
                        "val": "tottime",
                        "children": []
                    }
                ]
            },
            {
                "val": "algpath",
                "children": [
                    {
                        "val": "failures",
                        "children": []
                    },
                    {
                        "val": "medsteps",
                        "children": []
                    },
                    {
                        "val": "maxsteps",
                        "children": []
                    },
                    {
                        "val": "stepspersec",
                        "children": []
                    },
                    {
                        "val": "tottime",
                        "children": []
                    }
                ]
            },
            {
                "val": "macaulay2",
                "children": [
                    {
                        "val": "failures",
                        "children": []
                    },
                    {
                        "val": "medsteps",
                        "children": []
                    },
                    {
                        "val": "maxsteps",
                        "children": []
                    },
                    {
                        "val": "stepspersec",
                        "children": []
                    },
                    {
                        "val": "tottime",
                        "children": []
                    }
                ]
            }
        ]
    }
}