{
  "datetime": "2024-02-05 15:55:46.699344",
  "return code": 0,
  "timeout": 3600,
  "timeout error": false,
  "memory": 8589934592,
  "memory error": false,
  "script error": false,
  "killed manually": false
}