{
  "datetime": "2024-04-26 19:06:19.493337",
  "return code": -15,
  "timeout": 3600,
  "timeout error": false,
  "memory": 8589934592,
  "memory error": true,
  "script error": false,
  "killed manually": false
}