# started on Thu Apr 25 14:18:43 2024


 Performance counter stats for 'taskset 1 ./command.sh':

         336805.95 msec task-clock                       #    1.000 CPUs utilized             
             87365      context-switches                 #  259.393 /sec                      
                 0      cpu-migrations                   #    0.000 /sec                      
              9081      page-faults                      #   26.962 /sec                      
     1041479778802      cycles                           #    3.092 GHz                       
     2505051908892      instructions                     #    2.41  insn per cycle            
      339257621167      branches                         #    1.007 G/sec                     
        3878992830      branch-misses                    #    1.14% of all branches           

     336.839363251 seconds time elapsed

     321.457470000 seconds user
      15.342684000 seconds sys


