Running as unit: run-re748b5e8e2c54d109342419ae4928c03.scope; invocation ID: 43f5f5d5df7b46838761e512daba918b
[src/main.rs:28] parametric_system.f[0].instructions.len() = 244
[src/main.rs:29] parametric_system.df[0].instructions.len() = 418
continuation 1/100
153
continuation 2/100
95
continuation 3/100
53
continuation 4/100
80
continuation 5/100
53
continuation 6/100
153
continuation 7/100
46
continuation 8/100
72
continuation 9/100
72
continuation 10/100
72
continuation 11/100
92
continuation 12/100
75
continuation 13/100
121
continuation 14/100
56
continuation 15/100
46
continuation 16/100
81
continuation 17/100
81
continuation 18/100
72
continuation 19/100
72
continuation 20/100
93
continuation 21/100
55
continuation 22/100
102
continuation 23/100
79
continuation 24/100
66
continuation 25/100
76
continuation 26/100
53
continuation 27/100
75
continuation 28/100
52
continuation 29/100
35
continuation 30/100
35
continuation 31/100
53
continuation 32/100
73
continuation 33/100
67
continuation 34/100
40
continuation 35/100
79
continuation 36/100
107
continuation 37/100
80
continuation 38/100
56
continuation 39/100
145
continuation 40/100
123
continuation 41/100
36
continuation 42/100
46
continuation 43/100
46
continuation 44/100
79
continuation 45/100
79
continuation 46/100
71
continuation 47/100
36
continuation 48/100
53
continuation 49/100
80
continuation 50/100
35
continuation 51/100
55
continuation 52/100
121
continuation 53/100
148
continuation 54/100
51
continuation 55/100
123
continuation 56/100
93
continuation 57/100
66
continuation 58/100
54
continuation 59/100
70
continuation 60/100
102
continuation 61/100
92
continuation 62/100
92
continuation 63/100
66
continuation 64/100
184
continuation 65/100
153
continuation 66/100
123
continuation 67/100
66
continuation 68/100
145
continuation 69/100
51
continuation 70/100
81
continuation 71/100
76
continuation 72/100
123
continuation 73/100
80
continuation 74/100
107
continuation 75/100
153
continuation 76/100
61
continuation 77/100
199
continuation 78/100
81
continuation 79/100
51
continuation 80/100
40
continuation 81/100
107
continuation 82/100
73
continuation 83/100
124
continuation 84/100
124
continuation 85/100
62
continuation 86/100
184
continuation 87/100
52
continuation 88/100
56
continuation 89/100
79
continuation 90/100
56
continuation 91/100
70
continuation 92/100
75
continuation 93/100
52
continuation 94/100
72
continuation 95/100
78
continuation 96/100
93
continuation 97/100
80
continuation 98/100
80
continuation 99/100
51
continuation 100/100
188
