# started on Fri Apr 26 19:15:21 2024


 Performance counter stats for 'taskset 1 ./command.sh':

          61031.44 msec task-clock                       #    1.000 CPUs utilized             
               617      context-switches                 #   10.110 /sec                      
                 1      cpu-migrations                   #    0.016 /sec                      
            166746      page-faults                      #    2.732 K/sec                     
      188745512551      cycles                           #    3.093 GHz                       
      265143753068      instructions                     #    1.40  insn per cycle            
       52278508111      branches                         #  856.583 M/sec                     
        1527290906      branch-misses                    #    2.92% of all branches           

      61.041035594 seconds time elapsed

      60.620735000 seconds user
       0.407905000 seconds sys


