# started on Fri Apr 26 19:00:17 2024


 Performance counter stats for 'taskset 1 ./command.sh':

          98857.88 msec task-clock                       #    1.000 CPUs utilized             
               995      context-switches                 #   10.065 /sec                      
                 1      cpu-migrations                   #    0.010 /sec                      
            178063      page-faults                      #    1.801 K/sec                     
      305726108939      cycles                           #    3.093 GHz                       
      557337659553      instructions                     #    1.82  insn per cycle            
       72944208255      branches                         #  737.869 M/sec                     
        1889721501      branch-misses                    #    2.59% of all branches           

      98.883934386 seconds time elapsed

      98.433451000 seconds user
       0.421264000 seconds sys


