{
  "overheadtime": 4.41916155,
  "time": 0.300664456,
  "ncertified": 95,
  "failures": 0,
  "steplist": [
    98,
    96,
    115,
    114,
    84,
    113,
    101,
    122,
    98,
    153,
    128,
    119,
    129,
    100,
    117,
    108,
    129,
    76,
    103,
    123,
    126,
    111,
    127,
    142,
    106,
    112,
    125,
    117,
    100,
    74,
    84,
    120,
    90,
    98,
    113,
    116,
    109,
    125,
    174,
    73,
    112,
    118,
    77,
    95,
    98,
    124,
    106,
    138,
    103,
    86,
    109,
    102,
    163,
    128,
    119,
    105,
    122,
    120,
    140,
    176,
    80,
    84,
    76,
    110,
    91,
    139,
    143,
    82,
    80,
    109,
    98,
    119,
    118,
    130,
    124,
    71,
    118,
    103,
    128,
    131,
    85,
    92,
    85,
    87,
    135,
    135,
    151,
    126,
    99,
    86,
    111,
    120,
    82,
    62,
    170,
    106,
    98,
    113,
    125,
    101
  ]
}