# started on Fri Apr 26 19:01:56 2024


 Performance counter stats for 'taskset 1 ./command.sh':

          51556.06 msec task-clock                       #    1.000 CPUs utilized             
               529      context-switches                 #   10.261 /sec                      
                 1      cpu-migrations                   #    0.019 /sec                      
            165717      page-faults                      #    3.214 K/sec                     
      159441040728      cycles                           #    3.093 GHz                       
      215396755346      instructions                     #    1.35  insn per cycle            
       43359869007      branches                         #  841.024 M/sec                     
        1133179204      branch-misses                    #    2.61% of all branches           

      51.573574322 seconds time elapsed

      51.149721000 seconds user
       0.403929000 seconds sys


