Running as unit: run-r44af8c52fb9744fca21c587c3a67acc4.scope; invocation ID: 94fe640f05b94a33918a48726ae242cf
[src/main.rs:28] parametric_system.f[0].instructions.len() = 606
[src/main.rs:29] parametric_system.df[0].instructions.len() = 308
continuation 1/100
285
continuation 2/100
177
continuation 3/100
129
continuation 4/100
154
continuation 5/100
195
continuation 6/100
196
continuation 7/100
273
continuation 8/100
152
continuation 9/100
187
continuation 10/100
202
continuation 11/100
126
continuation 12/100
157
continuation 13/100
230
continuation 14/100
206
continuation 15/100
173
continuation 16/100
272
continuation 17/100
264
continuation 18/100
157
continuation 19/100
138
continuation 20/100
220
continuation 21/100
196
continuation 22/100
233
continuation 23/100
193
continuation 24/100
173
continuation 25/100
171
continuation 26/100
252
continuation 27/100
186
continuation 28/100
178
continuation 29/100
229
continuation 30/100
208
continuation 31/100
166
continuation 32/100
254
continuation 33/100
152
continuation 34/100
212
continuation 35/100
202
continuation 36/100
248
continuation 37/100
203
continuation 38/100
225
continuation 39/100
251
continuation 40/100
216
continuation 41/100
279
continuation 42/100
237
continuation 43/100
161
continuation 44/100
428
continuation 45/100
263
continuation 46/100
191
continuation 47/100
251
continuation 48/100
287
continuation 49/100
162
continuation 50/100
169
continuation 51/100
221
continuation 52/100
158
continuation 53/100
177
continuation 54/100
195
continuation 55/100
254
continuation 56/100
189
continuation 57/100
228
continuation 58/100
120
continuation 59/100
144
continuation 60/100
212
continuation 61/100
171
continuation 62/100
156
continuation 63/100
174
continuation 64/100
241
continuation 65/100
187
continuation 66/100
208
continuation 67/100
189
continuation 68/100
221
continuation 69/100
205
continuation 70/100
187
continuation 71/100
230
continuation 72/100
226
continuation 73/100
282
continuation 74/100
258
continuation 75/100
343
continuation 76/100
154
continuation 77/100
166
continuation 78/100
224
continuation 79/100
189
continuation 80/100
154
continuation 81/100
150
continuation 82/100
193
continuation 83/100
146
continuation 84/100
204
continuation 85/100
196
continuation 86/100
282
continuation 87/100
294
continuation 88/100
196
continuation 89/100
251
continuation 90/100
128
continuation 91/100
229
continuation 92/100
268
continuation 93/100
236
continuation 94/100
266
continuation 95/100
192
continuation 96/100
164
continuation 97/100
186
continuation 98/100
365
continuation 99/100
209
continuation 100/100
195
