# started on Fri Apr 26 17:13:37 2024


 Performance counter stats for 'taskset 1 ./command.sh':

          52444.54 msec task-clock                       #    1.000 CPUs utilized             
               500      context-switches                 #    9.534 /sec                      
                 1      cpu-migrations                   #    0.019 /sec                      
            167211      page-faults                      #    3.188 K/sec                     
      162189756418      cycles                           #    3.093 GHz                       
      216281598464      instructions                     #    1.33  insn per cycle            
       43783372891      branches                         #  834.851 M/sec                     
        1136891193      branch-misses                    #    2.60% of all branches           

      52.452972114 seconds time elapsed

      52.050165000 seconds user
       0.391904000 seconds sys


