# started on Mon Feb  5 15:40:34 2024


 Performance counter stats for './command.sh':

           4100.45 msec task-clock                       #    1.000 CPUs utilized             
                18      context-switches                 #    4.390 /sec                      
                 0      cpu-migrations                   #    0.000 /sec                      
              5098      page-faults                      #    1.243 K/sec                     
       12677414960      cycles                           #    3.092 GHz                       
       26076017576      instructions                     #    2.06  insn per cycle            
        2128723849      branches                         #  519.144 M/sec                     
           6560670      branch-misses                    #    0.31% of all branches           

       4.101026623 seconds time elapsed

       4.085368000 seconds user
       0.011989000 seconds sys


