{
  "datetime": "2024-04-25 23:52:00.263728",
  "return code": -15,
  "timeout": 3600,
  "timeout error": true,
  "memory": 8589934592,
  "memory error": false,
  "script error": false,
  "killed manually": false
}