# started on Mon Feb  5 15:34:29 2024


 Performance counter stats for './command.sh':

             25.86 msec task-clock                       #    0.986 CPUs utilized             
                 3      context-switches                 #  116.026 /sec                      
                 0      cpu-migrations                   #    0.000 /sec                      
               643      page-faults                      #   24.868 K/sec                     
          79750113      cycles                           #    3.084 GHz                       
         173723490      instructions                     #    2.18  insn per cycle            
          22170991      branches                         #  857.474 M/sec                     
            259212      branch-misses                    #    1.17% of all branches           

       0.026232164 seconds time elapsed

       0.024263000 seconds user
       0.000000000 seconds sys


