{
  "failures": 0,
  "instructions": {
    "df": 5384,
    "f": 4092
  },
  "overheadtime": 5.136384963989258,
  "steplist": [
    143.0,
    89.0,
    88.0,
    170.0,
    87.0,
    108.0,
    167.0,
    128.0,
    170.0,
    104.0,
    153.0,
    78.0,
    116.0,
    75.0,
    63.0,
    96.0,
    91.0,
    147.0,
    60.0,
    157.0,
    116.0,
    195.0,
    71.0,
    142.0,
    93.0,
    118.0,
    83.0,
    84.0,
    138.0,
    58.0,
    112.0,
    134.0,
    105.0,
    84.0,
    188.0,
    96.0,
    178.0,
    58.0,
    81.0,
    164.0,
    77.0,
    110.0,
    112.0,
    113.0,
    80.0,
    124.0,
    135.0,
    175.0,
    92.0,
    144.0,
    93.0,
    58.0,
    223.0,
    77.0,
    113.0,
    146.0,
    74.0,
    155.0,
    114.0,
    92.0,
    121.0,
    146.0,
    150.0,
    105.0,
    70.0,
    117.0,
    99.0,
    111.0,
    163.0,
    175.0,
    177.0,
    96.0,
    85.0,
    79.0,
    134.0,
    165.0,
    72.0,
    121.0,
    119.0,
    128.0,
    78.0,
    133.0,
    136.0,
    101.0,
    89.0,
    90.0,
    169.0,
    224.0,
    105.0,
    78.0,
    130.0,
    157.0,
    153.0,
    92.0,
    77.0,
    117.0,
    86.0,
    121.0,
    97.0,
    106.0
  ],
  "time": 5.017801761627197
}