# started on Fri Apr 26 17:41:39 2024


 Performance counter stats for 'taskset 1 ./command.sh':

          52989.71 msec task-clock                       #    1.000 CPUs utilized             
               521      context-switches                 #    9.832 /sec                      
                 1      cpu-migrations                   #    0.019 /sec                      
            174633      page-faults                      #    3.296 K/sec                     
      163874804831      cycles                           #    3.093 GHz                       
      219040433060      instructions                     #    1.34  insn per cycle            
       44095239170      branches                         #  832.147 M/sec                     
        1169167544      branch-misses                    #    2.65% of all branches           

      52.998363227 seconds time elapsed

      52.469797000 seconds user
       0.517286000 seconds sys


