{
  "failures": 0,
  "instructions": {
    "df": 9952,
    "f": 7816
  },
  "overheadtime": 72.55962371826172,
  "steplist": [
    90.0,
    75.0,
    98.0,
    52.0,
    45.0,
    86.0,
    106.0,
    103.0,
    46.0,
    44.0,
    81.0,
    121.0,
    306.0,
    106.0,
    71.0,
    33.0,
    85.0,
    65.0,
    44.0,
    621.0,
    83.0,
    50.0,
    45.0,
    32.0,
    51.0,
    95.0,
    57.0,
    59.0,
    94.0,
    48.0,
    91.0,
    53.0,
    77.0,
    88.0,
    128.0,
    435.0,
    53.0,
    141.0,
    222.0,
    40.0,
    82.0,
    156.0,
    197.0,
    45.0,
    52.0,
    130.0,
    221.0,
    109.0,
    129.0,
    133.0,
    116.0,
    649.0,
    83.0,
    155.0,
    60.0,
    56.0,
    49.0,
    131.0,
    89.0,
    34.0,
    95.0,
    95.0,
    78.0,
    56.0,
    96.0,
    55.0,
    178.0,
    83.0,
    42.0,
    56.0,
    174.0,
    204.0,
    50.0,
    82.0,
    75.0,
    53.0,
    59.0,
    106.0,
    327.0,
    63.0,
    264.0,
    181.0,
    77.0,
    55.0,
    85.0,
    83.0,
    70.0,
    166.0,
    179.0,
    60.0,
    56.0,
    72.0,
    36.0,
    149.0,
    46.0,
    176.0,
    168.0,
    121.0,
    50.0,
    136.0,
    68.0,
    66.0,
    273.0,
    173.0,
    125.0,
    143.0,
    40.0,
    52.0,
    141.0,
    97.0,
    73.0,
    67.0,
    40.0,
    64.0,
    92.0,
    184.0,
    79.0,
    220.0,
    215.0,
    43.0,
    57.0,
    61.0,
    169.0,
    128.0,
    51.0,
    163.0,
    50.0,
    238.0,
    75.0,
    44.0,
    74.0,
    87.0,
    115.0,
    106.0,
    179.0,
    147.0,
    83.0,
    131.0,
    51.0,
    120.0,
    83.0,
    105.0,
    54.0,
    128.0,
    105.0,
    114.0,
    89.0,
    60.0,
    57.0,
    48.0,
    50.0,
    172.0,
    51.0,
    98.0,
    86.0,
    154.0,
    176.0,
    241.0,
    142.0,
    43.0,
    166.0,
    72.0,
    302.0,
    75.0,
    101.0,
    137.0,
    85.0,
    64.0,
    138.0,
    173.0,
    55.0,
    179.0,
    165.0,
    125.0,
    533.0,
    86.0,
    63.0,
    118.0,
    50.0,
    66.0,
    61.0,
    109.0,
    48.0,
    41.0,
    112.0,
    100.0,
    101.0,
    72.0,
    65.0,
    85.0,
    91.0,
    67.0,
    114.0,
    120.0,
    168.0,
    57.0,
    59.0,
    303.0,
    157.0,
    96.0,
    91.0,
    44.0,
    109.0,
    92.0,
    40.0,
    77.0,
    105.0,
    108.0,
    94.0,
    181.0,
    56.0,
    205.0,
    61.0,
    134.0,
    77.0,
    123.0,
    66.0,
    349.0,
    56.0,
    76.0,
    36.0,
    67.0,
    51.0,
    69.0,
    369.0,
    183.0,
    33.0,
    68.0,
    121.0,
    115.0,
    132.0,
    86.0,
    125.0,
    227.0,
    81.0,
    70.0,
    84.0,
    65.0,
    160.0,
    113.0,
    45.0,
    40.0,
    153.0,
    70.0,
    63.0,
    64.0,
    151.0,
    100.0,
    176.0,
    62.0,
    63.0,
    48.0,
    60.0,
    78.0,
    130.0,
    125.0,
    69.0,
    64.0,
    149.0,
    91.0,
    115.0,
    67.0,
    179.0,
    109.0,
    154.0,
    132.0,
    79.0,
    52.0,
    370.0,
    123.0,
    95.0,
    89.0,
    53.0,
    82.0,
    64.0,
    55.0,
    39.0,
    77.0,
    50.0,
    115.0,
    36.0,
    79.0,
    118.0,
    93.0,
    85.0,
    88.0,
    78.0,
    118.0,
    93.0,
    60.0,
    137.0,
    56.0,
    45.0,
    41.0,
    99.0,
    378.0,
    62.0,
    76.0,
    94.0,
    67.0,
    76.0,
    145.0,
    88.0,
    93.0,
    62.0,
    55.0,
    28.0,
    72.0,
    376.0,
    85.0,
    116.0,
    66.0,
    46.0,
    221.0,
    84.0,
    151.0,
    74.0,
    170.0,
    111.0,
    124.0,
    75.0,
    192.0,
    61.0,
    35.0,
    56.0,
    84.0,
    120.0,
    177.0,
    79.0,
    69.0,
    87.0,
    66.0,
    145.0,
    50.0,
    80.0,
    76.0,
    106.0,
    161.0,
    73.0,
    68.0,
    84.0,
    80.0,
    50.0,
    80.0,
    268.0,
    154.0,
    117.0,
    185.0,
    67.0,
    690.0,
    142.0,
    53.0,
    72.0,
    29.0,
    45.0,
    58.0,
    69.0,
    188.0,
    76.0,
    57.0,
    81.0,
    69.0,
    169.0,
    59.0,
    37.0,
    57.0,
    47.0,
    58.0,
    46.0,
    48.0,
    431.0,
    47.0,
    533.0,
    73.0,
    22.0,
    85.0,
    153.0,
    69.0,
    80.0,
    152.0,
    117.0,
    127.0,
    58.0,
    86.0,
    62.0,
    53.0,
    69.0,
    54.0,
    128.0,
    86.0,
    41.0,
    50.0,
    205.0,
    66.0,
    63.0,
    191.0,
    43.0,
    74.0,
    91.0,
    132.0,
    89.0,
    105.0,
    118.0,
    63.0,
    70.0,
    161.0,
    108.0,
    128.0,
    151.0,
    87.0,
    52.0,
    88.0,
    50.0,
    40.0,
    141.0,
    45.0,
    33.0,
    54.0,
    88.0,
    209.0,
    64.0,
    44.0,
    41.0,
    127.0,
    34.0,
    197.0,
    49.0,
    61.0,
    81.0,
    83.0,
    74.0,
    315.0,
    47.0,
    144.0,
    131.0,
    68.0,
    101.0,
    50.0,
    154.0,
    72.0,
    96.0,
    90.0,
    108.0,
    47.0,
    131.0,
    45.0,
    60.0,
    63.0,
    108.0,
    126.0,
    96.0,
    255.0,
    32.0,
    58.0,
    79.0,
    68.0,
    46.0,
    75.0,
    45.0,
    51.0,
    87.0,
    62.0,
    72.0,
    58.0,
    130.0,
    136.0,
    134.0,
    165.0,
    130.0,
    282.0,
    56.0,
    73.0,
    539.0,
    114.0,
    86.0,
    75.0,
    158.0,
    80.0,
    41.0,
    50.0,
    77.0,
    95.0,
    118.0,
    108.0,
    336.0,
    79.0,
    71.0,
    75.0,
    70.0,
    77.0,
    72.0,
    41.0,
    87.0,
    179.0,
    141.0,
    100.0,
    202.0,
    73.0,
    86.0,
    98.0,
    85.0,
    64.0,
    173.0,
    104.0,
    169.0,
    198.0,
    235.0,
    118.0,
    85.0,
    62.0,
    73.0,
    82.0,
    45.0,
    72.0,
    47.0,
    210.0,
    122.0,
    98.0,
    273.0,
    60.0,
    80.0,
    72.0,
    61.0,
    153.0,
    72.0,
    94.0,
    325.0,
    309.0,
    58.0,
    86.0,
    101.0,
    125.0,
    174.0,
    84.0,
    64.0,
    63.0,
    79.0,
    39.0,
    97.0,
    317.0,
    67.0,
    302.0,
    68.0,
    63.0,
    329.0,
    37.0,
    39.0,
    184.0,
    97.0,
    97.0,
    58.0,
    113.0,
    49.0,
    92.0,
    132.0,
    69.0,
    91.0,
    84.0,
    62.0,
    62.0,
    46.0,
    105.0,
    37.0,
    74.0,
    155.0,
    139.0,
    131.0,
    119.0,
    320.0,
    136.0,
    52.0,
    71.0,
    84.0,
    47.0,
    50.0,
    60.0,
    56.0,
    34.0,
    82.0,
    315.0,
    75.0,
    37.0,
    125.0,
    96.0,
    39.0,
    107.0,
    140.0,
    55.0,
    174.0,
    63.0,
    119.0,
    90.0,
    76.0,
    57.0,
    54.0,
    50.0,
    59.0,
    75.0,
    46.0,
    116.0,
    70.0,
    105.0,
    72.0,
    63.0,
    163.0,
    69.0,
    63.0,
    341.0,
    157.0,
    91.0,
    118.0,
    87.0,
    76.0,
    99.0,
    71.0,
    128.0,
    214.0,
    120.0,
    317.0,
    160.0,
    118.0,
    123.0,
    40.0,
    61.0,
    45.0,
    48.0,
    63.0,
    38.0,
    356.0,
    69.0,
    88.0,
    84.0,
    50.0,
    52.0,
    166.0,
    63.0,
    49.0,
    75.0,
    67.0,
    119.0,
    373.0,
    423.0,
    103.0,
    149.0,
    245.0,
    51.0,
    60.0,
    168.0,
    125.0,
    122.0,
    186.0,
    92.0,
    81.0,
    85.0,
    57.0,
    68.0,
    135.0,
    132.0,
    62.0,
    194.0,
    69.0,
    52.0,
    133.0,
    62.0,
    128.0,
    196.0,
    112.0,
    110.0,
    75.0,
    88.0,
    64.0,
    105.0,
    346.0,
    111.0,
    75.0,
    75.0,
    66.0,
    133.0,
    53.0,
    455.0,
    60.0,
    192.0,
    342.0,
    201.0,
    55.0,
    67.0,
    60.0,
    99.0,
    104.0,
    98.0,
    107.0,
    63.0,
    130.0,
    209.0,
    55.0,
    64.0,
    86.0,
    77.0,
    193.0,
    43.0,
    48.0,
    89.0,
    74.0,
    73.0,
    56.0,
    221.0,
    78.0,
    285.0,
    90.0,
    193.0,
    77.0,
    38.0,
    114.0,
    120.0,
    107.0,
    294.0,
    55.0,
    61.0,
    685.0,
    81.0,
    66.0,
    76.0,
    248.0,
    96.0,
    154.0,
    123.0,
    135.0,
    166.0,
    93.0,
    45.0,
    55.0,
    74.0,
    263.0,
    117.0,
    91.0,
    46.0,
    65.0,
    373.0,
    88.0,
    75.0,
    63.0,
    89.0,
    108.0,
    96.0,
    89.0,
    54.0,
    97.0,
    85.0,
    103.0,
    118.0,
    35.0,
    80.0,
    97.0,
    604.0,
    51.0,
    161.0,
    93.0,
    119.0,
    54.0,
    86.0,
    80.0,
    49.0,
    170.0,
    171.0,
    75.0,
    84.0,
    415.0,
    59.0,
    237.0,
    93.0,
    65.0,
    42.0,
    69.0,
    106.0,
    217.0,
    100.0,
    79.0,
    79.0,
    117.0,
    51.0,
    78.0,
    146.0,
    81.0,
    176.0,
    59.0,
    27.0,
    71.0,
    45.0,
    43.0,
    369.0,
    59.0,
    90.0,
    82.0,
    150.0,
    53.0,
    28.0,
    91.0,
    144.0,
    143.0,
    71.0,
    126.0,
    237.0,
    32.0,
    129.0,
    325.0,
    76.0,
    77.0,
    83.0,
    166.0,
    75.0,
    265.0,
    43.0,
    153.0,
    377.0,
    125.0,
    85.0,
    96.0,
    39.0,
    129.0,
    64.0,
    109.0,
    176.0,
    53.0,
    42.0,
    113.0,
    67.0,
    49.0,
    55.0,
    206.0,
    157.0,
    45.0,
    67.0,
    118.0,
    42.0,
    108.0,
    191.0,
    116.0,
    451.0,
    126.0,
    255.0,
    87.0,
    74.0,
    116.0,
    101.0,
    100.0,
    161.0,
    278.0,
    323.0,
    104.0,
    91.0,
    43.0,
    58.0,
    98.0,
    60.0,
    57.0,
    114.0,
    67.0,
    329.0,
    39.0,
    388.0,
    139.0,
    68.0,
    48.0,
    47.0,
    78.0,
    59.0,
    149.0,
    377.0,
    96.0,
    226.0,
    134.0,
    123.0,
    76.0,
    219.0,
    82.0,
    74.0,
    52.0,
    337.0,
    61.0,
    56.0,
    101.0,
    212.0,
    220.0,
    152.0,
    78.0,
    91.0,
    184.0,
    182.0,
    70.0,
    51.0,
    165.0,
    104.0,
    48.0,
    60.0,
    60.0,
    70.0,
    126.0,
    105.0,
    34.0,
    71.0
  ],
  "time": 72.38745880126953
}