{
  "system": [
    "-1 + (x0 - x3 - x4 + x5 - x6 + x7)^3 + (x0 + x1)^3 + (-x1 + x5 - x6 - x7)^3 + (-x0 - x2 + x3 + x4 + x6 - x7)^3 + (x1 - x4 - x5 + x6 + x7)^3 - (1 - t)*(12.148916047762526 - 17.314284940204466*I)",
    "1 + (x0 + x1 - x2 - x3 - x6 + x7)^3 + (x0 + x1 + x2 + x3 - x4 + x5 - x6)^3 + (x0 + x1 + x2 - x3 - x4 + x5 + x6 - x7)^3 + (-x0 - x1 - x2 - x3 - x4 - x5 + x6 + x7)^3 + (-x1 - x2 - x3 + x4 - x5 - x7)^3 - (1 - t)*(-93.87624449150779 - 75.65765228779371*I)",
    "1 + (-x0 + x1 + x3)^3 + (-x1 - x4 - x5 + x7)^3 + (x0 + x1 + x2 + x3 + x4 - x5 - x6)^3 + (-x0 + x4)^3 + (x2 - x3 - x4 + x6)^3 - (1 - t)*(-12.26675890590093 - 39.611678154766636*I)",
    "-1 + (-x0 - x1 + x3 - x4 + x5 + x6 + x7)^3 + (x1 + x3 + x4 + x5 + x6 - x7)^3 + (x1 - x2 + x3)^3 + (x0 + x5 + x7)^3 + (x0 + x2 + x4 - x5 - x6 + x7)^3 - (1 - t)*(175.9272028075154 - 45.2437866261299*I)",
    "1 + (-x0 - x1 + x4 + x5 + x6)^3 + (-x0 - x2 + x4 - x5 + x6)^3 + (x0 + x2 - x4 - x5 + x7)^3 + (x1 + x2 + x3 + x5 + x6 - x7)^3 + (-x0 + x1 - x4 + x6 - x7)^3 - (1 - t)*(86.07738626824448 + 51.44670838142578*I)",
    "-1 + (x1 - x2 + x5 + x6 - x7)^3 + (-x1 + x2 + x3 + x4 + x5 + x6 - x7)^3 + (-x0 + x1 - x2 + x4 - x5 + x6 - x7)^3 + (-x1 - x2 + x3 - x4 + x5 + x7)^3 + (-x0 + x1 - x2)^3 - (1 - t)*(100.20873484179077 + 1.597699997663114*I)",
    "1 + (-x0 + x1 + x2 - x3 - x5 - x6 + x7)^3 + (-x0 - x2 + x4 - x5)^3 + (x0 + x1 + x6)^3 + (-x0 - x1 - x2 - x3 + x7)^3 + (-x1 + x2 + x3 - x4 - x5)^3 - (1 - t)*(53.92515884199146 - 117.0454289272645*I)",
    "1 + (x1 - x2 + x3 + x4 - x5 + x6)^3 + (x0 - x1 + x2 - x3 + x5 + x7)^3 + (x1 + x2 + x4 - x5 + x6 - x7)^3 + (x1 - x2 - x3 - x5)^3 + (x0 + x3 + x4 + x5 - x6 - x7)^3 - (1 - t)*(-104.54293334099229 - 54.432351637517165*I)"
  ],
  "variables": [
    "x0",
    "x1",
    "x2",
    "x3",
    "x4",
    "x5",
    "x6",
    "x7"
  ],
  "parameters": [
    "t"
  ],
  "path": [
    [
      "0.0"
    ],
    [
      "1.0"
    ]
  ],
  "fiber": [
    [
      "-0.5975937712327465 + 2.3970311624514777*I",
      "0.5474855723928482 + 1.4335591025985377*I",
      "-0.6370739590884936 - 0.280716834088476*I",
      "-0.84020267029717 - 0.8074620911858529*I",
      "0.5986364830246813 + 0.4442861266781691*I",
      "-0.16558241097332713 - 1.2469596224748398*I",
      "-0.6948977184098015 + 0.823510766800862*I",
      "-0.39272833496373705 + 0.7688665184388499*I"
    ]
  ]
}